<svg width="17" height="13" viewBox="0 0 17 13" fill="none" xmlns="http://www.w3.org/2000/svg">
<path d="M14.025 11.375H2.975C2.74125 11.375 2.55 11.5578 2.55 11.7812V12.5938C2.55 12.8172 2.74125 13 2.975 13H14.025C14.2588 13 14.45 12.8172 14.45 12.5938V11.7812C14.45 11.5578 14.2588 11.375 14.025 11.375ZM15.725 3.25C15.0211 3.25 14.45 3.7959 14.45 4.46875C14.45 4.64902 14.4925 4.8166 14.5669 4.97148L12.6438 6.07344C12.2347 6.30703 11.7061 6.175 11.4697 5.77891L9.30484 2.1582C9.58906 1.93477 9.775 1.59961 9.775 1.21875C9.775 0.545898 9.20391 0 8.5 0C7.79609 0 7.225 0.545898 7.225 1.21875C7.225 1.59961 7.41094 1.93477 7.69516 2.1582L5.53031 5.77891C5.29391 6.175 4.76266 6.30703 4.35625 6.07344L2.43578 4.97148C2.5075 4.81914 2.55266 4.64902 2.55266 4.46875C2.55266 3.7959 1.98156 3.25 1.27766 3.25C0.57375 3.25 0 3.7959 0 4.46875C0 5.1416 0.571094 5.6875 1.275 5.6875C1.34406 5.6875 1.41313 5.67734 1.47953 5.66719L3.4 10.5625H13.6L15.5205 5.66719C15.5869 5.67734 15.6559 5.6875 15.725 5.6875C16.4289 5.6875 17 5.1416 17 4.46875C17 3.7959 16.4289 3.25 15.725 3.25Z" fill="#C9A047"/>
</svg>
