<svg width="48" height="49" viewBox="0 0 48 49" fill="none" xmlns="http://www.w3.org/2000/svg">
<path fill-rule="evenodd" clip-rule="evenodd" d="M22.8475 21.1503C21.8292 21.1503 21.0036 21.9683 21.0036 22.9774V39.7255C21.0036 40.7346 21.8292 41.5526 22.8475 41.5526H24.3841C25.4025 41.5526 26.228 40.7346 26.228 39.7255V22.9774C26.228 21.9683 25.4025 21.1503 24.3841 21.1503H22.8475ZM21.6183 22.9774C21.6183 22.3047 22.1686 21.7594 22.8475 21.7594H24.3841C25.063 21.7594 25.6134 22.3047 25.6134 22.9774V39.7255C25.6134 40.3982 25.063 40.9436 24.3841 40.9436H22.8475C22.1686 40.9436 21.6183 40.3982 21.6183 39.7255V22.9774Z" fill="#2C2C22"/>
<path fill-rule="evenodd" clip-rule="evenodd" d="M19.0061 4.25C18.3272 4.25 17.7768 4.79534 17.7768 5.46805V43.532C17.7768 44.2047 18.3272 44.75 19.0061 44.75H28.2256C28.9045 44.75 29.4549 44.2047 29.4549 43.532V5.46805C29.4549 4.79534 28.9045 4.25 28.2256 4.25H19.0061ZM18.6988 17.953V12.7763H28.5329V17.953H18.6988ZM18.6988 11.8628H28.5329V5.46805C28.5329 5.29987 28.3954 5.16353 28.2256 5.16353H19.0061C18.8364 5.16353 18.6988 5.29987 18.6988 5.46805V11.8628ZM18.6988 18.8665H28.5329V43.532C28.5329 43.7001 28.3954 43.8365 28.2256 43.8365H19.0061C18.8364 43.8365 18.6988 43.7001 18.6988 43.532V18.8665Z" fill="#2C2C22"/>
<path d="M11.3999 6.99058L12.2507 9.29264L14.5498 10.1445L12.2507 10.9963L11.3999 13.2984L10.5492 10.9963L8.25 10.1445L10.5492 9.29264L11.3999 6.99058Z" fill="#2C2C22"/>
<path d="M37.4508 25.0619L36.6001 22.7599L35.7493 25.0619L33.4502 25.9138L35.7493 26.7656L36.6001 29.0677L37.4508 26.7656L39.75 25.9138L37.4508 25.0619Z" fill="#2C2C22"/>
<path d="M12.9757 25.1243C12.9757 25.5597 12.6231 25.9127 12.1882 25.9127C11.7533 25.9127 11.4007 25.5597 11.4007 25.1243C11.4007 24.6888 11.7533 24.3358 12.1882 24.3358C12.6231 24.3358 12.9757 24.6888 12.9757 25.1243Z" fill="#2C2C22"/>
<path d="M35.0251 9.35498C35.0251 9.79045 34.6725 10.1435 34.2376 10.1435C33.8027 10.1435 33.4502 9.79045 33.4502 9.35498C33.4502 8.91952 33.8027 8.56651 34.2376 8.56651C34.6725 8.56651 35.0251 8.91952 35.0251 9.35498Z" fill="#2C2C22"/>
</svg>
