<svg width="48" height="48" viewBox="0 0 48 48" fill="none" xmlns="http://www.w3.org/2000/svg">
<path fill-rule="evenodd" clip-rule="evenodd" d="M22.8475 20.6503C21.8292 20.6503 21.0036 21.4683 21.0036 22.4774V39.2255C21.0036 40.2346 21.8292 41.0526 22.8475 41.0526H24.3841C25.4025 41.0526 26.228 40.2346 26.228 39.2255V22.4774C26.228 21.4683 25.4025 20.6503 24.3841 20.6503H22.8475ZM21.6183 22.4774C21.6183 21.8047 22.1686 21.2594 22.8475 21.2594H24.3841C25.063 21.2594 25.6134 21.8047 25.6134 22.4774V39.2255C25.6134 39.8982 25.063 40.4436 24.3841 40.4436H22.8475C22.1686 40.4436 21.6183 39.8982 21.6183 39.2255V22.4774Z" fill="#2C2C22"/>
<path fill-rule="evenodd" clip-rule="evenodd" d="M19.0061 3.75C18.3272 3.75 17.7768 4.29534 17.7768 4.96805V43.032C17.7768 43.7047 18.3272 44.25 19.0061 44.25H28.2256C28.9045 44.25 29.4549 43.7047 29.4549 43.032V4.96805C29.4549 4.29534 28.9045 3.75 28.2256 3.75H19.0061ZM18.6988 17.453V12.2763H28.5329V17.453H18.6988ZM18.6988 11.3628H28.5329V4.96805C28.5329 4.79987 28.3954 4.66353 28.2256 4.66353H19.0061C18.8364 4.66353 18.6988 4.79987 18.6988 4.96805V11.3628ZM18.6988 18.3665H28.5329V43.032C28.5329 43.2001 28.3954 43.3365 28.2256 43.3365H19.0061C18.8364 43.3365 18.6988 43.2001 18.6988 43.032V18.3665Z" fill="#2C2C22"/>
<path d="M11.3999 6.49058L12.2507 8.79264L14.5498 9.64448L12.2507 10.4963L11.3999 12.7984L10.5492 10.4963L8.25 9.64448L10.5492 8.79264L11.3999 6.49058Z" fill="#2C2C22"/>
<path d="M37.4508 24.5619L36.6001 22.2599L35.7493 24.5619L33.4502 25.4138L35.7493 26.2656L36.6001 28.5677L37.4508 26.2656L39.75 25.4138L37.4508 24.5619Z" fill="#2C2C22"/>
<path d="M12.9757 24.6243C12.9757 25.0597 12.6231 25.4127 12.1882 25.4127C11.7533 25.4127 11.4007 25.0597 11.4007 24.6243C11.4007 24.1888 11.7533 23.8358 12.1882 23.8358C12.6231 23.8358 12.9757 24.1888 12.9757 24.6243Z" fill="#2C2C22"/>
<path d="M35.0251 8.85498C35.0251 9.29045 34.6725 9.64346 34.2376 9.64346C33.8027 9.64346 33.4502 9.29045 33.4502 8.85498C33.4502 8.41952 33.8027 8.06651 34.2376 8.06651C34.6725 8.06651 35.0251 8.41952 35.0251 8.85498Z" fill="#2C2C22"/>
</svg>
