<svg width="42" height="44" viewBox="0 0 42 44" fill="none" xmlns="http://www.w3.org/2000/svg">
<path d="M25.8128 23.0005L16.1872 34.8779L22.1707 22.2605L16.1872 9.12285L25.8128 22.0005L25.8128 23.0005Z" fill="white"/>
<rect x="0.260152" y="1.058" width="41.4797" height="41.8845" rx="20.7398" stroke="white" stroke-width="0.520305"/>
</svg>
