<svg width="49" height="49" viewBox="0 0 49 49" fill="none" xmlns="http://www.w3.org/2000/svg">
<path d="M18.1214 3.83503C18.3763 3.71158 18.6355 3.59591 18.899 3.48832L11 17.5V16.5L18.1214 3.83503Z" fill="#2C2C22"/>
<path d="M11 23.5015L22.9147 2.53433C23.1126 2.51859 23.3117 2.50711 23.5119 2.5L11 24.5015V23.5015Z" fill="#2C2C22"/>
<path d="M11 31V30L16.5 20.6399V21.6399L11 31Z" fill="#2C2C22"/>
<path d="M11.2245 37.6722C11.1558 37.4505 11.0926 37.2264 11.0352 37L16.5 27.6448V28.6448L11.2245 37.6722Z" fill="#2C2C22"/>
<path d="M13.0842 41.4461C12.9773 41.2947 12.8736 41.141 12.7729 40.9852L15.6648 36.1376C15.8008 36.2331 15.9491 36.3121 16.107 36.3717L13.0842 41.4461Z" fill="#2C2C22"/>
<path d="M15.5811 44.1264C15.4499 44.0191 15.3207 43.9094 15.1937 43.7973L19.5 36.5H20.0774L15.5811 44.1264Z" fill="#2C2C22"/>
<path d="M18.5537 45.9727C18.4012 45.9035 18.2502 45.8316 18.1008 45.7571L23.5386 36.5H24.1159L18.5537 45.9727Z" fill="#2C2C22"/>
<path d="M22 47.005C21.8244 46.9772 21.6498 46.9461 21.4765 46.9117L24.1159 42.4033V43.4033L22 47.005Z" fill="#2C2C22"/>
<path d="M24.5 15.0049L21.4961 19.9913H20.9187L21.6581 18.7108C21.7147 18.6733 21.7609 18.6339 21.7984 18.5938C21.9014 18.4839 21.9705 18.3346 21.9925 18.1315L24.5 14.0048V15.0049Z" fill="#2C2C22"/>
<path d="M24.5 7V8L21 14C20.9053 13.8352 20.8086 13.6689 20.7105 13.5014L24.5 7Z" fill="#2C2C22"/>
<path d="M18.8464 16.5758L16.8745 19.9913H17.4518L18.5157 18.1486C18.489 17.9815 18.4954 17.7779 18.5425 17.53C18.5968 17.244 18.701 16.9242 18.8464 16.5758Z" fill="#2C2C22"/>
<path d="M28.108 2.66786C27.8855 2.6063 27.6607 2.55029 27.4338 2.5L38 20.8012V19.8012L28.108 2.66786Z" fill="#2C2C22"/>
<path d="M38 30.808L32 20.4157V21.4157L38 31.808V30.808Z" fill="#2C2C22"/>
<path d="M36.6778 39.5144L33.9918 34.8622C33.9701 35.1032 33.9057 35.3318 33.8061 35.5405L36.4077 40.0466C36.5015 39.8714 36.5916 39.694 36.6778 39.5144Z" fill="#2C2C22"/>
<path d="M33.0088 44.1619L28.5 36.5H27.9226L32.6111 44.473C32.7456 44.3717 32.8782 44.268 33.0088 44.1619Z" fill="#2C2C22"/>
<path d="M28.1174 46.6902L24.5 40.4247V41.4247L27.6146 46.8193C27.7834 46.7794 27.9511 46.7364 28.1174 46.6902Z" fill="#2C2C22"/>
<path d="M32.1548 32.6803H32.7321L32 31.4122V32.4122L32.1548 32.6803Z" fill="#2C2C22"/>
<path d="M24.6492 19.6803H25.2266L24.5 18.4219V19.4219L24.6492 19.6803Z" fill="#2C2C22"/>
<path d="M24.5 8.4253L27.8855 14.2891C27.98 14.1243 28.0767 13.9578 28.1747 13.7901L24.5 7.4253V8.4253Z" fill="#2C2C22"/>
<path d="M29.7612 16.5379C29.8511 16.7817 29.9177 17.0094 29.9575 17.219C30.0109 17.5 30.0121 17.7241 29.9718 17.9028L30.9981 19.6803H31.5754L29.7612 16.5379Z" fill="#2C2C22"/>
<path fill-rule="evenodd" clip-rule="evenodd" d="M24.0531 2.45742V19.5H24.9531V1.9998L24.5031 1.5498C16.7988 1.5498 10.5531 7.79543 10.5531 15.4998V33.4998C10.5531 41.2042 16.7988 47.4498 24.5031 47.4498L24.9531 46.9998V36.5H24.0531V46.5422C17.0542 46.305 11.4531 40.5565 11.4531 33.4998V15.4998C11.4531 8.4431 17.0542 2.69459 24.0531 2.45742Z" fill="#2C2C22"/>
<path fill-rule="evenodd" clip-rule="evenodd" d="M24.9469 2.45742V19.5H24.0469V1.9998H24.4969V1.5498C32.2012 1.5498 38.4469 7.79543 38.4469 15.4998V33.4998C38.4469 41.2042 32.2012 47.4498 24.4969 47.4498V46.9998H24.0469V36.5H24.9469V46.5422C31.9458 46.305 37.5469 40.5565 37.5469 33.4998V15.4998C37.5469 8.4431 31.9458 2.69459 24.9469 2.45742Z" fill="#2C2C22"/>
<path fill-rule="evenodd" clip-rule="evenodd" d="M17.7692 20.0483C17.4506 20.0483 17.1923 20.3083 17.1923 20.629V32.3387H24.1154V20.0483H17.7692ZM16.4231 20.629C16.4231 19.8807 17.0258 19.2741 17.7692 19.2741H24.5C24.7124 19.2741 24.8846 19.4474 24.8846 19.6612V32.7258C24.8846 32.9396 24.7124 33.1129 24.5 33.1129H16.8077C16.5953 33.1129 16.4231 32.9396 16.4231 32.7258V20.629Z" fill="#2C2C22"/>
<path fill-rule="evenodd" clip-rule="evenodd" d="M31.2308 20.0483C31.5494 20.0483 31.8077 20.3083 31.8077 20.629V32.3387H24.8846V20.0483H31.2308ZM32.5769 20.629C32.5769 19.8807 31.9742 19.2741 31.2308 19.2741H24.5C24.2876 19.2741 24.1154 19.4474 24.1154 19.6612V32.7258C24.1154 32.9396 24.2876 33.1129 24.5 33.1129H32.1923C32.4047 33.1129 32.5769 32.9396 32.5769 32.7258V20.629Z" fill="#2C2C22"/>
<path fill-rule="evenodd" clip-rule="evenodd" d="M14.5 32.7258C14.5 32.512 14.6722 32.3387 14.8846 32.3387H34.1154C34.3278 32.3387 34.5 32.512 34.5 32.7258V34.1774C34.5 35.4601 33.4668 36.5 32.1923 36.5H16.8077C15.5332 36.5 14.5 35.4601 14.5 34.1774V32.7258ZM15.2692 33.1129V34.1774C15.2692 35.0326 15.958 35.7258 16.8077 35.7258H32.1923C33.042 35.7258 33.7308 35.0326 33.7308 34.1774V33.1129H15.2692Z" fill="#2C2C22"/>
<path fill-rule="evenodd" clip-rule="evenodd" d="M20.6259 12.5001C20.7627 12.4975 20.8906 12.5683 20.9616 12.686C21.4005 13.4126 21.834 14.1496 22.1827 14.8447C22.5292 15.5353 22.8055 16.2102 22.9132 16.8102C23.0205 17.4076 22.973 18.0108 22.5613 18.4578C22.1596 18.8938 21.5005 19.0807 20.633 19.0807C19.767 19.0807 19.1116 18.8945 18.7197 18.4523C18.3195 18.0007 18.2913 17.3953 18.4071 16.8042C18.524 16.2077 18.8035 15.5351 19.1418 14.8474C19.4451 14.2309 19.8078 13.5786 20.1668 12.933C20.2104 12.8546 20.2539 12.7764 20.2972 12.6983C20.364 12.5781 20.4891 12.5026 20.6259 12.5001ZM20.6453 13.6582C20.3532 14.1855 20.0725 14.7005 19.8312 15.1909C19.5 15.8641 19.2583 16.4617 19.1618 16.9539C19.0644 17.4515 19.1311 17.7534 19.2937 17.9369C19.4646 18.1298 19.8401 18.3065 20.633 18.3065C21.4243 18.3065 21.8139 18.1304 21.9972 17.9314C22.1705 17.7433 22.2445 17.4392 22.1563 16.9479C22.0685 16.4592 21.8323 15.8639 21.496 15.1937C21.25 14.7032 20.9574 14.1862 20.6453 13.6582Z" fill="#2C2C22"/>
<path fill-rule="evenodd" clip-rule="evenodd" d="M28.3182 12.5001C28.455 12.4975 28.5829 12.5683 28.6539 12.686C29.0929 13.4126 29.5263 14.1496 29.875 14.8447C30.2215 15.5353 30.4978 16.2102 30.6055 16.8102C30.7128 17.4076 30.6653 18.0108 30.2536 18.4578C29.8519 18.8938 29.1929 19.0807 28.3253 19.0807C27.4593 19.0807 26.8039 18.8945 26.412 18.4523C26.0118 18.0007 25.9836 17.3953 26.0994 16.8042C26.2163 16.2077 26.4958 15.5351 26.8342 14.8474C27.1374 14.2309 27.5001 13.5786 27.8591 12.933C27.9027 12.8546 27.9462 12.7764 27.9895 12.6983C28.0563 12.5781 28.1814 12.5026 28.3182 12.5001ZM28.3376 13.6582C28.0455 14.1855 27.7648 14.7005 27.5235 15.1909C27.1923 15.8641 26.9506 16.4617 26.8541 16.9539C26.7567 17.4515 26.8234 17.7534 26.986 17.9369C27.157 18.1298 27.5324 18.3065 28.3253 18.3065C29.1166 18.3065 29.5062 18.1304 29.6895 17.9314C29.8628 17.7433 29.9368 17.4392 29.8486 16.9479C29.7608 16.4592 29.5247 15.8639 29.1884 15.1937C28.9423 14.7032 28.6497 14.1862 28.3376 13.6582Z" fill="#2C2C22"/>
</svg>
