<svg width="64" height="64" viewBox="0 0 64 64" fill="none" xmlns="http://www.w3.org/2000/svg">
<path fill-rule="evenodd" clip-rule="evenodd" d="M7.7802 25.8585C5.91286 25.8585 4.39908 27.3723 4.39908 29.2396C4.39908 31.107 5.91286 32.6207 7.7802 32.6207H56.7481C58.6154 32.6207 60.1292 31.107 60.1292 29.2396C60.1292 27.3723 58.6154 25.8585 56.7481 25.8585H53.2504V24.4594H56.7481C59.3881 24.4594 61.5283 26.5996 61.5283 29.2396C61.5283 31.8797 59.3881 34.0198 56.7481 34.0198H7.7802C5.14017 34.0198 3 31.8797 3 29.2396C3 26.5996 5.14017 24.4594 7.7802 24.4594H11.8609V25.8585H7.7802ZM46.8379 25.8585H18.2733V24.4594H46.8379V25.8585Z" fill="#2C2C22"/>
<path fill-rule="evenodd" clip-rule="evenodd" d="M14.5604 41.6129C14.4601 40.1783 15.5417 38.9341 16.9763 38.8338C18.4109 38.7334 19.6551 39.8151 19.7555 41.2496L20.6189 53.5975C20.7192 55.032 19.6376 56.2763 18.203 56.3766C16.7685 56.4769 15.5242 55.3953 15.4239 53.9607L14.5604 41.6129ZM17.0739 40.2294C16.4102 40.2758 15.9097 40.8515 15.9561 41.5153L16.8196 53.8631C16.866 54.5269 17.4417 55.0273 18.1054 54.9809C18.7692 54.9345 19.2696 54.3588 19.2232 53.6951L18.3598 41.3472C18.3134 40.6835 17.7377 40.183 17.0739 40.2294Z" fill="#2C2C22"/>
<path fill-rule="evenodd" clip-rule="evenodd" d="M44.2448 53.6014C44.1445 55.0359 45.2261 56.2802 46.6607 56.3805C48.0953 56.4808 49.3395 55.3992 49.4398 53.9646L50.3033 41.6168C50.4036 40.1822 49.322 38.938 47.8874 38.8377C46.4529 38.7373 45.2086 39.819 45.1083 41.2535L44.2448 53.6014ZM46.7583 54.9848C46.0946 54.9384 45.5941 54.3627 45.6405 53.699L46.504 41.3511C46.5504 40.6874 47.1261 40.1869 47.7898 40.2333C48.4536 40.2798 48.954 40.8555 48.9076 41.5192L48.0442 53.8671C47.9978 54.5308 47.4221 55.0313 46.7583 54.9848Z" fill="#2C2C22"/>
<path fill-rule="evenodd" clip-rule="evenodd" d="M25.1521 40.8986C25.1521 39.5464 26.2483 38.4503 27.6005 38.4503C28.9527 38.4503 30.0489 39.5464 30.0489 40.8986V53.7236C30.0489 55.0758 28.9527 56.172 27.6005 56.172C26.2483 56.172 25.1521 55.0758 25.1521 53.7236V40.8986ZM27.6005 39.8493C27.021 39.8493 26.5512 40.3191 26.5512 40.8986V53.7236C26.5512 54.3031 27.021 54.7729 27.6005 54.7729C28.1801 54.7729 28.6499 54.3031 28.6499 53.7236V40.8986C28.6499 40.3191 28.1801 39.8493 27.6005 39.8493Z" fill="#2C2C22"/>
<path fill-rule="evenodd" clip-rule="evenodd" d="M34.4794 40.8986C34.4794 39.5464 35.5755 38.4503 36.9278 38.4503C38.28 38.4503 39.3762 39.5464 39.3762 40.8986V53.7236C39.3762 55.0758 38.28 56.172 36.9278 56.172C35.5755 56.172 34.4794 55.0758 34.4794 53.7236V40.8986ZM36.9278 39.8493C36.3482 39.8493 35.8784 40.3191 35.8784 40.8986V53.7236C35.8784 54.3031 36.3482 54.7729 36.9278 54.7729C37.5073 54.7729 37.9771 54.3031 37.9771 53.7236V40.8986C37.9771 40.3191 37.5073 39.8493 36.9278 39.8493Z" fill="#2C2C22"/>
<path fill-rule="evenodd" clip-rule="evenodd" d="M30.3778 4.89863C30.1412 3.57014 31.1224 2.33486 32.47 2.26482C33.8176 2.19477 34.9216 3.32166 34.824 4.66752L34.3125 11.717C34.2629 12.401 33.7117 12.9411 33.0268 12.9767C32.3419 13.0123 31.7376 12.5323 31.6174 11.8571L30.3778 4.89863ZM32.5426 3.66201C32.0354 3.68838 31.6661 4.15328 31.7552 4.65326L32.9398 11.3031L33.4285 4.56629C33.4653 4.05976 33.0498 3.63565 32.5426 3.66201Z" fill="#2C2C22"/>
<path fill-rule="evenodd" clip-rule="evenodd" d="M20.3779 7.90062C19.6487 6.76422 20.0601 5.24667 21.2634 4.6342C22.4668 4.02173 23.9358 4.58212 24.4255 5.84041L27.8294 14.5868C28.0798 15.2301 27.8019 15.9585 27.1867 16.2716C26.5715 16.5847 25.8191 16.3807 25.4463 15.7997L20.3779 7.90062ZM21.8981 5.88107C21.4324 6.11807 21.2732 6.70531 21.5554 7.14506L26.3247 14.578L23.1217 6.34783C22.9322 5.86091 22.3637 5.64406 21.8981 5.88107Z" fill="#2C2C22"/>
<path fill-rule="evenodd" clip-rule="evenodd" d="M40.1151 5.54904C40.4717 4.24676 41.8747 3.53708 43.135 4.0215C44.3954 4.50591 44.9619 5.97262 44.3545 7.17849L40.1323 15.5605C39.8218 16.1771 39.0946 16.458 38.4502 16.2103C37.8059 15.9626 37.454 15.267 37.6363 14.6012L40.1151 5.54904ZM42.6331 5.32744C42.1454 5.13999 41.6025 5.41461 41.4645 5.91855L39.132 14.4365L43.105 6.54909C43.34 6.08246 43.1208 5.51489 42.6331 5.32744Z" fill="#2C2C22"/>
<path fill-rule="evenodd" clip-rule="evenodd" d="M4.52195 14.3833C3.53999 12.6825 4.12273 10.5077 5.82354 9.52575C7.52435 8.54379 9.69916 9.12653 10.6811 10.8273L20.6787 28.1437C21.6607 29.8445 21.078 32.0193 19.3772 33.0013C17.6763 33.9833 15.5015 33.4005 14.5196 31.6997L4.52195 14.3833ZM6.52308 10.7374C5.49144 11.333 5.13798 12.6522 5.73359 13.6838L15.7312 31.0002C16.3268 32.0318 17.646 32.3853 18.6776 31.7897C19.7092 31.194 20.0627 29.8749 19.4671 28.8433L9.46949 11.5269C8.87387 10.4952 7.55472 10.1418 6.52308 10.7374Z" fill="#2C2C22"/>
<path fill-rule="evenodd" clip-rule="evenodd" d="M44.1626 28.1422C43.1807 29.843 43.7634 32.0178 45.4642 32.9998C47.165 33.9817 49.3398 33.399 50.3218 31.6982L60.3194 14.3818C61.3014 12.681 60.7186 10.5062 59.0178 9.52421C57.317 8.54224 55.1422 9.12498 54.1602 10.8258L44.1626 28.1422ZM46.1638 31.7881C45.1321 31.1925 44.7787 29.8733 45.3743 28.8417L55.3719 11.5253C55.9675 10.4937 57.2867 10.1402 58.3183 10.7358C59.3499 11.3315 59.7034 12.6506 59.1078 13.6823L49.1102 30.9986C48.5145 32.0303 47.1954 32.3837 46.1638 31.7881Z" fill="#2C2C22"/>
<path fill-rule="evenodd" clip-rule="evenodd" d="M6.43486 32.6207H58.0934L55.8013 59.2303C55.6663 60.7978 54.3545 62.0015 52.7812 62.0015H11.7471C10.1738 62.0015 8.86197 60.7978 8.72695 59.2303L6.43486 32.6207ZM7.95964 34.0198L10.1209 59.1102C10.1936 59.9543 10.8999 60.6024 11.7471 60.6024H52.7812C53.6284 60.6024 54.3347 59.9543 54.4074 59.1102L56.5687 34.0198H7.95964Z" fill="#2C2C22"/>
</svg>
