<svg width="48" height="48" viewBox="0 0 48 48" fill="none" xmlns="http://www.w3.org/2000/svg">
<path fill-rule="evenodd" clip-rule="evenodd" d="M25.2889 31.6038C25.1368 31.6292 24.9877 31.6275 24.8461 31.6025L24.8461 36.4279C24.8461 36.7592 24.5774 37.0279 24.2461 37.0279C23.9147 37.0279 23.6461 36.7592 23.6461 36.4279V31.7655C23.4931 31.806 23.3285 31.8182 23.1578 31.7962C21.3479 31.5631 18.0307 30.724 15.9612 28.5423C14.0134 26.489 13.2531 23.1936 12.8938 21.249C12.7082 20.2451 13.6704 19.408 14.6349 19.7079C16.4615 20.2758 19.5331 21.3469 21.434 23.3508C22.7186 24.7051 23.5256 26.4249 24.009 27.9652C24.3295 26.0525 25.0571 23.7736 26.6405 21.8297C27.7637 20.4507 29.4742 19.3863 31.1536 18.5711C32.8177 17.7634 34.5137 17.1718 35.6965 16.7591L35.7495 16.7406C36.6718 16.4188 37.7342 17.1716 37.5028 18.2428C36.988 20.6264 35.6438 24.7101 33.4634 27.387C31.1241 30.2589 27.3378 31.2614 25.2889 31.6038ZM36.3299 17.9894C36.3356 17.9627 36.3321 17.9475 36.3286 17.938C36.3243 17.9264 36.3149 17.9113 36.2972 17.8968C36.2612 17.8671 36.2065 17.8521 36.1448 17.8737L36.1079 17.8865C34.9195 18.3012 33.2784 18.8737 31.6776 19.6507C30.0503 20.4405 28.5282 21.4123 27.5709 22.5875C25.7 24.8845 25.1401 27.7539 25.0089 29.7464L30.1388 24.3386C30.3668 24.0982 30.7466 24.0882 30.987 24.3163C31.2274 24.5443 31.2374 24.9241 31.0094 25.1645L26.2466 30.1853C28.2246 29.7111 30.8412 28.7062 32.5329 26.6292C34.5381 24.1674 35.8308 20.2999 36.3299 17.9894ZM14.0738 21.031C14.0645 20.9806 14.0805 20.9303 14.1266 20.8897C14.1731 20.8487 14.2274 20.8378 14.2787 20.8538C16.1222 21.4269 18.9032 22.4265 20.5634 24.1767C22.0176 25.7097 22.8061 27.8325 23.1757 29.4865L18.3649 24.4151C18.1369 24.1746 17.7571 24.1646 17.5167 24.3927C17.2763 24.6207 17.2663 25.0005 17.4943 25.2409L22.449 30.464C20.7118 30.1192 18.3422 29.3087 16.8318 27.7165C15.1563 25.9502 14.4365 22.9936 14.0738 21.031Z" fill="#2C2C22"/>
<path fill-rule="evenodd" clip-rule="evenodd" d="M31.0547 36.375C31.0547 36.1679 31.2226 36 31.4297 36H41.1797C41.3868 36 41.5547 36.1679 41.5547 36.375V40.875C41.5547 41.0821 41.3868 41.25 41.1797 41.25H31.4297C31.2226 41.25 31.0547 41.0821 31.0547 40.875V36.375ZM32.2547 40.05V37.2H40.3547V40.05H32.2547Z" fill="#2C2C22"/>
<path fill-rule="evenodd" clip-rule="evenodd" d="M4.80468 3.75H43.0546C43.883 3.75 44.5546 4.42157 44.5546 5.25V43.4999C44.5546 44.3283 43.883 44.9999 43.0546 44.9999H4.80468C3.97626 44.9999 3.30469 44.3283 3.30469 43.4999V5.25C3.30469 4.42157 3.97626 3.75 4.80468 3.75ZM4.80469 5.25H17.5547V13.6887C17.5547 14.2687 18.185 14.6292 18.6849 14.3351L23.5494 11.4737C23.7841 11.3356 24.0752 11.3356 24.3099 11.4737L29.1744 14.3351C29.6744 14.6292 30.3047 14.2687 30.3047 13.6887V5.25H43.0546L43.0546 43.4999L4.80468 43.4999L4.80469 5.25ZM19.0547 12.3773V5.25H28.8047V12.3773L25.0705 10.1808C24.3663 9.76657 23.493 9.76656 22.7889 10.1808L19.0547 12.3773Z" fill="#2C2C22"/>
</svg>
