<svg width="121" height="121" viewBox="0 0 121 121" fill="none" xmlns="http://www.w3.org/2000/svg">
<path fill-rule="evenodd" clip-rule="evenodd" d="M60.5019 3.12646C79.7629 3.12646 95.3769 18.7405 95.3769 38.0015V83.0015C95.3769 102.262 79.7629 117.876 60.5019 117.876C41.241 117.876 25.627 102.262 25.627 83.0015V38.0015C25.627 18.7405 41.241 3.12646 60.5019 3.12646ZM93.1269 38.0015C93.1269 19.9832 78.5202 5.37646 60.5019 5.37646L60.499 5.37647V39.8791C60.6048 39.8768 60.7109 39.8757 60.8173 39.8757C62.6767 39.8757 64.4059 40.1918 66.005 40.824C67.604 41.419 68.9986 42.2743 70.1886 43.3899C71.3786 44.4684 72.3082 45.77 72.9776 47.2946C73.647 48.8193 73.9817 50.5114 73.9817 52.3707C73.9817 54.2673 73.647 55.9407 72.9776 57.391C72.6429 58.0976 72.271 58.7298 71.862 59.2876C71.4901 59.8454 71.0625 60.3846 70.579 60.9053C70.0956 61.4259 69.5564 61.9465 68.9614 62.4671C68.3664 62.9506 67.697 63.5084 66.9532 64.1406C65.3914 65.3306 64.2385 66.3718 63.4948 67.2643C62.751 68.1568 62.342 69.1609 62.2676 70.2765V71.6153H56.3548V69.9976C56.3548 68.5845 56.6337 67.3573 57.1915 66.316C57.7493 65.2376 58.4187 64.3265 59.1996 63.5828C59.9806 62.8018 61.059 61.8535 62.435 60.7379C63.0671 60.2173 63.625 59.7524 64.1084 59.3434C64.5918 58.8971 65.0195 58.5067 65.3914 58.172C66.0979 57.4654 66.6929 56.6659 67.1764 55.7734C67.697 54.8437 67.9573 53.821 67.9573 52.7054C67.9573 51.7385 67.79 50.846 67.4553 50.0279C67.1206 49.2098 66.6371 48.4846 66.005 47.8525C65.3728 47.2203 64.629 46.7368 63.7737 46.4021C62.9184 46.0303 61.9515 45.8443 60.8731 45.8443C59.7946 45.8443 58.7906 46.0489 57.8609 46.4579C56.9684 46.8298 56.1875 47.3504 55.5181 48.0198C54.8487 48.6892 54.3095 49.4701 53.9004 50.3626C53.5285 51.2551 53.3426 52.1848 53.3426 53.1517H47.374C47.374 51.2923 47.7087 49.5631 48.3781 47.964C49.0846 46.3278 50.0329 44.9146 51.2229 43.7246C52.4129 42.5346 53.826 41.605 55.4623 40.9356C56.4753 40.5079 57.5292 40.2096 58.624 40.0408V5.42961C41.4796 6.40258 27.8769 20.6135 27.8769 38.0015V83.0015C27.8769 100.389 41.4796 114.6 58.624 115.573V81.7887C57.8559 81.6373 57.1924 81.2955 56.6337 80.7634C55.8528 79.9825 55.4623 79.0528 55.4623 77.9743C55.4623 76.8959 55.8528 75.9848 56.6337 75.241C57.4146 74.4601 58.4001 74.0696 59.5901 74.0696C60.7801 74.0696 61.7656 74.4601 62.5465 75.241C63.3275 75.9848 63.7179 76.8959 63.7179 77.9743C63.7179 79.0528 63.3275 79.9825 62.5465 80.7634C61.974 81.3087 61.2915 81.6541 60.499 81.7996V115.626H60.5019C78.5202 115.626 93.1269 101.02 93.1269 83.0015V38.0015Z" fill="#2C2C22"/>
</svg>
