<svg width="48" height="48" viewBox="0 0 48 48" fill="none" xmlns="http://www.w3.org/2000/svg">
<path d="M11 17C11 16.4477 11.4477 16 12 16H24V37H11V17Z" stroke="#2C2C22" stroke-linejoin="round"/>
<path d="M8 37H40V41C40 42.1046 39.1046 43 38 43H10C8.89543 43 8 42.1046 8 41V37Z" stroke="#2C2C22" stroke-linejoin="round"/>
<path d="M37 17C37 16.4477 36.5523 16 36 16H24V37H37V17Z" stroke="#2C2C22" stroke-linejoin="round"/>
<path d="M17.9656 15C23.1415 15 20.7015 10 17.9656 5C15.4513 10 12.7897 15 17.9656 15Z" stroke="#2C2C22" stroke-linecap="round" stroke-linejoin="round"/>
<path d="M29.9656 15C35.1415 15 32.7015 10 29.9656 5C27.4513 10 24.7897 15 29.9656 15Z" stroke="#2C2C22" stroke-linecap="round" stroke-linejoin="round"/>
</svg>
