<svg width="16" height="16" viewBox="0 0 16 16" fill="none" xmlns="http://www.w3.org/2000/svg">
<path fill-rule="evenodd" clip-rule="evenodd" d="M13.3334 3.99996C13.3334 4.73329 12.7334 5.33329 12 5.33329C11.2667 5.33329 10.6667 4.73329 10.6667 3.99996C10.6667 3.26663 11.2667 2.66663 12 2.66663C12.7334 2.66663 13.3334 3.26663 13.3334 3.99996ZM2.66669 6.66663C2.66669 5.93329 3.26669 5.33329 4.00002 5.33329C4.73335 5.33329 5.33335 5.93329 5.33335 6.66663C5.33335 7.39996 4.73335 7.99996 4.00002 7.99996C3.26669 7.99996 2.66669 7.39996 2.66669 6.66663ZM5.33335 9.33329C5.33335 8.59996 5.93335 7.99996 6.66669 7.99996C7.40002 7.99996 8.00002 8.59996 8.00002 9.33329C8.00002 10.0666 7.40002 10.6666 6.66669 10.6666C5.93335 10.6666 5.33335 10.0666 5.33335 9.33329ZM4.00002 10.6666C3.26669 10.6666 2.66669 11.2666 2.66669 12C2.66669 12.7333 3.26669 13.3333 4.00002 13.3333C4.73335 13.3333 5.33335 12.7333 5.33335 12C5.33335 11.2666 4.73335 10.6666 4.00002 10.6666ZM9.33335 10.6666C8.60002 10.6666 8.00002 11.2666 8.00002 12C8.00002 12.7333 8.60002 13.3333 9.33335 13.3333C10.0667 13.3333 10.6667 12.7333 10.6667 12C10.6667 11.2666 10.0667 10.6666 9.33335 10.6666ZM10.6667 9.33329C10.6667 8.59996 11.2667 7.99996 12 7.99996C12.7334 7.99996 13.3334 8.59996 13.3334 9.33329C13.3334 10.0666 12.7334 10.6666 12 10.6666C11.2667 10.6666 10.6667 10.0666 10.6667 9.33329ZM9.33335 5.33329C8.60002 5.33329 8.00002 5.93329 8.00002 6.66663C8.00002 7.39996 8.60002 7.99996 9.33335 7.99996C10.0667 7.99996 10.6667 7.39996 10.6667 6.66663C10.6667 5.93329 10.0667 5.33329 9.33335 5.33329ZM5.33335 3.99996C5.33335 3.26663 5.93335 2.66663 6.66669 2.66663C7.40002 2.66663 8.00002 3.26663 8.00002 3.99996C8.00002 4.73329 7.40002 5.33329 6.66669 5.33329C5.93335 5.33329 5.33335 4.73329 5.33335 3.99996Z" fill="#56564E"/>
</svg>
