<svg width="160" height="224" viewBox="0 0 160 224" fill="none" xmlns="http://www.w3.org/2000/svg">
<rect x="1" y="1" width="158" height="222" rx="79" fill="#FFF4E0"/>
<path d="M92.9396 59.1454V59.1454L90.8358 68.9863C90.8358 68.9863 90.8358 68.9863 90.8358 68.9863C90.5796 70.1854 89.5693 70.999 88.4502 70.999C88.2717 70.999 88.0911 70.9784 87.9105 70.9354C86.5917 70.6222 85.7637 69.242 86.0602 67.853V67.8529L88.164 58.0119V58.0119C88.461 56.623 89.7706 55.749 91.0899 56.0629L92.9396 59.1454ZM92.9396 59.1454C93.2367 57.7564 92.4086 56.3761 91.0899 56.0629L92.9396 59.1454Z" fill="#2C2C22" stroke="#2C2C22"/>
<path d="M80.8607 68.6196L80.8607 68.6197C80.4557 68.876 80.0031 68.999 79.556 68.999C78.7457 68.999 77.9518 68.5954 77.4864 67.8574L80.8607 68.6196ZM80.8607 68.6196C82.0023 67.8965 82.343 66.3833 81.6215 65.2394L76.5137 57.1406C75.7922 55.9965 74.2814 55.6556 73.1394 56.378L73.1393 56.3781C71.9977 57.1012 71.657 58.6145 72.3785 59.7583C72.3785 59.7583 72.3785 59.7583 72.3785 59.7583L77.4864 67.8574L80.8607 68.6196Z" fill="#2C2C22" stroke="#2C2C22"/>
<path d="M98.7583 72.6205L98.7589 72.6204L106.86 67.5088C108.003 66.7873 108.343 65.2779 107.621 64.1373C106.898 62.9967 105.385 62.656 104.241 63.3777L96.1406 68.4891C94.9973 69.2105 94.6565 70.72 95.3795 71.8606C95.8455 72.5964 96.6404 72.999 97.4517 72.999C97.8998 72.999 98.3527 72.8763 98.7583 72.6205Z" fill="#2C2C22" stroke="#2C2C22"/>
<path d="M124.163 150.002L110.395 144.064L105.981 127.56C111.678 125.429 116.516 121.022 119.171 115.444C121.767 109.99 121.942 104.032 119.678 98.6097C119.662 98.5696 119.528 98.2569 119.476 98.1411L110.012 76.938C109.576 75.9612 108.497 75.4465 107.465 75.7235L86.6637 81.3053L86.9829 78.221C87.0922 77.1625 86.4218 76.1798 85.3977 75.8972L78.5884 74.0177C77.431 73.698 76.234 74.3789 75.915 75.5384C75.5961 76.6978 76.2759 77.8968 77.4334 78.2161L82.4678 79.6058L81.5385 88.587C75.3641 85.7513 67.2579 86.0542 61.6684 89.6472C57.1398 92.5582 49.9418 92.6056 45.0752 89.959L53.2008 71.7612L58.6899 73.2351C59.8491 73.5467 61.0418 72.8575 61.3527 71.6957C61.6636 70.534 60.9754 69.3401 59.8159 69.0285L52.536 67.0737C51.5048 66.7965 50.4244 67.3112 49.9884 68.2878L40.5178 89.4978C38.0461 95.0409 38.1554 101.183 40.8255 106.794C43.4811 112.374 48.3216 116.783 54.0193 118.916L49.6057 135.42L35.8366 141.352C33.3842 142.412 31.8471 144.86 32.0121 147.444C32.1767 150.024 34.0163 152.127 36.8132 152.931C36.8258 152.935 36.8384 152.938 36.851 152.942L56.0986 158.103C56.1099 158.106 56.1215 158.109 56.133 158.112C56.7728 158.272 57.403 158.351 58.0121 158.351C60.0945 158.351 61.9289 157.437 63.0367 155.772C64.4706 153.617 64.3618 150.728 62.7652 148.581L53.806 136.548L58.2193 120.045C59.4937 120.259 60.7854 120.366 62.0789 120.366C66.8761 120.365 71.6928 118.913 75.6973 116.154C76.0489 115.912 76.3902 115.661 76.7231 115.403C78.332 119.457 81.2455 122.919 85.1678 125.365C88.9902 127.75 93.5066 128.999 97.9697 128.999C99.2506 128.999 100.527 128.895 101.781 128.687L106.195 145.191L97.2352 157.225C95.6378 159.371 95.5264 162.261 96.9584 164.415C98.067 166.084 99.903 166.999 101.988 166.999C102.595 166.999 103.223 166.921 103.859 166.762C103.872 166.759 103.884 166.756 103.896 166.753L123.144 161.586C123.156 161.583 123.168 161.579 123.18 161.576C125.983 160.771 127.825 158.666 127.988 156.083C128.151 153.5 126.613 151.056 124.163 150.002ZM86.1837 85.9428L106.8 80.4108L114.921 98.6062C110.056 101.253 102.859 101.204 98.3269 98.2913C94.7647 95.9994 89.9362 94.9902 85.1989 95.4585L86.1837 85.9428ZM59.419 153.357C58.8831 154.163 57.8084 154.04 57.2043 153.891L37.9965 148.741C37.4007 148.567 36.4133 148.134 36.3514 147.167C36.3127 146.561 36.6741 145.734 37.557 145.353L50.7161 139.683L59.279 151.185C59.8541 151.957 59.7546 152.853 59.419 153.357ZM73.2336 112.566C68.648 115.725 62.5128 116.802 57.2178 115.376C57.218 115.376 57.2175 115.376 57.2178 115.376C57.2175 115.376 57.2169 115.375 57.2164 115.375C57.2167 115.375 57.2162 115.375 57.2164 115.375C51.9227 113.959 47.1456 109.952 44.7507 104.92C43.0801 101.41 42.6772 97.6468 43.5397 94.0708C46.4414 95.5358 49.8216 96.2794 53.1912 96.2792C57.0673 96.279 60.9273 95.2984 64.017 93.3124C68.6854 90.3111 76.1904 90.3512 81.0566 93.2474L80.2668 100.88C79.7768 105.629 77.279 109.779 73.2336 112.566ZM87.4668 121.669C83.7872 119.374 81.2342 115.976 80.1858 112.025C82.6535 108.986 84.1791 105.327 84.5918 101.328L84.7394 99.902C88.801 99.2916 92.9944 100.036 95.9776 101.956C99.0712 103.944 102.932 104.926 106.811 104.926C110.179 104.926 113.557 104.182 116.457 102.718C117.32 106.296 116.918 110.059 115.246 113.57C112.852 118.6 108.078 122.603 102.784 124.019H102.783C102.782 124.019 102.782 124.019 102.781 124.019C97.7337 125.381 92.0082 124.502 87.4668 121.669ZM121.998 157.385L102.791 162.541C102.188 162.689 101.114 162.809 100.578 162.003C100.243 161.498 100.145 160.603 100.721 159.829L109.284 148.327L122.445 154.003C123.326 154.382 123.687 155.205 123.648 155.808C123.588 156.776 122.596 157.21 121.998 157.385Z" fill="#2C2C22"/>
<path d="M124.163 150.002L110.395 144.064L105.981 127.56C111.678 125.429 116.516 121.022 119.171 115.444C121.767 109.99 121.942 104.032 119.678 98.6097C119.662 98.5696 119.528 98.2569 119.476 98.1411L110.012 76.938C109.576 75.9612 108.497 75.4465 107.465 75.7235L86.6637 81.3053L86.9829 78.221C87.0922 77.1625 86.4218 76.1798 85.3977 75.8972L78.5884 74.0177C77.431 73.698 76.234 74.3789 75.915 75.5384C75.5961 76.6978 76.2759 77.8968 77.4334 78.2161L82.4678 79.6058L81.5385 88.587C75.3641 85.7513 67.2579 86.0542 61.6684 89.6472C57.1398 92.5582 49.9418 92.6056 45.0752 89.959L53.2008 71.7612L58.6899 73.2351C59.8491 73.5467 61.0418 72.8575 61.3527 71.6957C61.6636 70.534 60.9754 69.3401 59.8159 69.0285L52.536 67.0737C51.5048 66.7965 50.4244 67.3112 49.9884 68.2878L40.5178 89.4978C38.0461 95.0409 38.1554 101.183 40.8255 106.794C43.4811 112.374 48.3216 116.783 54.0193 118.916L49.6057 135.42L35.8366 141.352C33.3842 142.412 31.8471 144.86 32.0121 147.444C32.1767 150.024 34.0163 152.127 36.8132 152.931C36.8258 152.935 36.8384 152.938 36.851 152.942L56.0986 158.103C56.1099 158.106 56.1215 158.109 56.133 158.112C56.7728 158.272 57.403 158.351 58.0121 158.351C60.0945 158.351 61.9289 157.437 63.0367 155.772C64.4706 153.617 64.3618 150.728 62.7652 148.581L53.806 136.548L58.2193 120.045C59.4937 120.259 60.7854 120.366 62.0789 120.366C66.8761 120.365 71.6928 118.913 75.6973 116.154C76.0489 115.912 76.3902 115.661 76.7231 115.403C78.332 119.457 81.2455 122.919 85.1678 125.365C88.9902 127.75 93.5066 128.999 97.9697 128.999C99.2506 128.999 100.527 128.895 101.781 128.687L106.195 145.191L97.2352 157.225C95.6378 159.371 95.5264 162.261 96.9584 164.415C98.067 166.084 99.903 166.999 101.988 166.999C102.595 166.999 103.223 166.921 103.859 166.762C103.872 166.759 103.884 166.756 103.896 166.753L123.144 161.586C123.156 161.583 123.168 161.579 123.18 161.576C125.983 160.771 127.825 158.666 127.988 156.083C128.151 153.5 126.613 151.056 124.163 150.002ZM86.1837 85.9428L106.8 80.4108L114.921 98.6062C110.056 101.253 102.859 101.204 98.3269 98.2913C94.7647 95.9994 89.9362 94.9902 85.1989 95.4585L86.1837 85.9428ZM59.419 153.357C58.8831 154.163 57.8084 154.04 57.2043 153.891L37.9965 148.741C37.4007 148.567 36.4133 148.134 36.3514 147.167C36.3127 146.561 36.6741 145.734 37.557 145.353L50.7161 139.683L59.279 151.185C59.8541 151.957 59.7546 152.853 59.419 153.357ZM121.998 157.385L102.791 162.541C102.188 162.689 101.114 162.809 100.578 162.003C100.243 161.498 100.145 160.603 100.721 159.829L109.284 148.327L122.445 154.003C123.326 154.382 123.687 155.205 123.648 155.808C123.588 156.776 122.596 157.21 121.998 157.385Z" stroke="#2C2C22" stroke-width="2"/>
<path d="M66 73.499V73.4991C66.0002 74.8805 67.1251 75.999 68.5032 75.999C69.8826 75.999 71 74.8795 71 73.499C71 72.1188 69.8826 70.999 68.5032 70.999H68.4903C67.1099 70.999 66 72.1196 66 73.499Z" fill="#2C2C22" stroke="#2C2C22"/>
<rect x="1" y="1" width="158" height="222" rx="79" stroke="#D4C2A6" stroke-width="2"/>
</svg>
