<svg width="120" height="185" viewBox="0 0 120 185" fill="none" xmlns="http://www.w3.org/2000/svg">
<rect x="0.5" y="1" width="119" height="183" rx="59.5" fill="#FFF4E0"/>
<path d="M59.077 66.4707L61.327 66.491L61.3427 64.7482L59.6592 64.2973L59.077 66.4707ZM43.2417 62.2293L43.8238 60.0559L42.1581 59.6098L41.2943 61.1022L43.2417 62.2293ZM34.6844 103.412L36.8093 102.672L34.6844 103.412ZM46.2299 106.504L47.6436 108.255L47.6961 108.212L47.7461 108.167L46.2299 106.504ZM33.5734 89.3296L31.3382 89.0722L33.5734 89.3296ZM56.0246 88.6275L58.1858 89.2532L56.0246 88.6275ZM39.2321 108.871L38.6163 111.035L39.2321 108.871ZM39.562 108.96L37.3891 108.376L37.3885 108.378L39.562 108.96ZM81.1798 62.2293L83.2185 61.2773L82.4814 59.6987L80.7684 60.0172L81.1798 62.2293ZM65.0623 65.2266L64.6509 63.0145L62.9551 63.3298L62.8193 65.0494L65.0623 65.2266ZM75.1027 106.073L76.7009 104.489L75.1027 106.073ZM86.8539 103.888L88.8841 104.858L88.9132 104.797L88.9387 104.734L86.8539 103.888ZM68.0268 93.8456L65.8991 94.5773L68.0268 93.8456ZM87.9815 83.5367L85.7618 83.9042L87.9815 83.5367ZM81.5606 109.039L81.1836 106.821L81.5606 109.039ZM81.8964 108.977L79.6838 109.385L79.6844 109.388L81.8964 108.977ZM79.8406 67.3755C79.2092 66.3053 77.8297 65.9496 76.7594 66.5811C75.6892 67.2125 75.3335 68.592 75.965 69.6623L79.8406 67.3755ZM75.9937 69.711C76.6252 70.7813 78.0047 71.137 79.0749 70.5055C80.1452 69.874 80.5009 68.4945 79.8694 67.4243L75.9937 69.711ZM77.6129 87.1029L77.0649 89.2852L77.6129 87.1029ZM72.5841 55.2C73.2625 54.159 72.9686 52.765 71.9275 52.0866C70.8864 51.4081 69.4924 51.7021 68.814 52.7432L72.5841 55.2ZM65.6094 57.7177C64.9449 58.7677 65.2574 60.1576 66.3074 60.8221C67.3574 61.4867 68.7473 61.1742 69.4119 60.1242L65.6094 57.7177ZM64.2815 50.5838C64.3278 49.3421 63.3587 48.2979 62.1169 48.2516C60.8751 48.2053 59.8309 49.1744 59.7846 50.4162L64.2815 50.5838ZM59.5953 56.3298C59.5655 57.5721 60.5485 58.6033 61.7908 58.6331C63.033 58.6628 64.0642 57.6799 64.094 56.4376L59.5953 56.3298ZM55.1903 53.5303C54.6163 52.4282 53.2575 52.0001 52.1554 52.5741C51.0533 53.1481 50.6252 54.5069 51.1992 55.609L55.1903 53.5303ZM53.9602 60.8426C54.5488 61.9369 55.9132 62.3469 57.0076 61.7583C58.1019 61.1697 58.5119 59.8053 57.9233 58.7109L53.9602 60.8426ZM81.9265 73.27C81.5336 72.0911 80.2594 71.4539 79.0805 71.8469C77.9016 72.2398 77.2645 73.514 77.6574 74.6929L81.9265 73.27ZM79.1353 80.148C79.3917 81.3639 80.5853 82.1417 81.8012 81.8854C83.0171 81.629 83.7949 80.4355 83.5385 79.2196L79.1353 80.148ZM53.9922 82.0635C53.9917 80.8209 52.984 79.8139 51.7414 79.8143C50.4987 79.8148 49.4917 80.8225 49.4922 82.0651L53.9922 82.0635ZM49.4922 82.1217C49.4926 83.3644 50.5003 84.3714 51.743 84.3709C52.9856 84.3705 53.9926 83.3628 53.9922 82.1202L49.4922 82.1217ZM55.689 70.9475C55.7403 69.7059 54.7755 68.6577 53.5339 68.6064C52.2923 68.555 51.2442 69.5199 51.1928 70.7615L55.689 70.9475ZM50.6371 76.3857C50.445 77.6134 51.2844 78.7644 52.5121 78.9566C53.7398 79.1487 54.8908 78.3093 55.083 77.0816L50.6371 76.3857ZM59.6592 64.2973L43.8238 60.0559L42.6595 64.4027L58.4949 68.6441L59.6592 64.2973ZM41.2943 61.1022C35.6349 70.8802 32.3143 80.5974 31.3382 89.0722L35.8086 89.5871C36.7014 81.8359 39.7776 72.7058 45.189 63.3564L41.2943 61.1022ZM31.3382 89.0722C30.691 94.6914 31.0646 99.8582 32.5596 104.152L36.8093 102.672C35.5966 99.189 35.2152 94.7395 35.8086 89.5871L31.3382 89.0722ZM32.6425 91.378C38.4704 94.0267 43.2539 91.8282 45.1924 91.2369L43.8795 86.9327C41.4245 87.6815 38.4762 89.0864 34.5044 87.2813L32.6425 91.378ZM47.7461 108.167C52.2728 104.038 55.8483 97.3266 58.1858 89.2532L53.8634 88.0017C51.6497 95.6475 48.395 101.485 44.7138 104.842L47.7461 108.167ZM58.1858 89.2532C60.1256 82.5538 61.252 74.7857 61.327 66.491L56.8271 66.4504C56.7555 74.3758 55.6783 81.7332 53.8634 88.0017L58.1858 89.2532ZM45.1924 91.2369C47.768 90.4513 50.8361 88.7704 55.1055 90.6812L56.9438 86.5738C50.7669 83.8092 45.6972 86.3782 43.8795 86.9327L45.1924 91.2369ZM32.5596 104.152C33.7285 107.509 35.6462 110.19 38.6163 111.035L39.8478 106.707C38.9654 106.456 37.7872 105.48 36.8093 102.672L32.5596 104.152ZM37.3885 108.378L32.5339 126.515L36.8809 127.679L41.7355 109.541L37.3885 108.378ZM38.6163 111.035C38.7804 111.082 38.9461 111.122 39.1133 111.157L40.0146 106.748C39.9582 106.736 39.9026 106.723 39.8478 106.707L38.6163 111.035ZM39.1133 111.157C41.9925 111.745 44.9296 110.446 47.6436 108.255L44.8163 104.754C42.5064 106.619 40.9412 106.937 40.0146 106.748L39.1133 111.157ZM41.7348 109.544L41.7368 109.536L37.3911 108.368L37.3891 108.376L41.7348 109.544ZM80.7684 60.0172L64.6509 63.0145L65.4737 67.4386L81.5912 64.4414L80.7684 60.0172ZM62.8193 65.0494C61.9299 76.3111 63.1247 86.5099 65.8991 94.5773L70.1544 93.1138C67.617 85.7353 66.4549 76.1716 67.3053 65.4037L62.8193 65.0494ZM65.8991 94.5773C67.7386 99.9263 70.304 104.427 73.5045 107.657L76.7009 104.489C74.1044 101.869 71.8412 98.0186 70.1544 93.1138L65.8991 94.5773ZM88.9387 104.734C91.2427 99.0581 91.5741 91.4611 90.2013 83.1692L85.7618 83.9042C87.0619 91.757 86.6426 98.4262 84.7691 103.041L88.9387 104.734ZM90.2013 83.1692C89.0621 76.2884 86.7282 68.7938 83.2185 61.2773L79.1411 63.1812C82.4947 70.3632 84.6959 77.466 85.7618 83.9042L90.2013 83.1692ZM73.5045 107.657C76.0069 110.182 78.8935 111.775 81.9376 111.257L81.1836 106.821C80.2788 106.975 78.7945 106.602 76.7009 104.489L73.5045 107.657ZM79.6844 109.388L83.1201 127.849L87.5441 127.026L84.1084 108.565L79.6844 109.388ZM81.9376 111.257C82.1058 111.229 82.2728 111.194 82.4384 111.153L81.3516 106.786C81.2957 106.8 81.2397 106.812 81.1836 106.821L81.9376 111.257ZM82.4384 111.153C85.2903 110.443 87.3804 108.005 88.8841 104.858L84.8237 102.918C83.5441 105.596 82.2692 106.558 81.3516 106.786L82.4384 111.153ZM84.109 108.568L84.1076 108.561L79.6824 109.378L79.6838 109.385L84.109 108.568ZM75.965 69.6623L75.9937 69.711L79.8694 67.4243L79.8406 67.3755L75.965 69.6623ZM87.5417 84.7998C83.6652 86.8013 80.6502 85.5457 78.1609 84.9207L77.0649 89.2852C79.0306 89.7788 83.9181 91.7352 89.6062 88.7983L87.5417 84.7998ZM78.1609 84.9207C76.3176 84.4578 71.1257 82.1457 65.0949 85.2158L67.1364 89.226C71.3048 87.1041 74.4532 88.6294 77.0649 89.2852L78.1609 84.9207ZM70.699 53.9716C68.814 52.7432 68.814 52.7432 68.8139 52.7432C68.8139 52.7432 68.8139 52.7433 68.8139 52.7433C68.8138 52.7434 68.8137 52.7436 68.8136 52.7438C68.8133 52.7442 68.813 52.7447 68.8125 52.7455C68.8115 52.747 68.8101 52.7492 68.8082 52.7521C68.8044 52.7578 68.7988 52.7664 68.7915 52.7777C68.7768 52.8002 68.7552 52.8334 68.7272 52.8764C68.6714 52.9622 68.5902 53.0869 68.489 53.2427C68.2867 53.5541 68.0039 53.9898 67.6821 54.4872C67.0396 55.4802 66.2374 56.7253 65.6094 57.7177L69.4119 60.1242C70.0273 59.1517 70.8194 57.9222 71.4602 56.9317C71.7801 56.4374 72.0612 56.0042 72.2624 55.6946C72.3629 55.5399 72.4435 55.416 72.4988 55.331C72.5265 55.2885 72.5479 55.2557 72.5623 55.2335C72.5695 55.2224 72.575 55.214 72.5786 55.2084C72.5805 55.2056 72.5818 55.2035 72.5828 55.2021C72.5832 55.2014 72.5835 55.2009 72.5838 55.2005C72.5839 55.2004 72.584 55.2002 72.584 55.2002C72.584 55.2001 72.5841 55.2001 72.5841 55.2001C72.5841 55.2001 72.5841 55.2 70.699 53.9716ZM62.0331 50.5C59.7846 50.4162 59.7846 50.4162 59.7846 50.4162C59.7846 50.4163 59.7846 50.4163 59.7846 50.4164C59.7846 50.4165 59.7846 50.4167 59.7846 50.4169C59.7846 50.4173 59.7846 50.418 59.7845 50.4189C59.7845 50.4207 59.7844 50.4233 59.7842 50.4268C59.784 50.4337 59.7836 50.4439 59.7831 50.4573C59.7821 50.4842 59.7807 50.5238 59.7788 50.575C59.775 50.6773 59.7696 50.826 59.7629 51.0116C59.7496 51.3827 59.7312 51.9018 59.7111 52.4938C59.6709 53.6757 59.6234 55.1559 59.5953 56.3298L64.094 56.4376C64.1216 55.2872 64.1684 53.8256 64.2085 52.6467C64.2285 52.0583 64.2467 51.5423 64.26 51.1734C64.2666 50.989 64.272 50.8414 64.2757 50.74C64.2776 50.6893 64.2791 50.6502 64.28 50.6237C64.2805 50.6105 64.2809 50.6005 64.2811 50.5938C64.2813 50.5905 64.2814 50.5879 64.2814 50.5863C64.2815 50.5854 64.2815 50.5848 64.2815 50.5844C64.2815 50.5842 64.2815 50.5841 64.2815 50.584C64.2815 50.5839 64.2815 50.5839 64.2815 50.5839C64.2815 50.5838 64.2815 50.5838 62.0331 50.5ZM53.1948 54.5697C51.1992 55.609 51.1993 55.609 51.1993 55.6091C51.1993 55.6091 51.1993 55.6091 51.1993 55.6092C51.1994 55.6093 51.1995 55.6095 51.1996 55.6097C51.1998 55.6101 51.2001 55.6107 51.2005 55.6115C51.2013 55.613 51.2025 55.6154 51.2041 55.6184C51.2073 55.6246 51.2121 55.6336 51.2183 55.6456C51.2307 55.6694 51.249 55.7045 51.2727 55.75C51.3201 55.8408 51.3889 55.9727 51.4749 56.1373C51.6469 56.4664 51.8877 56.9267 52.1631 57.4512C52.7129 58.4983 53.4039 59.8083 53.9602 60.8426L57.9233 58.7109C57.3782 57.6974 56.6957 56.4038 56.1474 55.3594C55.8737 54.8381 55.6343 54.3805 55.4633 54.0533C55.3778 53.8898 55.3095 53.7588 55.2626 53.6689C55.2391 53.6239 55.221 53.5891 55.2088 53.5657C55.2027 53.554 55.1981 53.5451 55.195 53.5391C55.1934 53.5362 55.1922 53.5339 55.1915 53.5325C55.1911 53.5317 55.1908 53.5312 55.1906 53.5308C55.1905 53.5306 55.1904 53.5305 55.1904 53.5304C55.1904 53.5304 55.1904 53.5303 55.1904 53.5303C55.1903 53.5303 55.1903 53.5303 53.1948 54.5697ZM43.6144 132.666C43.808 131.944 44.3838 131.958 43.8453 132.1C43.4154 132.213 42.6649 132.282 41.5755 132.235C39.4365 132.143 36.5734 131.636 33.6969 130.865C30.8204 130.095 28.087 129.103 26.1887 128.114C25.2219 127.61 24.6066 127.175 24.291 126.862C23.8958 126.47 24.4016 126.747 24.2078 127.469L19.8613 126.304C19.4021 128.017 20.4179 129.359 21.1226 130.058C21.9069 130.835 22.9814 131.517 24.1087 132.104C26.3987 133.298 29.4708 134.392 32.5326 135.212C35.5945 136.032 38.8023 136.62 41.3825 136.731C42.6526 136.785 43.9238 136.733 44.992 136.451C45.9515 136.198 47.5018 135.544 47.9609 133.832L43.6144 132.666ZM24.2078 127.469C24.0142 128.192 23.4384 128.178 23.9769 128.036C24.4069 127.923 25.1573 127.854 26.2467 127.901C28.3857 127.993 31.2488 128.5 34.1253 129.271L35.2896 124.924C32.2277 124.104 29.0199 123.516 26.4398 123.405C25.1696 123.35 23.8984 123.403 22.8303 123.685C21.8707 123.938 20.3204 124.592 19.8613 126.304L24.2078 127.469ZM34.1253 129.271C37.0018 130.041 39.7352 131.033 41.6335 132.022C42.6003 132.526 43.2156 132.961 43.5312 133.274C43.9264 133.666 43.4206 133.389 43.6144 132.666L47.9609 133.832C48.4201 132.119 47.4043 130.777 46.6996 130.078C45.9153 129.3 44.8408 128.619 43.7135 128.032C41.4235 126.838 38.3514 125.744 35.2896 124.924L34.1253 129.271ZM95.7709 128.625C95.634 127.89 96.1597 127.654 95.7351 128.014C95.3962 128.301 94.7488 128.687 93.7457 129.114C91.7761 129.953 88.9738 130.729 86.046 131.273C83.1183 131.817 80.2243 132.1 78.0847 132.025C76.9949 131.987 76.2521 131.86 75.8323 131.714C75.3065 131.53 75.8817 131.562 76.0185 132.297L71.5944 133.12C71.9188 134.863 73.4136 135.636 74.3505 135.963C75.3936 136.327 76.6568 136.478 77.9273 136.523C80.5083 136.613 83.7522 136.276 86.8685 135.697C89.9849 135.118 93.1329 134.266 95.5089 133.254C96.6785 132.756 97.8027 132.16 98.6453 131.446C99.4022 130.804 100.519 129.546 100.195 127.802L95.7709 128.625ZM76.0185 132.297C76.1554 133.033 75.6296 133.269 76.0542 132.909C76.3932 132.621 77.0405 132.236 78.0437 131.809C80.0133 130.97 82.8156 130.194 85.7433 129.65L84.9208 125.225C81.8045 125.805 78.6564 126.657 76.2805 127.668C75.1109 128.167 73.9866 128.762 73.1441 129.476C72.3872 130.118 71.27 131.377 71.5944 133.12L76.0185 132.297ZM85.7433 129.65C88.6711 129.105 91.5651 128.822 93.7047 128.897C94.7945 128.935 95.5373 129.062 95.957 129.209C96.4829 129.392 95.9077 129.361 95.7709 128.625L100.195 127.802C99.8706 126.059 98.3758 125.286 97.4388 124.96C96.3958 124.596 95.1326 124.444 93.8621 124.4C91.2811 124.309 88.0372 124.646 84.9208 125.225L85.7433 129.65ZM77.6574 74.6929C78.3566 76.7907 78.6732 77.9564 79.1353 80.148L83.5385 79.2196C83.0413 76.8612 82.6799 75.5303 81.9265 73.27L77.6574 74.6929ZM49.4922 82.0651L49.4922 82.1217L53.9922 82.1202L53.9922 82.0635L49.4922 82.0651ZM51.1928 70.7615C51.1014 72.9708 50.9834 74.1729 50.6371 76.3857L55.083 77.0816C55.4557 74.7003 55.5905 73.328 55.689 70.9475L51.1928 70.7615Z" fill="#2C2C22"/>
<rect x="0.5" y="1" width="119" height="183" rx="59.5" stroke="#D4C2A6"/>
</svg>
