<svg width="24" height="24" viewBox="0 0 24 24" fill="none" xmlns="http://www.w3.org/2000/svg">
<rect width="24" height="24" rx="12" fill="#2C2C22" fill-opacity="0.5"/>
<g clip-path="url(#clip0_954_38945)">
<path d="M14.5269 8.8703L13.5655 7.90894L9.47461 11.9998L13.5655 16.0908L14.5269 15.1294L11.4042 11.9998L14.5269 8.8703Z" fill="#EBD8B8"/>
</g>
<defs>
<clipPath id="clip0_954_38945">
<rect width="16.3636" height="16.3636" fill="white" transform="translate(3.81836 3.81812)"/>
</clipPath>
</defs>
</svg>
