<svg width="36" height="56" viewBox="0 0 36 56" fill="none" xmlns="http://www.w3.org/2000/svg">
<rect x="0.5" y="0.5" width="35" height="55" rx="17.5" fill="#FFF4E0"/>
<path fill-rule="evenodd" clip-rule="evenodd" d="M16.176 22.7811C15.8722 22.6313 15.5612 22.5231 15.2301 22.5157C14.8277 22.5067 14.4163 22.6467 13.9679 22.9969C13.7502 23.1668 13.6742 23.4422 13.7405 23.6951C14.394 26.1851 16.5662 33.8859 17.1008 35.7787C17.1902 36.0953 17.4828 36.3096 17.8153 36.3096H18.1048C18.4335 36.3096 18.7244 36.1019 18.8166 35.7884C19.3652 33.9245 21.5977 26.3272 22.1542 24.2393C22.2371 23.9283 22.0954 23.6076 21.8123 23.4504C21.4838 23.2679 21.1832 23.1325 20.8165 23.1477C20.5075 23.1605 20.1691 23.2793 19.7394 23.5283V22.1683C19.7394 21.2021 18.9417 20.4188 17.9577 20.4188C16.9737 20.4188 16.176 21.2021 16.176 22.1683V22.7811ZM16.176 23.1102V24.5009C16.176 25.467 16.9737 26.2503 17.9577 26.2503C18.9417 26.2503 19.7394 25.467 19.7394 24.5009V23.8701C20.2296 23.5661 20.5593 23.4502 20.829 23.439C21.1077 23.4275 21.3461 23.5264 21.6661 23.7042C21.8338 23.7973 21.9152 23.9844 21.8669 24.1654C21.3116 26.2487 19.0807 33.841 18.5314 35.7075C18.4768 35.8928 18.3049 36.018 18.1048 36.018H17.8153C17.6142 36.018 17.4402 35.8891 17.387 35.7008C16.8518 33.8063 14.6807 26.109 14.0281 23.6223C13.9879 23.4691 14.0361 23.3161 14.1527 23.2251C14.5595 22.9074 14.905 22.8001 15.2233 22.8072C15.5358 22.8142 15.8415 22.9316 16.176 23.1102ZM19.4424 22.1683V24.5009C19.4424 25.306 18.7777 25.9587 17.9577 25.9587C17.1377 25.9587 16.4729 25.306 16.4729 24.5009V22.1683C16.4729 21.3631 17.1377 20.7104 17.9577 20.7104C18.7777 20.7104 19.4424 21.3631 19.4424 22.1683Z" fill="#2C2C22"/>
<path fill-rule="evenodd" clip-rule="evenodd" d="M16.5265 12.0215C16.1962 12.0215 15.945 12.3127 15.9993 12.6326L16.1925 13.7709H15.3698C15.0746 13.7709 14.8353 14.0059 14.8353 14.2958V15.1705C14.8353 15.4603 15.0746 15.6953 15.3698 15.6953H16.0231V16.7437C15.2718 16.9651 14.2872 17.4108 13.5289 18.179C12.6996 19.0191 12.152 20.2359 12.4635 21.9184C13.0403 25.0331 15.2837 32.7794 16.5033 36.9719C16.5575 37.1585 16.6752 37.3138 16.8293 37.4185V38.8463H15.5821C15.1229 38.8463 14.7506 39.2118 14.7506 39.6627C14.7506 40.1136 15.1229 40.4791 15.5821 40.4791H16.8482L17.1043 43.4968C17.1274 43.7688 17.359 43.978 17.637 43.978H18.2783C18.5563 43.978 18.7879 43.7688 18.811 43.4968L19.0671 40.4791H20.6896V41.9953C20.6896 42.4462 21.0619 42.8117 21.5211 42.8117C21.9803 42.8117 22.3525 42.4462 22.3525 41.9953V37.3301C22.3525 36.8792 21.9803 36.5137 21.5211 36.5137C21.0619 36.5137 20.6896 36.8792 20.6896 37.3301V38.8463H19.0861V37.4689C19.2814 37.3676 19.4329 37.1913 19.4967 36.9719C20.7163 32.7794 22.9597 25.0331 23.5365 21.9184C23.848 20.2359 23.3004 19.0191 22.4711 18.179C21.7128 17.4108 20.7282 16.9651 19.9769 16.7437V15.6953H20.6302C20.9254 15.6953 21.1647 15.4603 21.1647 15.1705V14.2958C21.1647 14.0059 20.9254 13.7709 20.6302 13.7709H19.7228L19.9161 12.6326C19.9704 12.3127 19.7191 12.0215 19.3888 12.0215H16.5265ZM21.1647 40.4791H21.8774V41.9953C21.8774 42.1885 21.7179 42.3452 21.5211 42.3452C21.3243 42.3452 21.1647 42.1885 21.1647 41.9953V40.4791ZM20.6896 40.0126V39.3128H15.5821C15.3853 39.3128 15.2257 39.4695 15.2257 39.6627C15.2257 39.8559 15.3853 40.0126 15.5821 40.0126L20.6896 40.0126ZM15.3698 14.2374C15.337 14.2374 15.3104 14.2636 15.3104 14.2958V15.1705C15.3104 15.2027 15.337 15.2288 15.3698 15.2288H16.2607C16.3919 15.2288 16.4982 15.3332 16.4982 15.4621V16.9199C16.4982 17.0256 16.4259 17.1181 16.3219 17.1453C15.605 17.333 14.6098 17.7543 13.87 18.5037C13.1403 19.243 12.6486 20.3102 12.931 21.835C13.5024 24.9207 15.7365 32.6373 16.9601 36.8438C17.0037 36.9937 17.1431 37.0969 17.3025 37.0969H18.6975C18.8569 37.0969 18.9963 36.9937 19.0399 36.8438C20.2635 32.6373 22.4976 24.9207 23.069 21.835C23.3514 20.3102 22.8597 19.243 22.13 18.5037C21.3902 17.7543 20.395 17.333 19.6781 17.1453C19.5741 17.1181 19.5018 17.0256 19.5018 16.9199V15.4621C19.5018 15.3332 19.6081 15.2288 19.7393 15.2288H20.6302C20.663 15.2288 20.6896 15.2027 20.6896 15.1705V14.2958C20.6896 14.2636 20.663 14.2374 20.6302 14.2374H15.3698ZM21.1647 39.3128V40.0126L21.8774 40.0126V39.3128H21.1647ZM19.1909 13.7709C19.2199 13.7709 19.2447 13.7503 19.2494 13.7222L19.4474 12.5559C19.4534 12.5204 19.4255 12.488 19.3888 12.488H16.5265C16.4898 12.488 16.4619 12.5204 16.4679 12.5559L16.6659 13.7222C16.6707 13.7503 16.6954 13.7709 16.7245 13.7709H19.1909ZM17.5778 43.458L17.325 40.4791H18.5903L18.3375 43.458C18.3349 43.4882 18.3092 43.5115 18.2783 43.5115H17.637C17.6061 43.5115 17.5804 43.4882 17.5778 43.458ZM18.611 37.5634H17.3044V38.8463H18.611V37.5634ZM21.8774 38.8463V37.3301C21.8774 37.1369 21.7179 36.9802 21.5211 36.9802C21.3243 36.9802 21.1647 37.1369 21.1647 37.3301V38.8463H21.8774Z" fill="#2C2C22"/>
<rect x="0.5" y="0.5" width="35" height="55" rx="17.5" stroke="#D4C2A6"/>
</svg>
