<svg width="37" height="56" viewBox="0 0 37 56" fill="none" xmlns="http://www.w3.org/2000/svg">
<rect x="0.5" y="0.5" width="36" height="55" rx="18" fill="#FFF4E0"/>
<path fill-rule="evenodd" clip-rule="evenodd" d="M17.6118 25.4517C16.8268 25.4517 16.1904 26.0741 16.1904 26.8419V39.585C16.1904 40.3528 16.8268 40.9752 17.6118 40.9752H18.7962C19.5812 40.9752 20.2176 40.3528 20.2176 39.585V26.8419C20.2176 26.0741 19.5812 25.4517 18.7962 25.4517H17.6118ZM16.6642 26.8419C16.6642 26.33 17.0885 25.9151 17.6118 25.9151H18.7962C19.3196 25.9151 19.7438 26.33 19.7438 26.8419V39.585C19.7438 40.0969 19.3196 40.5118 18.7962 40.5118H17.6118C17.0885 40.5118 16.6642 40.0969 16.6642 39.585V26.8419Z" fill="#2C2C22"/>
<path fill-rule="evenodd" clip-rule="evenodd" d="M14.6507 12.5928C14.1274 12.5928 13.7031 13.0077 13.7031 13.5195V42.4812C13.7031 42.9931 14.1274 43.408 14.6507 43.408H21.7574C22.2807 43.408 22.705 42.9931 22.705 42.4812V13.5195C22.705 13.0077 22.2807 12.5928 21.7574 12.5928H14.6507ZM14.4138 23.019V19.0802H21.9943V23.019H14.4138ZM14.4138 18.3851H21.9943V13.5195C21.9943 13.3916 21.8882 13.2879 21.7574 13.2879H14.6507C14.5199 13.2879 14.4138 13.3916 14.4138 13.5195V18.3851ZM14.4138 23.7141H21.9943V42.4812C21.9943 42.6092 21.8882 42.7129 21.7574 42.7129H14.6507C14.5199 42.7129 14.4138 42.6092 14.4138 42.4812V23.7141Z" fill="#2C2C22"/>
<rect x="0.5" y="0.5" width="36" height="55" rx="18" stroke="#D4C2A6"/>
</svg>
