<svg width="120" height="120" viewBox="0 0 120 120" fill="none" xmlns="http://www.w3.org/2000/svg">
<path d="M68.5132 83.9513C69 83.4524 69 82.6436 68.5132 82.1447C68.0264 81.6458 67.2372 81.6458 66.7505 82.1447L55.6867 93.4837L51.3745 89.0643C50.8878 88.5654 50.0986 88.5654 49.6118 89.0643C49.125 89.5632 49.125 90.372 49.6118 90.8709L54.8053 96.1936C55.2921 96.6925 56.0813 96.6925 56.5681 96.1936L68.5132 83.9513Z" fill="#2C2C22"/>
<path fill-rule="evenodd" clip-rule="evenodd" d="M59.0617 108.33C69.3876 108.33 77.7584 99.7512 77.7584 89.1683C77.7584 78.5855 69.3876 70.0064 59.0617 70.0064C48.7358 70.0064 40.365 78.5855 40.365 89.1683C40.365 99.7512 48.7358 108.33 59.0617 108.33ZM59.0617 105.775C68.0108 105.775 75.2655 98.3401 75.2655 89.1683C75.2655 79.9965 68.0108 72.5613 59.0617 72.5613C50.1126 72.5613 42.8579 79.9965 42.8579 89.1683C42.8579 98.3401 50.1126 105.775 59.0617 105.775Z" fill="#2C2C22"/>
<path fill-rule="evenodd" clip-rule="evenodd" d="M31.0653 8.37748C30.8034 7.04121 31.6234 5.74535 32.8969 5.48309L50.191 1.92162C51.4645 1.65937 52.7093 2.53002 52.9712 3.86629L59.4298 36.8084C60.1964 36.8392 60.9377 36.9157 61.6536 37.0338L67.293 15.2835C67.6345 13.9662 68.9291 13.1755 70.1845 13.5174L87.2327 18.1603C88.488 18.5022 89.2289 19.8472 88.8873 21.1645L82.075 47.4387H89.185C89.8357 47.4387 90.377 47.9518 90.4277 48.6167L95.6212 116.748C95.6483 117.103 95.5295 117.454 95.2936 117.715C95.0577 117.976 94.726 118.125 94.3785 118.125H23.7465C23.399 118.125 23.0673 117.976 22.8314 117.715C22.5955 117.454 22.4767 117.103 22.5038 116.748L27.6973 48.6167C27.748 47.9518 28.2892 47.4387 28.94 47.4387H38.7236L31.0653 8.37748ZM40.5228 47.4387H43.323C43.6488 46.586 44.0489 45.7355 44.5247 44.9082L43.9372 41.9116C43.5442 39.9072 44.7742 37.9634 46.6845 37.57L49.5668 36.9765C50.6993 36.7433 51.8165 37.1073 52.6205 37.86C54.1207 37.2882 55.79 36.9209 57.633 36.8208L56.4598 30.8372L38.0128 34.6361L40.5228 47.4387ZM58.1301 39.3567C56.5351 39.4087 55.0892 39.6936 53.7888 40.1568L55.2165 47.4387H58.9558L59.3879 45.7721L58.1301 39.3567ZM61.5139 47.4387H71.9127C71.287 46.2272 70.466 45.0385 69.4549 43.9611L62.1953 41.984L61.1983 45.8291L61.5139 47.4387ZM73.4309 45.044C73.9144 45.8276 74.328 46.6315 74.6705 47.4387H80.2498L80.38 46.9365L73.4309 45.044ZM71.6662 42.6482C69.6156 40.2977 66.8389 38.3547 63.3811 37.4105L65.2873 30.0584L83.472 35.0109L80.8438 45.1476L71.6662 42.6482ZM62.7397 39.8844C63.7377 40.1587 64.6683 40.5296 65.5304 40.9771L62.6591 40.1952L62.7397 39.8844ZM61.0091 39.5196C60.659 39.4672 60.3017 39.4264 59.9374 39.3977L60.4124 41.8207L61.0091 39.5196ZM54.017 47.4387L52.6783 40.6108C49.5959 42.0404 47.4434 44.515 46.1628 47.1453L46.2203 47.4387H54.017ZM45.4434 43.4761C46.896 41.4386 48.8538 39.6343 51.341 38.4157C50.8829 38.1682 50.3461 38.0746 49.804 38.1862L46.9217 38.7798C45.6482 39.0421 44.8282 40.3379 45.0901 41.6742L45.4434 43.4761ZM35.6409 22.5385L37.657 32.8215L56.1041 29.0226L54.088 18.7396L35.6409 22.5385ZM53.7322 16.925L35.2852 20.7239L32.7948 8.02133C32.7293 7.68727 32.9343 7.3633 33.2526 7.29773L50.5468 3.73627C50.8651 3.67071 51.1763 3.88837 51.2418 4.22244L53.7322 16.925ZM83.9359 33.2221L65.7512 28.2696L68.9978 15.7477C69.0832 15.4184 69.4068 15.2208 69.7207 15.3062L86.7688 19.9492C87.0827 20.0346 87.2679 20.3709 87.1825 20.7002L83.9359 33.2221ZM88.0321 49.9936H75.5177C75.7646 51.0248 75.8896 52.0308 75.8896 52.9744V53.9741C78.2717 54.5508 80.0444 56.7441 80.0444 59.3617C80.0444 62.419 77.6261 64.8974 74.6431 64.8974C71.6601 64.8974 69.2418 62.419 69.2418 59.3617C69.2418 56.7441 71.0145 54.5508 73.3967 53.9741V52.9744C73.3967 52.0491 73.2434 51.0362 72.9401 49.9936H45.119C44.8574 51.0308 44.7283 52.0426 44.7283 52.9744V53.9741C47.1105 54.5508 48.8832 56.7441 48.8832 59.3617C48.8832 62.419 46.4649 64.8974 43.4819 64.8974C40.4988 64.8974 38.0806 62.419 38.0806 59.3617C38.0806 56.7441 39.8533 54.5508 42.2354 53.9741V52.9744C42.2354 52.0355 42.3443 51.0288 42.5647 49.9936H30.0929L25.0941 115.57H93.0309L88.0321 49.9936ZM43.4819 56.3809C41.8756 56.3809 40.5735 57.7155 40.5735 59.3617C40.5735 61.0079 41.8756 62.3424 43.4819 62.3424C45.0881 62.3424 46.3903 61.0079 46.3903 59.3617C46.3903 57.7155 45.0881 56.3809 43.4819 56.3809ZM71.7347 59.3617C71.7347 57.7155 73.0368 56.3809 74.6431 56.3809C76.2494 56.3809 77.5515 57.7155 77.5515 59.3617C77.5515 61.0079 76.2494 62.3424 74.6431 62.3424C73.0368 62.3424 71.7347 61.0079 71.7347 59.3617Z" fill="#2C2C22"/>
</svg>
