<svg width="43" height="33" viewBox="0 0 43 33" fill="none" xmlns="http://www.w3.org/2000/svg">
<path d="M1.71289 32.8926V30.4512C5.06576 29.2142 7.70247 27.2773 9.62305 24.6406C11.5436 21.9714 12.5039 19.2044 12.5039 16.3398C12.5039 15.7214 12.4062 15.2656 12.2109 14.9727C12.1133 14.7773 11.9831 14.6797 11.8203 14.6797C11.6576 14.6797 11.3971 14.8099 11.0391 15.0703C9.9974 15.819 8.69531 16.1934 7.13281 16.1934C5.24479 16.1934 3.58464 15.4447 2.15234 13.9473C0.752604 12.4173 0.0527344 10.6107 0.0527344 8.52734C0.0527344 6.3138 0.866536 4.39323 2.49414 2.76562C4.12174 1.10547 6.1237 0.275391 8.5 0.275391C11.2018 0.275391 13.5456 1.39844 15.5312 3.64453C17.5495 5.85807 18.5586 8.85286 18.5586 12.6289C18.5586 17.0234 17.2077 20.9622 14.5059 24.4453C11.804 27.9284 7.53971 30.7441 1.71289 32.8926ZM25.1992 32.8926V30.4512C28.5521 29.2142 31.1888 27.2773 33.1094 24.6406C35.0299 21.9714 35.9902 19.2044 35.9902 16.3398C35.9902 15.7214 35.8926 15.2656 35.6973 14.9727C35.5996 14.7773 35.4694 14.6797 35.3066 14.6797C35.1439 14.6797 34.8835 14.8099 34.5254 15.0703C33.4837 15.819 32.1816 16.1934 30.6191 16.1934C28.7311 16.1934 27.071 15.4447 25.6387 13.9473C24.2389 12.4173 23.5391 10.6107 23.5391 8.52734C23.5391 6.3138 24.3529 4.39323 25.9805 2.76562C27.6081 1.10547 29.61 0.275391 31.9863 0.275391C34.6882 0.275391 37.0319 1.39844 39.0176 3.64453C41.0358 5.85807 42.0449 8.85286 42.0449 12.6289C42.0449 17.0234 40.694 20.9622 37.9922 24.4453C35.2904 27.9284 31.026 30.7441 25.1992 32.8926Z" fill="#2C2C22"/>
</svg>
