<svg width="24" height="24" viewBox="0 0 24 24" fill="none" xmlns="http://www.w3.org/2000/svg">
<path d="M0 12C0 5.37258 5.37258 0 12 0V0C18.6274 0 24 5.37258 24 12V12C24 18.6274 18.6274 24 12 24V24C5.37258 24 0 18.6274 0 12V12Z" fill="#2C2C22" fill-opacity="0.5"/>
<g clip-path="url(#clip0_954_38951)">
<path d="M10.434 7.90894L9.47266 8.8703L12.5954 11.9998L9.47266 15.1294L10.434 16.0908L14.5249 11.9998L10.434 7.90894Z" fill="#EBD8B8"/>
</g>
<defs>
<clipPath id="clip0_954_38951">
<rect width="16.3636" height="16.3636" fill="white" transform="translate(3.81836 3.81812)"/>
</clipPath>
</defs>
</svg>
