<svg width="100" height="149" viewBox="0 0 100 149" fill="none" xmlns="http://www.w3.org/2000/svg">
<rect x="1" y="1.33301" width="98" height="146" rx="49" fill="#FFF4E0"/>
<path d="M34.4436 78.4611L33.7359 79.1675L34.4436 78.4611ZM52.5068 84.7848L52.3556 83.7963L51.5069 83.9261L51.5068 84.7847L52.5068 84.7848ZM47.5029 84.776H48.5029L48.5029 83.8912L47.6247 83.7834L47.5029 84.776ZM52.842 84.7335L52.7133 83.7418L52.7021 83.7433L52.6908 83.745L52.842 84.7335ZM47.1827 84.7367L47.0551 85.7285L47.061 85.7293L47.1827 84.7367ZM52.5064 93.803L51.5064 93.8029L51.5063 94.8025L52.5059 94.803L52.5064 93.803ZM40.9939 93.8051V94.8051H40.9942L40.9939 93.8051ZM47.5029 93.803L47.5033 94.803L48.5029 94.8026V93.803H47.5029ZM58.9955 93.8059L58.995 94.8059H58.9955V93.8059ZM58.9939 98.8152L58.9937 99.8152H58.9939V98.8152ZM52.5051 98.8143L52.5052 97.8143L51.5054 97.8142L51.5051 98.814L52.5051 98.8143ZM47.5145 105.328H48.5145V105.328L47.5145 105.328ZM47.5129 98.8117L48.5129 98.8115L48.5126 97.8113L47.5124 97.8117L47.5129 98.8117ZM40.9939 98.8146V99.8146H40.9943L40.9939 98.8146ZM52.5026 105.328L51.5026 105.327V105.328H52.5026ZM61.4978 96.3104H62.4978H61.4978ZM50.0051 107.833V106.833V107.833ZM35.1514 77.7547C26.9495 69.5371 26.9495 56.213 35.1514 47.9954L33.7359 46.5825C24.7547 55.5809 24.7547 70.1692 33.7359 79.1675L35.1514 77.7547ZM35.1514 47.9954C43.3523 39.7789 56.6477 39.7789 64.8486 47.9954L66.2641 46.5825C57.2819 37.5832 42.7181 37.5832 33.7359 46.5825L35.1514 47.9954ZM64.8486 47.9954C73.0505 56.213 73.0505 69.5371 64.8486 77.7547L66.2641 79.1676C75.2453 70.1692 75.2453 55.5809 66.2641 46.5825L64.8486 47.9954ZM38.6868 74.2123C32.4375 67.951 32.4375 57.7988 38.6868 51.5375L37.2713 50.1247C30.2427 57.1667 30.2427 68.5832 37.2713 75.6251L38.6868 74.2123ZM38.6868 51.5375C44.9351 45.2774 55.0647 45.2774 61.3129 51.5376L62.7285 50.1247C55.6989 43.0817 44.3009 43.0817 37.2713 50.1247L38.6868 51.5375ZM61.3129 51.5376C67.5622 57.7988 67.5622 67.951 61.3129 74.2123L62.7285 75.6251C69.757 68.5832 69.757 57.1667 62.7285 50.1247L61.3129 51.5376ZM61.3129 74.2123C55.0647 80.4724 44.9351 80.4724 38.6868 74.2123L37.2713 75.6251C44.3009 82.6681 55.6989 82.6682 62.7285 75.6251L61.3129 74.2123ZM64.8486 77.7547C61.4387 81.1711 57.1508 83.1659 52.7133 83.7418L52.9708 85.7252C57.8318 85.0943 62.5314 82.9075 66.2641 79.1676L64.8486 77.7547ZM47.3103 83.7449C42.8644 83.173 38.5674 81.1772 35.1514 77.7547L33.7359 79.1675C37.4753 82.9141 42.1849 85.102 47.0551 85.7285L47.3103 83.7449ZM52.6908 83.745L52.3556 83.7963L52.6581 85.7733L52.9933 85.722L52.6908 83.745ZM47.061 85.7293L47.3812 85.7685L47.6247 83.7834L47.3045 83.7441L47.061 85.7293ZM51.5068 84.7847L51.5064 93.8029L53.5064 93.803L53.5068 84.7848L51.5068 84.7847ZM40.9942 94.8051L47.5033 94.803L47.5026 92.803L40.9935 92.8051L40.9942 94.8051ZM48.5029 93.803L48.5029 84.776H46.5029L46.5029 93.803H48.5029ZM52.5059 94.803L58.995 94.8059L58.9959 92.8059L52.5068 92.803L52.5059 94.803ZM58.994 97.8152L52.5052 97.8143L52.5049 99.8143L58.9937 99.8152L58.994 97.8152ZM48.5145 105.328L48.5129 98.8115L46.5129 98.812L46.5145 105.328L48.5145 105.328ZM47.5124 97.8117L40.9934 97.8146L40.9943 99.8146L47.5133 99.8117L47.5124 97.8117ZM51.5051 98.814L51.5026 105.327L53.5026 105.328L53.5051 98.8147L51.5051 98.814ZM60.4978 96.3104C60.4978 97.1412 59.8225 97.8152 58.9939 97.8152V99.8152C60.9266 99.8152 62.4978 98.2462 62.4978 96.3104H60.4978ZM58.9955 94.8059C59.8235 94.8059 60.4978 95.4789 60.4978 96.3104H62.4978C62.4978 94.3752 60.9289 92.8059 58.9955 92.8059V94.8059ZM40.9939 97.8146C40.1672 97.8146 39.4939 97.1427 39.4939 96.3099H37.4939C37.4939 98.2437 39.0591 99.8146 40.9939 99.8146V97.8146ZM39.4939 96.3099C39.4939 95.477 40.1672 94.8051 40.9939 94.8051V92.8051C39.0591 92.8051 37.4939 94.376 37.4939 96.3099H39.4939ZM51.5026 105.328C51.5026 106.162 50.8302 106.833 50.0051 106.833V108.833C51.9414 108.833 53.5026 107.26 53.5026 105.328H51.5026ZM50.0051 106.833C49.1834 106.833 48.5145 106.166 48.5145 105.328H46.5145C46.5145 107.257 48.0653 108.833 50.0051 108.833V106.833Z" fill="black"/>
<rect x="1" y="1.33301" width="98" height="146" rx="49" stroke="#D4C2A6" stroke-width="2"/>
</svg>
