<svg width="140" height="45" viewBox="0 0 140 45" fill="none" xmlns="http://www.w3.org/2000/svg">
<path d="M19.3867 3.99667C19.2605 4.04002 19.1459 4.11158 19.0516 4.20589C18.9573 4.30021 18.8857 4.4148 18.8424 4.54094C18.7816 4.96209 18.7816 5.38978 18.8424 5.81093V17.4524C18.7804 17.8836 18.7804 18.3215 18.8424 18.7526C18.8857 18.8788 18.9573 18.9934 19.0516 19.0877C19.1459 19.182 19.2605 19.2536 19.3867 19.2969C19.7905 19.4099 20.2071 19.4709 20.6264 19.4784V19.9622C19.9007 19.9622 18.8928 19.9622 17.6026 19.9622C16.3125 19.9622 15.3046 19.9622 14.5789 19.9622V19.4784C14.9979 19.4684 15.4142 19.4074 15.8186 19.2969C15.9403 19.2517 16.0499 19.1791 16.1391 19.0847C16.2282 18.9903 16.2944 18.8767 16.3327 18.7526C16.3982 18.3217 16.3982 17.8834 16.3327 17.4524V5.02475L10.8899 20.1436H10.4968L4.60044 4.84332V17.1198C4.52256 17.57 4.52256 18.0303 4.60044 18.4805C4.64307 18.6224 4.71675 18.7529 4.81612 18.8628C4.91549 18.9726 5.03807 19.0589 5.17496 19.1155C5.62349 19.2668 6.0926 19.3484 6.56589 19.3574V19.8412C5.77014 19.801 4.97286 19.801 4.17711 19.8412C3.45195 19.8014 2.72516 19.8014 2 19.8412V19.4784C2.46543 19.493 2.92882 19.4106 3.3607 19.2365C3.49525 19.1731 3.61396 19.0805 3.70813 18.9654C3.8023 18.8503 3.86956 18.7157 3.90497 18.5712C4.028 18.0978 4.07897 17.6085 4.05616 17.1198V5.81093C4.07037 5.38238 4.0194 4.95417 3.90497 4.54094C3.86675 4.41688 3.80051 4.30328 3.71138 4.2089C3.62225 4.11452 3.51261 4.04191 3.39093 3.99667C2.98657 3.88616 2.57026 3.82524 2.15119 3.81524V3.33144C2.87635 3.37123 3.60314 3.37123 4.3283 3.33144C4.993 3.36893 5.65929 3.36893 6.32399 3.33144L11.4946 16.9384L16.5443 3.42215H17.6329C18.9029 3.42215 19.9108 3.42215 20.6566 3.42215V3.81524C20.2272 3.82013 19.8003 3.88112 19.3867 3.99667Z" fill="#EBD8B8"/>
<path d="M25.1318 19.3873C24.8814 19.1092 24.6884 18.7844 24.5639 18.4316C24.4394 18.0787 24.3857 17.7048 24.4061 17.3311C24.3823 16.6916 24.5979 16.0663 25.0108 15.5774C25.3674 15.1274 25.8226 14.7653 26.3413 14.519C27.0142 14.1841 27.7116 13.9011 28.4277 13.6724C29.1116 13.4623 29.7706 13.1784 30.3931 12.8257C30.5816 12.7353 30.741 12.5939 30.8532 12.4176C30.9655 12.2412 31.0261 12.0369 31.0281 11.8279V10.3765C31.0631 10.0414 31.0302 9.70277 30.9315 9.38068C30.8328 9.0586 30.6703 8.75968 30.4536 8.50174C29.9806 8.16108 29.4017 8.00026 28.8208 8.04818C28.3983 8.00229 27.971 8.05485 27.5723 8.20174C27.1736 8.34863 26.8144 8.58586 26.5227 8.89483C26.8304 8.96625 27.1064 9.13611 27.3089 9.37864C27.5232 9.64237 27.631 9.97675 27.6112 10.316C27.6196 10.4889 27.5916 10.6617 27.5291 10.8231C27.4666 10.9846 27.371 11.1311 27.2484 11.2534C26.9867 11.4496 26.6684 11.5557 26.3413 11.5557C26.1381 11.5735 25.9338 11.5383 25.7483 11.4535C25.5628 11.3687 25.4025 11.2372 25.2829 11.0719C25.0608 10.7874 24.9434 10.435 24.9503 10.0741C24.9393 9.74069 25.0346 9.41241 25.2225 9.13673C25.4586 8.84841 25.7333 8.59403 26.0389 8.38079C26.4747 8.09286 26.9548 7.87835 27.4601 7.7458C28.0809 7.58063 28.723 7.50928 29.365 7.53414C30.3697 7.46502 31.3634 7.77825 32.1469 8.41103C32.5258 8.76206 32.7982 9.21265 32.9331 9.71125C33.0671 10.3677 33.1279 11.037 33.1145 11.7069V18.2383C33.0929 18.532 33.1558 18.8258 33.2959 19.0849C33.3559 19.1711 33.4383 19.2393 33.5343 19.2819C33.6302 19.3246 33.736 19.3401 33.8402 19.3268C34.0183 19.3757 34.2064 19.3757 34.3845 19.3268L34.8985 18.964L35.1707 19.3571C34.8508 19.6272 34.4945 19.8512 34.1123 20.0223C33.773 20.1831 33.3987 20.2559 33.0238 20.234C32.735 20.269 32.442 20.2352 32.1687 20.1354C31.8954 20.0355 31.6496 19.8724 31.4514 19.6594C31.1372 19.2208 30.9873 18.6856 31.0281 18.1476C30.6213 18.7931 30.0464 19.3158 29.365 19.6594C28.736 19.9746 28.0427 20.1402 27.3391 20.1432C26.9415 20.1738 26.5418 20.1254 26.1629 20.0009C25.7841 19.8763 25.4337 19.6781 25.1318 19.4175V19.3873ZM31.1793 17.4219V12.7955C31.0148 13.0143 30.8094 13.1992 30.5745 13.3398C30.3326 13.3398 29.9395 13.6724 29.4255 13.884C28.9115 14.0957 28.3672 14.3981 27.9741 14.6098C27.6039 14.8586 27.2856 15.177 27.0367 15.5471C26.6818 15.9941 26.4898 16.5487 26.4925 17.1195C26.4658 17.4075 26.4976 17.6979 26.5859 17.9732C26.6742 18.2486 26.8173 18.5033 27.0065 18.7221C27.1806 18.9056 27.3924 19.0492 27.6273 19.1432C27.8621 19.2371 28.1145 19.2791 28.3672 19.2664C28.9282 19.2285 29.4695 19.0438 29.9365 18.7306C30.4036 18.4175 30.78 17.987 31.0281 17.4823" fill="#EBD8B8"/>
<path d="M41.7927 17.7545C41.7606 17.9915 41.779 18.2325 41.8468 18.4619C41.9145 18.6912 42.0301 18.9035 42.1858 19.085C42.5919 19.3669 43.0848 19.4955 43.5768 19.4478V19.9619H40.7344H37.8921V19.4478C38.3841 19.4955 38.877 19.3669 39.283 19.085C39.4388 18.9035 39.5543 18.6912 39.6221 18.4619C39.6898 18.2325 39.7082 17.9915 39.6761 17.7545V10.437C39.7273 9.88346 39.5887 9.32897 39.283 8.86465C39.1054 8.67906 38.8878 8.53633 38.6468 8.44727C38.4058 8.35821 38.1477 8.32516 37.8921 8.35061V7.8668C38.3755 7.89586 38.8601 7.89586 39.3435 7.8668C40.1731 7.90113 41.0023 7.78853 41.7927 7.53419V17.7545ZM41.6113 2.45426C41.7597 2.58678 41.8772 2.75023 41.9556 2.93308C42.0339 3.11593 42.0712 3.31374 42.0649 3.51258C42.0637 3.71032 42.023 3.90584 41.9451 4.0876C41.8672 4.26936 41.7537 4.43369 41.6113 4.5709C41.4752 4.71469 41.3111 4.82911 41.1291 4.90712C40.9471 4.98512 40.751 5.02505 40.553 5.02446C40.3622 5.02493 40.1732 4.98778 39.9968 4.91514C39.8204 4.84251 39.6601 4.7358 39.5249 4.60114C39.3788 4.4604 39.2632 4.29117 39.1852 4.10393C39.1072 3.91668 39.0684 3.71541 39.0714 3.51258C39.065 3.31374 39.1023 3.11593 39.1807 2.93308C39.259 2.75023 39.3766 2.58678 39.5249 2.45426C39.6541 2.30981 39.8127 2.19462 39.99 2.1164C40.1673 2.03817 40.3592 1.99873 40.553 2.0007C40.7518 1.99434 40.9497 2.03165 41.1325 2.11002C41.3154 2.18838 41.4788 2.30589 41.6113 2.45426Z" fill="#EBD8B8"/>
<path d="M52.4968 7.80661C52.8847 7.93932 53.2438 8.14455 53.5551 8.41137C53.6728 8.5162 53.8213 8.57989 53.9784 8.59279C54.2505 8.59279 54.432 8.26018 54.4925 7.56471H55.0367C55.0367 8.32065 55.0367 9.65111 55.0367 11.5561H54.4925C54.3804 10.639 54.0598 9.75977 53.5551 8.98588C53.2748 8.64117 52.9108 8.37402 52.4979 8.20993C52.0851 8.04583 51.637 7.99026 51.1965 8.04851C50.6877 8.02342 50.189 8.19688 49.8056 8.53232C49.6194 8.69786 49.4735 8.90382 49.3792 9.13443C49.2848 9.36504 49.2445 9.61418 49.2613 9.86277C49.26 10.1167 49.3102 10.3682 49.4089 10.6021C49.5077 10.836 49.6529 11.0474 49.8359 11.2235C50.3888 11.7335 50.9974 12.1798 51.6501 12.5539C51.8013 12.5539 51.9827 12.7656 52.2851 12.947C52.8823 13.3277 53.4577 13.7416 54.0086 14.1868C54.4334 14.5327 54.792 14.9527 55.067 15.4265C55.3601 15.9196 55.5069 16.4859 55.4903 17.0593C55.4974 17.5237 55.3974 17.9835 55.1982 18.403C54.9989 18.8225 54.7057 19.1905 54.3413 19.4784C53.4646 20.1106 52.3964 20.4204 51.3175 20.3552C50.6872 20.3612 50.0615 20.2483 49.473 20.0226C49.1326 19.8395 48.8089 19.627 48.5054 19.3876C48.4719 19.3735 48.4359 19.3662 48.3996 19.3662C48.3632 19.3662 48.3272 19.3735 48.2937 19.3876C48.2322 19.391 48.1732 19.4131 48.1245 19.4509C48.0759 19.4887 48.04 19.5405 48.0216 19.5993C47.9256 19.8121 47.8546 20.0354 47.8099 20.2645H47.5075C47.5075 19.3876 47.5075 17.8153 47.5075 15.5777H48.0518C48.1312 16.7296 48.4505 17.8523 48.9892 18.8736C49.2454 19.2457 49.5962 19.5428 50.0055 19.7341C50.4148 19.9255 50.8677 20.0042 51.3175 19.9622C51.8517 19.9649 52.3683 19.7712 52.7689 19.4179C53.0443 19.2012 53.2607 18.9186 53.3981 18.5963C53.5355 18.2739 53.5895 17.9221 53.5551 17.5734C53.561 17.2865 53.5076 17.0015 53.3984 16.7361C53.2891 16.4708 53.1263 16.2308 52.9201 16.0313C52.31 15.4454 51.6294 14.9376 50.8942 14.5194C50.1382 14.0356 49.5335 13.6122 49.1404 13.3099C48.7203 12.9948 48.3616 12.6053 48.0821 12.1608C47.741 11.6927 47.5416 11.1364 47.5075 10.5582C47.4824 10.1326 47.56 9.70718 47.7336 9.31777C47.9073 8.92837 48.172 8.58639 48.5054 8.32065C49.2164 7.7804 50.0924 7.50264 50.9849 7.53447C51.5018 7.52566 52.0154 7.61811 52.4968 7.80661Z" fill="#EBD8B8"/>
<path d="M68.916 9.13739C69.9878 10.4884 70.5066 12.196 70.3674 13.9149C70.5023 15.6427 69.9844 17.3582 68.916 18.7227C67.8782 19.7277 66.4902 20.2896 65.0456 20.2896C63.6009 20.2896 62.2129 19.7277 61.1751 18.7227C60.0635 17.3758 59.5018 15.6585 59.6028 13.9149C59.4636 12.196 59.9824 10.4884 61.0542 9.13739C61.5624 8.62905 62.1658 8.2258 62.8299 7.95069C63.494 7.67557 64.2058 7.53397 64.9246 7.53397C65.6434 7.53397 66.3552 7.67557 67.0193 7.95069C67.6834 8.2258 68.2868 8.62905 68.795 9.13739H68.916ZM62.7475 9.43977C62.1144 10.8426 61.8341 12.379 61.9311 13.9149C61.8341 15.4509 62.1144 16.9873 62.7475 18.3901C62.9492 18.8126 63.2664 19.1694 63.6623 19.4191C64.0583 19.6689 64.5169 19.8014 64.9851 19.8014C65.4532 19.8014 65.9118 19.6689 66.3078 19.4191C66.7038 19.1694 67.021 18.8126 67.2227 18.3901C67.8558 16.9873 68.1361 15.4509 68.0391 13.9149C68.1361 12.379 67.8558 10.8426 67.2227 9.43977C67.021 9.01728 66.7038 8.66053 66.3078 8.41078C65.9118 8.16103 65.4532 8.02848 64.9851 8.02848C64.5169 8.02848 64.0583 8.16103 63.6623 8.41078C63.2664 8.66053 62.9492 9.01728 62.7475 9.43977Z" fill="#EBD8B8"/>
<path d="M84.5488 8.44128C84.8586 8.76117 85.0778 9.15774 85.1838 9.59031C85.3193 10.2159 85.3802 10.8554 85.3652 11.4953V17.7545C85.3331 17.9914 85.3515 18.2325 85.4192 18.4618C85.487 18.6911 85.6025 18.9035 85.7583 19.0849C86.1643 19.3668 86.6572 19.4954 87.1492 19.4478V19.9618H84.3371H81.7064V19.4478C82.1416 19.4906 82.5761 19.3602 82.9159 19.0849C83.1781 18.6936 83.2957 18.2231 83.2485 17.7545V11.072C83.2864 10.3874 83.1621 9.70366 82.8857 9.07627C82.7167 8.83057 82.4836 8.63586 82.2117 8.51326C81.9399 8.39065 81.6396 8.34485 81.3436 8.3808C80.729 8.36613 80.129 8.56967 79.6503 8.95532C79.1233 9.3388 78.7146 9.86268 78.471 10.4672C78.1987 11.1602 78.0651 11.8999 78.0779 12.6443V17.7545C78.0137 18.2242 78.1328 18.7007 78.4105 19.0849C78.577 19.2242 78.7701 19.3281 78.978 19.3905C79.1859 19.4529 79.4044 19.4724 79.62 19.4478V19.9618H76.9894H74.1772V19.4478C74.6692 19.4954 75.1622 19.3668 75.5682 19.0849C75.8674 18.7095 76.0084 18.2322 75.9613 17.7545V10.437C75.9969 9.88472 75.8595 9.3351 75.5682 8.86461C75.3905 8.67902 75.173 8.53629 74.932 8.44723C74.691 8.35817 74.4329 8.32512 74.1772 8.35057V7.86676C74.6606 7.89695 75.1453 7.89695 75.6287 7.86676C76.4582 7.89859 77.2869 7.78604 78.0779 7.53415V10.316C78.3794 9.43647 78.9508 8.67456 79.7107 8.1389C80.4134 7.68781 81.2345 7.45622 82.0693 7.47367C82.5231 7.44206 82.9785 7.50651 83.4058 7.66282C83.833 7.81912 84.2225 8.06378 84.5488 8.3808" fill="#EBD8B8"/>
<path d="M105.594 4.29908C105.984 4.6335 106.293 5.05232 106.498 5.52381C106.702 5.99531 106.796 6.50711 106.773 7.02047C106.765 7.74926 106.611 8.46904 106.32 9.1371C105.97 9.86834 105.555 10.5666 105.08 11.2235C104.596 11.8887 103.871 12.7959 102.933 13.9751C101.996 15.1544 100.544 16.9989 99.7281 18.1479H104.959C105.175 18.1622 105.391 18.126 105.591 18.042C105.79 17.958 105.968 17.8286 106.108 17.6641C106.45 17.1755 106.639 16.5969 106.652 16.0011H107.167C107.167 16.3337 107.167 16.7872 107.167 17.3315C107.167 17.8758 107.167 18.9946 107.167 19.9017H98.0952V19.4481C99.2745 18.1479 100.303 16.9082 101.119 15.6987C102.067 14.4597 102.878 13.1214 103.538 11.7073C104.227 10.3791 104.599 8.90958 104.627 7.41356C104.675 6.46748 104.409 5.53194 103.871 4.75264C103.635 4.46832 103.339 4.23959 103.004 4.08278C102.67 3.92597 102.305 3.84495 101.935 3.84551C101.372 3.83459 100.817 3.98121 100.333 4.26884C99.8648 4.51796 99.5005 4.92516 99.3047 5.41787C99.652 5.45823 99.9842 5.58279 100.272 5.78072C100.393 5.88538 100.488 6.01589 100.551 6.1625C100.614 6.30911 100.642 6.46803 100.635 6.62738C100.639 6.78349 100.611 6.93873 100.554 7.08407C100.497 7.22941 100.411 7.36196 100.303 7.47403C100.182 7.58884 100.04 7.67762 99.8837 7.73485C99.7276 7.79208 99.5614 7.81652 99.3954 7.80665C99.2269 7.81654 99.0582 7.78915 98.9014 7.72644C98.7446 7.66372 98.6036 7.56722 98.4883 7.44379C98.2747 7.20156 98.1565 6.88988 98.1557 6.5669C98.1752 6.2646 98.2468 5.96794 98.3674 5.69001C98.5012 5.37071 98.6849 5.07472 98.9116 4.81312C99.3551 4.31093 99.9161 3.92653 100.544 3.69432C101.192 3.45176 101.879 3.32882 102.57 3.33147C103.658 3.30938 104.722 3.6498 105.594 4.29908Z" fill="#EBD8B8"/>
<path d="M115.603 17.4824C115.558 17.9046 115.558 18.3303 115.603 18.7524C115.651 18.8719 115.725 18.9796 115.819 19.0682C115.913 19.1569 116.025 19.2244 116.147 19.2665C116.53 19.3808 116.927 19.4418 117.326 19.4479V19.9015H114.302H111.006V19.4479C111.506 19.4432 112.003 19.3823 112.488 19.2665C112.628 19.2308 112.76 19.1667 112.874 19.0783C112.988 18.9899 113.083 18.879 113.153 18.7524C113.296 18.3449 113.357 17.9135 113.335 17.4824V7.11092C113.36 6.70332 113.277 6.29626 113.093 5.93165C113.004 5.79972 112.888 5.68831 112.752 5.60488C112.616 5.52145 112.465 5.46791 112.307 5.44784C111.764 5.38793 111.216 5.38793 110.674 5.44784V4.84309C111.606 4.70079 112.525 4.48853 113.425 4.2081C114.105 4.012 114.764 3.74864 115.391 3.42192L115.603 17.4824Z" fill="#EBD8B8"/>
<path d="M133.685 3.72394C134.362 4.02022 135.001 4.39578 135.59 4.84273C135.719 4.95309 135.876 5.02626 136.043 5.05439C136.346 5.05439 136.527 4.60083 136.618 3.66346H137.162C137.162 4.65123 137.162 6.40501 137.162 8.92482H136.618C136.516 8.25184 136.375 7.58545 136.194 6.92913C136.052 6.42016 135.804 5.94648 135.469 5.5382C135.011 4.96882 134.418 4.52206 133.745 4.23798C133.044 3.91348 132.28 3.74826 131.508 3.75417C130.527 3.74331 129.578 4.0992 128.847 4.75202C128 5.50395 127.382 6.47826 127.063 7.56412C126.641 8.93496 126.437 10.3634 126.458 11.7974C126.296 13.9003 126.759 16.0042 127.788 17.8449C128.253 18.4885 128.875 19.0018 129.595 19.3355C130.315 19.6691 131.109 19.8118 131.901 19.7499C132.755 19.774 133.593 19.5193 134.289 19.0242C134.528 18.9107 134.72 18.7185 134.834 18.4799C134.893 18.2518 134.893 18.0125 134.834 17.7845V15.6073C134.884 15.0983 134.832 14.5845 134.682 14.0955C134.626 13.9586 134.54 13.836 134.43 13.7366C134.32 13.6373 134.189 13.5636 134.047 13.5209C133.567 13.3763 133.068 13.3049 132.566 13.3093V12.9464H135.801H138.19V13.4C137.919 13.4102 137.652 13.4718 137.404 13.5814C137.239 13.7064 137.131 13.891 137.101 14.0955C137.059 14.5177 137.059 14.9432 137.101 15.3654V19.9011H136.648C136.617 19.6035 136.556 19.3098 136.466 19.0242C136.466 18.7521 136.225 18.6009 136.013 18.6009H135.741L135.197 18.994C134.699 19.3975 134.136 19.7143 133.533 19.9313C132.921 20.1441 132.276 20.2465 131.628 20.2337C130.217 20.2698 128.82 19.9362 127.577 19.2661C126.456 18.6094 125.56 17.6291 125.006 16.454C124.372 15.0814 124.061 13.5813 124.099 12.0695C124.058 10.4861 124.378 8.9141 125.037 7.47341C125.604 6.23301 126.517 5.18295 127.667 4.44964C128.79 3.71355 130.105 3.32443 131.447 3.33085C132.213 3.29833 132.976 3.43245 133.685 3.72394Z" fill="#EBD8B8"/>
<path d="M52.4364 37.6517V39.8288C52.3932 40.0484 52.3932 40.2744 52.4364 40.494C52.5102 40.6224 52.6285 40.7192 52.769 40.7662C53.0292 40.8096 53.2949 40.8096 53.5551 40.7662V41.0081H50.229V40.7662C50.4384 40.8102 50.6546 40.8102 50.864 40.7662C50.9289 40.7479 50.988 40.7133 51.0356 40.6657C51.0833 40.618 51.1179 40.5589 51.1361 40.494C51.1739 40.2739 51.1739 40.0489 51.1361 39.8288V33.7813C51.1758 33.5613 51.1758 33.336 51.1361 33.116C51.1246 33.0481 51.0922 32.9854 51.0434 32.9366C50.9947 32.8879 50.932 32.8555 50.864 32.8439C50.6535 32.812 50.4395 32.812 50.229 32.8439V32.6322H53.5551C54.3238 32.579 55.086 32.8044 55.702 33.2672C55.9524 33.4767 56.151 33.7414 56.2821 34.0404C56.4132 34.3394 56.4734 34.6646 56.458 34.9908C56.4508 35.4311 56.3477 35.8645 56.1556 36.2608C55.9393 36.6998 55.5902 37.0595 55.1577 37.2888C54.5774 37.58 53.9314 37.7154 53.283 37.6819L52.4364 37.6517ZM52.769 32.9044C52.7075 32.9319 52.6535 32.9737 52.6114 33.0263C52.5693 33.0789 52.5404 33.1407 52.5271 33.2067C52.4868 33.4267 52.4868 33.6521 52.5271 33.872V37.4098H53.3435C53.6438 37.4412 53.9474 37.403 54.2305 37.2981C54.5137 37.1932 54.7689 37.0245 54.9763 36.805C55.2914 36.2978 55.4492 35.7086 55.4299 35.1117C55.4813 34.5021 55.3211 33.8935 54.9763 33.3882C54.7761 33.1866 54.5345 33.0309 54.2683 32.9317C54.0021 32.8326 53.7175 32.7923 53.4342 32.8137C53.2445 32.7769 53.0494 32.7769 52.8597 32.8137" fill="#EBD8B8"/>
<path d="M66.1339 40.8565V41.0984H63.2916V40.8565C63.5112 40.8997 63.7372 40.8997 63.9568 40.8565C64.0173 40.8261 64.0671 40.778 64.0995 40.7185C64.1319 40.6591 64.1454 40.5912 64.1382 40.5239C64.1304 40.3332 64.0786 40.147 63.987 39.9796L63.2613 37.9839H60.2376L59.7538 39.2841C59.6114 39.588 59.5293 39.9166 59.5119 40.2517C59.4986 40.3559 59.5141 40.4617 59.5568 40.5577C59.5994 40.6536 59.6675 40.7361 59.7538 40.796C59.9934 40.9296 60.266 40.9925 60.5399 40.9774V41.2194H58.3931V40.9774C58.7862 40.9774 59.0885 40.5239 59.3304 39.9494L62.1728 32.6319H62.3542L65.378 40.2215C65.5594 40.7053 65.8618 40.9774 66.2246 40.9774L66.1339 40.8565ZM63.2009 37.7723L61.8402 34.174L60.4795 37.7723H63.2009Z" fill="#EBD8B8"/>
<path d="M75.8101 40.4932C75.6682 40.7272 75.4836 40.9324 75.2658 41.098C75.0469 41.2282 74.7945 41.2913 74.5401 41.2794C74.3905 41.2879 74.2408 41.2654 74.1003 41.2134C73.9598 41.1613 73.8316 41.0809 73.7237 40.977C73.467 40.6997 73.2986 40.3524 73.2398 39.9792L72.9677 38.7697C72.9012 38.4408 72.8102 38.1174 72.6956 37.802C72.6218 37.5933 72.4971 37.4062 72.3327 37.2578C72.1171 37.1169 71.8645 37.0432 71.607 37.0461H70.4882V39.828C70.4504 40.0481 70.4504 40.2731 70.4882 40.4932C70.5126 40.5548 70.5493 40.6107 70.5961 40.6575C70.6429 40.7043 70.6988 40.741 70.7604 40.7653C70.9697 40.8094 71.186 40.8094 71.3953 40.7653V41.0072H68.3716V40.7653C68.581 40.8094 68.7972 40.8094 69.0066 40.7653C69.0715 40.7471 69.1306 40.7125 69.1782 40.6649C69.2259 40.6172 69.2605 40.5581 69.2787 40.4932C69.319 40.2733 69.319 40.0479 69.2787 39.828V33.7804C69.3219 33.5608 69.3219 33.3348 69.2787 33.1152C69.2672 33.0472 69.2348 32.9845 69.186 32.9358C69.1372 32.887 69.0745 32.8546 69.0066 32.8431C68.7961 32.8111 68.582 32.8111 68.3716 32.8431V32.6314H71.6977C72.4574 32.5783 73.213 32.7805 73.8446 33.2059C74.0784 33.3828 74.2683 33.6112 74.3994 33.8734C74.5306 34.1357 74.5994 34.4246 74.6005 34.7178C74.5881 35.0406 74.5164 35.3584 74.3889 35.6552C74.2078 36.0018 73.9491 36.3019 73.6329 36.5321C73.2251 36.8009 72.7582 36.9669 72.2722 37.0159C72.7019 37.0673 73.1095 37.2346 73.4515 37.4997C73.7228 37.8181 73.9007 38.2053 73.9656 38.6185L74.2679 39.828C74.3124 40.0998 74.3938 40.3643 74.5098 40.6142C74.5441 40.6801 74.5964 40.7351 74.6606 40.7725C74.7248 40.81 74.7984 40.8285 74.8727 40.8258C74.9891 40.8729 75.1192 40.8729 75.2355 40.8258C75.3504 40.7286 75.4521 40.6168 75.5379 40.4932H75.8101ZM70.7906 32.9035C70.7316 32.9346 70.6797 32.9774 70.6381 33.0295C70.5964 33.0815 70.566 33.1416 70.5487 33.2059C70.5109 33.4261 70.5109 33.651 70.5487 33.8712V36.8949H71.3349C71.6304 36.9318 71.9304 36.902 72.213 36.8079C72.4955 36.7137 72.7534 36.5574 72.9677 36.3506C73.2905 35.9265 73.4514 35.4011 73.4213 34.869C73.4424 34.6023 73.4106 34.3341 73.3276 34.0798C73.2445 33.8255 73.1119 33.5901 72.9375 33.3873C72.7344 33.2022 72.4953 33.061 72.2352 32.9725C71.975 32.8841 71.6994 32.8503 71.4256 32.8733C71.2358 32.8366 71.0408 32.8366 70.8511 32.8733" fill="#EBD8B8"/>
<path d="M81.3133 32.8129C81.1026 32.7843 80.889 32.7843 80.6783 32.8129C80.6134 32.8312 80.5543 32.8658 80.5067 32.9134C80.459 32.9611 80.4244 33.0202 80.4062 33.0851C80.3817 33.3062 80.3817 33.5292 80.4062 33.7503V39.7978C80.3837 40.019 80.3837 40.2419 80.4062 40.4631C80.4648 40.581 80.5604 40.6766 80.6783 40.7352C80.888 40.776 81.1036 40.776 81.3133 40.7352V40.9771H78.2896V40.7352C78.489 40.7768 78.6949 40.7768 78.8943 40.7352C78.9592 40.717 79.0183 40.6824 79.066 40.6347C79.1136 40.5871 79.1482 40.528 79.1664 40.4631C79.2068 40.2432 79.2068 40.0178 79.1664 39.7978V33.7503C79.2096 33.5307 79.2096 33.3047 79.1664 33.0851C79.1549 33.0171 79.1225 32.9544 79.0737 32.9057C79.025 32.8569 78.9623 32.8245 78.8943 32.8129C78.6938 32.7836 78.4901 32.7836 78.2896 32.8129V32.571H79.8014H81.3436L81.3133 32.8129Z" fill="#EBD8B8"/>
<path d="M87.8143 32.5707C88.0375 32.6579 88.2504 32.7694 88.4493 32.9033C88.5788 32.9311 88.7128 32.9311 88.8423 32.9033C88.8423 32.9033 88.8423 32.9033 89.0238 32.9033C89.0337 32.7724 89.0337 32.641 89.0238 32.5102H89.2959C89.2959 32.9637 89.2959 33.7802 89.2959 34.9594H89.0238C88.9955 34.3708 88.7958 33.8033 88.4493 33.3266C88.2941 33.1056 88.0845 32.9283 87.8409 32.8118C87.5973 32.6953 87.3278 32.6435 87.0583 32.6614C86.8642 32.6493 86.6698 32.678 86.4875 32.7457C86.3052 32.8134 86.1391 32.9186 86 33.0545C85.8602 33.1792 85.7497 33.3334 85.6765 33.5059C85.6033 33.6785 85.5692 33.865 85.5767 34.0523C85.5633 34.33 85.6374 34.605 85.7883 34.8385C85.9296 35.0644 86.1147 35.2597 86.3326 35.413L87.2397 36.0177L87.6026 36.2597C88.0202 36.4946 88.415 36.7679 88.7819 37.0761C89.0713 37.3019 89.3172 37.5785 89.5076 37.8925C89.6921 38.2143 89.7861 38.5799 89.7797 38.9508C89.7988 39.27 89.7431 39.5893 89.6171 39.8833C89.4911 40.1772 89.2983 40.4377 89.054 40.6441C88.5304 41.0582 87.8766 41.2726 87.2095 41.2489C86.8983 41.2884 86.5833 41.2884 86.2721 41.2489C86.0271 41.1681 85.7934 41.0563 85.5767 40.9163C85.4535 40.8204 85.3077 40.7579 85.1534 40.7348C85.1534 40.7348 85.1533 40.7348 85.0022 40.886C84.9713 41.0152 84.9713 41.1499 85.0022 41.2791H84.73C84.73 40.8255 84.73 39.8882 84.73 38.2553H85.0022C85.0189 38.9631 85.228 39.653 85.6069 40.251C85.7844 40.499 86.0214 40.6983 86.2963 40.8304C86.5711 40.9625 86.8748 41.0233 87.1793 41.007C87.5929 41.0155 87.9937 40.8639 88.2981 40.5836C88.4577 40.434 88.5814 40.2502 88.6599 40.0459C88.7384 39.8417 88.7698 39.6224 88.7516 39.4044C88.7575 39.1921 88.7204 38.9809 88.6424 38.7834C88.5645 38.586 88.4473 38.4063 88.2981 38.2553C87.8702 37.8449 87.3927 37.4894 86.8769 37.197C86.4805 36.966 86.0969 36.7136 85.7279 36.4411C85.4384 36.2153 85.1925 35.9386 85.0022 35.6247C84.8167 35.2813 84.723 34.896 84.73 34.5059C84.7109 34.2145 84.7613 33.9228 84.8769 33.6547C84.9926 33.3866 85.1702 33.1498 85.3953 32.9637C85.8451 32.5928 86.4151 32.3992 86.9978 32.4195C87.2773 32.3641 87.565 32.3641 87.8445 32.4195" fill="#EBD8B8"/>
</svg>
