<svg width="41" height="24" viewBox="0 0 41 24" fill="none" xmlns="http://www.w3.org/2000/svg">
<path fill-rule="evenodd" clip-rule="evenodd" d="M35.4052 11.9998C35.4052 7.02923 31.3757 2.99969 26.4053 2.99969C24.2484 2.99969 22.2858 3.75452 20.7358 5.01973C21.9182 6.16125 22.8208 7.59047 23.305 9.20603H22.5573C22.0886 7.76971 21.2654 6.50242 20.1954 5.48547C19.1182 6.51131 18.312 7.78811 17.8488 9.2017H17.1009C17.5785 7.61576 18.4538 6.17831 19.6435 5.02596C18.0973 3.77373 16.144 2.99951 13.9992 2.99951C9.02886 2.99951 4.99915 7.02906 4.99915 11.9996C4.99915 16.97 9.02869 20.9995 13.9992 20.9995C16.1438 20.9995 18.0973 20.2253 19.6435 18.9731C18.4703 17.835 17.5831 16.4039 17.1009 14.7975H17.8488C18.312 16.2111 19.1182 17.4879 20.1954 18.5137C21.2656 17.4966 22.0886 16.2295 22.5573 14.793H23.305C22.8208 16.4086 21.9182 17.8379 20.7358 18.9793C22.2858 20.2443 24.2484 20.9993 26.4053 20.9993C31.3757 20.9995 35.4052 16.97 35.4052 11.9998Z" fill="#8D826E"/>
<path fill-rule="evenodd" clip-rule="evenodd" d="M28.7898 14.1065L29.4112 10.7764H30.1969L30.279 11.1045C30.4199 10.9402 30.6896 10.7764 31.1468 10.7764L30.9008 11.6438C30.6778 11.6438 30.2557 11.5855 29.9861 12.5821L29.7046 14.1065H28.7898ZM16.7475 9.92998H17.653L17.4672 10.8123H17.9546L17.7923 11.5321H17.328L17.0724 12.8786C17.0259 13.1341 17.0492 13.3665 17.5717 13.2852L17.5136 13.9584C17.3162 14.086 17.0492 14.1212 16.8401 14.1212C16.6312 14.1212 15.9461 13.9931 16.1205 13.0878L16.7475 9.92998ZM20.6715 12.6234C20.776 12.0892 21.02 10.766 19.4295 10.766C17.9665 10.766 17.7809 12.217 17.7461 12.4258C17.7113 12.635 17.6882 14.1092 19.2553 14.1092C19.6385 14.121 20.1957 14.0744 20.4165 13.9582L20.5558 13.2736C20.4165 13.308 19.8938 13.3547 19.5338 13.3547C19.1741 13.3547 18.5937 13.3781 18.698 12.6234H20.6715ZM15.8887 11.5554L16.0975 10.8819C15.6679 10.7194 15.3314 10.7544 15.2036 10.7544C15.0757 10.7544 13.9887 10.7411 13.8221 11.5438C13.6944 12.1592 13.9197 12.4137 14.1356 12.5073C14.484 12.6584 14.6814 12.7976 14.8672 12.8905C15.097 13.0054 15.0548 13.3897 14.751 13.3897C14.6115 13.3897 14.0081 13.4592 13.5553 13.3082L13.4276 13.9931C13.8456 14.1094 14.182 14.1094 14.4958 14.1094C14.7162 14.1094 15.796 14.1675 15.9467 13.1689C16.0204 12.6821 15.8074 12.4606 15.6332 12.3566C15.4591 12.2404 15.1688 12.0779 14.9832 11.9964C14.7974 11.9153 14.6581 11.602 14.9948 11.509C15.2036 11.4857 15.633 11.4857 15.8887 11.5554ZM10.0144 14.1092L10.7688 10.0924H9.28305L8.17995 12.5305L8.00573 10.0924H6.5547L5.77686 14.1092H6.68221L7.23947 11.207L7.48341 14.1092H8.3424L9.60796 11.2767L9.07388 14.1092H10.0144ZM11.0124 10.8705L10.8732 11.5902C11.0939 11.5672 11.686 11.4743 11.9993 11.4857C12.313 11.4973 12.661 11.4509 12.5565 11.9501C12.3244 11.9734 10.6991 11.7179 10.4439 13.1108C10.3394 13.7961 10.9313 14.1442 11.3957 14.1212C11.86 14.0978 11.9877 14.0397 12.1503 13.9234L12.2664 14.1092H13.1136L13.4737 12.2983C13.5666 11.8456 13.7173 10.7542 12.1967 10.7542C11.9181 10.766 11.6048 10.7542 11.0124 10.8705ZM25.6867 11.0212C25.4542 10.8817 25.2921 10.8587 24.99 10.8587C24.6883 10.8587 24.0147 11.1471 23.8874 11.9616C23.7364 12.9251 24.398 13.4009 25.3268 13.0878L25.5938 13.9004C25.2921 14.0397 24.99 14.1092 24.4909 14.1092C23.5504 14.1092 22.5289 13.2736 22.9933 11.5784C23.3357 10.3295 24.4099 9.87202 25.0367 9.89521C25.7794 9.92289 26.0467 10.1738 26.2789 10.4293L25.6867 11.0212ZM33.4069 11.1604C33.2325 11.0329 33.1285 10.766 32.6986 10.766C32.1994 10.766 31.4216 10.6731 30.9806 12.1822C30.6856 13.1909 31.2823 14.1094 31.9321 14.1094C32.2342 14.098 32.5359 13.9701 32.7214 13.8424L32.838 14.1094H33.8129L34.6025 9.88379H33.6503L33.4069 11.1604ZM26.3369 10.8705L26.1972 11.5902C26.4182 11.5672 27.0099 11.4743 27.3235 11.4857C27.637 11.4973 27.9855 11.4509 27.8808 11.9501C27.6486 11.9734 26.0234 11.7179 25.7682 13.1108C25.6635 13.7961 26.2554 14.1442 26.7197 14.1212C27.1844 14.0978 27.3118 14.0397 27.4746 13.9234L27.5908 14.1092H28.4379L28.7981 12.2983C28.891 11.8456 29.0417 10.7542 27.5208 10.7542C27.2424 10.766 26.9289 10.7542 26.3369 10.8705Z" fill="#EBD8B8"/>
<path fill-rule="evenodd" clip-rule="evenodd" d="M18.7567 12.0203H19.8828C19.9409 11.6952 19.8364 11.4165 19.4766 11.4165C19.1166 11.4165 18.8612 11.6023 18.7567 12.0203ZM12.4066 12.6239C12.2556 12.6002 11.9189 12.5077 11.6286 12.7051C11.3383 12.9025 11.2571 13.2504 11.559 13.367C11.8495 13.4786 12.2784 13.2859 12.3369 12.9835L12.4066 12.6239ZM33.0825 12.5193C33.1754 12.2175 33.1247 11.8407 33.0244 11.707C32.746 11.3355 32.1054 11.6291 31.91 12.3572C31.7824 12.8329 32.0611 13.1928 32.3744 13.1928C32.7112 13.1926 32.9201 12.9257 33.0825 12.5193ZM27.7308 12.6239C27.5798 12.6002 27.2433 12.5077 26.953 12.7051C26.6627 12.9025 26.5814 13.2504 26.8834 13.367C27.1741 13.4786 27.6028 13.2859 27.6609 12.9835L27.7308 12.6239Z" fill="#8D826E"/>
<path fill-rule="evenodd" clip-rule="evenodd" d="M20.6971 14.1094L21.3125 10.8125H22.0904L22.1715 11.1376C22.3112 10.975 22.5781 10.8125 23.0306 10.8125L22.7984 11.6833C22.5781 11.6833 22.1482 11.6137 21.8812 12.6L21.6029 14.1095H20.6971V14.1094Z" fill="#EBD8B8"/>
</svg>
