<svg width="48" height="48" viewBox="0 0 48 48" fill="none" xmlns="http://www.w3.org/2000/svg">
<path fill-rule="evenodd" clip-rule="evenodd" d="M21.568 17.1412C21.1629 16.9444 20.7483 16.8021 20.3068 16.7924C19.7702 16.7806 19.2217 16.9646 18.6238 17.4248C18.3337 17.6481 18.2322 18.0101 18.3207 18.3424C19.192 21.615 22.0882 31.7361 22.8011 34.2238C22.9203 34.6398 23.3104 34.9215 23.7537 34.9215H24.1397C24.578 34.9215 24.9659 34.6486 25.0889 34.2366C25.8203 31.7868 28.7969 21.8018 29.539 19.0576C29.6495 18.649 29.4605 18.2275 29.0831 18.0208C28.645 17.7811 28.2443 17.6031 27.7553 17.6231C27.3433 17.6399 26.8922 17.796 26.3191 18.1233V16.3358C26.3191 15.0659 25.2556 14.0365 23.9435 14.0365C22.6315 14.0365 21.568 15.0659 21.568 16.3358V17.1412ZM21.568 17.5738V19.4015C21.568 20.6713 22.6315 21.7007 23.9435 21.7007C25.2556 21.7007 26.3191 20.6713 26.3191 19.4015V18.5724C26.9728 18.173 27.4125 18.0206 27.772 18.0059C28.1435 17.9908 28.4614 18.1208 28.8881 18.3544C29.1117 18.4768 29.2203 18.7228 29.1559 18.9606C28.4155 21.6987 25.441 31.677 24.7085 34.1302C24.6358 34.3738 24.4065 34.5383 24.1397 34.5383H23.7537C23.4856 34.5383 23.2536 34.3689 23.1826 34.1214C22.4691 31.6315 19.5742 21.515 18.7041 18.2468C18.6505 18.0455 18.7148 17.8444 18.8703 17.7247C19.4127 17.3073 19.8734 17.1662 20.2978 17.1755C20.7144 17.1847 21.122 17.339 21.568 17.5738ZM25.9232 16.3358V19.4015C25.9232 20.4597 25.0369 21.3175 23.9435 21.3175C22.8502 21.3175 21.9639 20.4597 21.9639 19.4015V16.3358C21.9639 15.2776 22.8502 14.4197 23.9435 14.4197C25.0369 14.4197 25.9232 15.2776 25.9232 16.3358Z" fill="#2C2C22"/>
<path fill-rule="evenodd" clip-rule="evenodd" d="M22.0353 3C21.5949 3 21.26 3.38274 21.3324 3.80318L21.59 5.29927H20.4931C20.0995 5.29927 19.7804 5.6081 19.7804 5.98905V7.13869C19.7804 7.51964 20.0995 7.82847 20.4931 7.82847H21.3641V9.20628C20.3625 9.49739 19.0496 10.0831 18.0385 11.0927C16.9328 12.1969 16.2026 13.7961 16.618 16.0074C17.387 20.101 20.3782 30.2818 22.0044 35.792C22.0767 36.0372 22.2336 36.2414 22.439 36.3789V38.2555H20.7761C20.1638 38.2555 19.6675 38.7359 19.6675 39.3285C19.6675 39.9211 20.1638 40.4015 20.7761 40.4015H22.4643L22.8058 44.3675C22.8366 44.725 23.1453 45 23.516 45H24.3711C24.7418 45 25.0505 44.725 25.0813 44.3675L25.4228 40.4015H27.5861V42.3942C27.5861 42.9868 28.0825 43.4672 28.6947 43.4672C29.307 43.4672 29.8034 42.9868 29.8034 42.3942V36.2628C29.8034 35.6702 29.307 35.1898 28.6947 35.1898C28.0825 35.1898 27.5861 35.6702 27.5861 36.2628V38.2555H25.4481V36.4452C25.7085 36.3121 25.9105 36.0804 25.9956 35.792C27.6218 30.2818 30.613 20.101 31.382 16.0074C31.7974 13.7961 31.0672 12.1969 29.9615 11.0927C28.9504 10.0831 27.6375 9.49739 26.6359 9.20628V7.82847H27.5069C27.9005 7.82847 28.2196 7.51964 28.2196 7.13869V5.98905C28.2196 5.6081 27.9005 5.29927 27.5069 5.29927H26.2971L26.5547 3.80318C26.6271 3.38274 26.2921 3 25.8518 3H22.0353ZM28.2196 40.4015H29.1699V42.3942C29.1699 42.6481 28.9571 42.854 28.6947 42.854C28.4323 42.854 28.2196 42.6481 28.2196 42.3942V40.4015ZM27.5861 39.7883V38.8686H20.7761C20.5137 38.8686 20.301 39.0745 20.301 39.3285C20.301 39.5824 20.5137 39.7883 20.7761 39.7883H27.5861ZM20.4931 5.91241C20.4493 5.91241 20.4139 5.94672 20.4139 5.98905V7.13869C20.4139 7.18101 20.4493 7.21533 20.4931 7.21533H21.6809C21.8558 7.21533 21.9976 7.35258 21.9976 7.5219V9.43796C21.9976 9.57685 21.9011 9.69839 21.7625 9.73417C20.8067 9.98087 19.4797 10.5345 18.4934 11.5195C17.5204 12.4911 16.8649 13.8937 17.2413 15.8977C18.0032 19.9533 20.982 30.0951 22.6135 35.6236C22.6716 35.8206 22.8574 35.9562 23.07 35.9562H24.93C25.1426 35.9562 25.3284 35.8206 25.3865 35.6236C27.018 30.0951 29.9968 19.9533 30.7587 15.8977C31.1351 13.8937 30.4796 12.4911 29.5066 11.5195C28.5203 10.5345 27.1933 9.98087 26.2375 9.73417C26.0989 9.69839 26.0024 9.57685 26.0024 9.43796V7.5219C26.0024 7.35258 26.1442 7.21533 26.3191 7.21533H27.5069C27.5507 7.21533 27.5861 7.18101 27.5861 7.13869V5.98905C27.5861 5.94672 27.5507 5.91241 27.5069 5.91241H20.4931ZM28.2196 38.8686V39.7883H29.1699V38.8686H28.2196ZM25.5878 5.29927C25.6265 5.29927 25.6595 5.27218 25.6659 5.23523L25.9299 3.70238C25.9379 3.65566 25.9007 3.61314 25.8518 3.61314H22.0353C21.9864 3.61314 21.9492 3.65567 21.9572 3.70238L22.2212 5.23523C22.2275 5.27218 22.2606 5.29927 22.2993 5.29927H25.5878ZM23.4371 44.3166L23.1 40.4015H24.7871L24.45 44.3166C24.4466 44.3563 24.4123 44.3869 24.3711 44.3869H23.516C23.4748 44.3869 23.4405 44.3563 23.4371 44.3166ZM24.8146 36.5693H23.0725V38.2555H24.8146V36.5693ZM29.1699 38.2555V36.2628C29.1699 36.0088 28.9571 35.8029 28.6947 35.8029C28.4323 35.8029 28.2196 36.0088 28.2196 36.2628V38.2555H29.1699Z" fill="#2C2C22"/>
</svg>
