<svg width="81" height="40" viewBox="0 0 81 40" fill="none" xmlns="http://www.w3.org/2000/svg">
<g clip-path="url(#clip0_4224:60256)">
<path d="M41.9231 16.1141C41.8841 19.1849 44.6597 20.8986 46.7507 21.9174C48.899 22.9629 49.6206 23.6332 49.6124 24.568C49.596 25.9988 47.8986 26.6302 46.3099 26.6548C43.5384 26.6978 41.9272 25.9066 40.646 25.308L39.6477 29.9798C40.933 30.5722 43.3129 31.0888 45.781 31.1113C51.5741 31.1113 55.3645 28.2517 55.385 23.8177C55.4075 18.1906 47.6014 17.879 47.6547 15.3638C47.6731 14.6012 48.4008 13.7874 49.9957 13.5804C50.7849 13.4758 52.964 13.3959 55.4342 14.5336L56.4038 10.0135C55.0754 9.5297 53.3678 9.06641 51.242 9.06641C45.7892 9.06641 41.9538 11.965 41.9231 16.1141ZM65.7207 9.4559C64.6629 9.4559 63.7712 10.0729 63.3735 11.02L55.098 30.7792H60.887L62.039 27.5957H69.1133L69.7816 30.7792H74.8839L70.4314 9.4559H65.7207ZM66.5304 15.2162L68.2011 23.2232H63.6257L66.5304 15.2162ZM34.9041 9.4559L30.341 30.7792H35.8573L40.4184 9.4559H34.9041ZM26.7434 9.4559L21.0015 23.9694L18.679 11.6288C18.4063 10.2513 17.3301 9.4559 16.135 9.4559H6.74838L6.61719 10.075C8.54412 10.4932 10.7334 11.1676 12.0597 11.8892C12.8715 12.3299 13.1032 12.7153 13.3696 13.7628L17.7688 30.7792H23.5988L32.5365 9.4559H26.7434Z" fill="#BCAD93"/>
</g>
<defs>
<clipPath id="clip0_4224:60256">
<rect width="68.2667" height="22.1333" fill="white" transform="translate(6.61816 9.06641)"/>
</clipPath>
</defs>
</svg>
