<svg width="16" height="16" viewBox="0 0 16 16" fill="none" xmlns="http://www.w3.org/2000/svg">
<path fill-rule="evenodd" clip-rule="evenodd" d="M8.66667 0H7.33333V7.33333H0V8.66667H7.33333V16H8.66667V8.66667H16V7.33333H8.66667V0Z" fill="black"/>
</svg>
