<svg width="16" height="10" viewBox="0 0 16 10" fill="none" xmlns="http://www.w3.org/2000/svg">
<path d="M16 1.86666L14.1333 -8.15941e-08L8.00005 6.1333L1.86675 -6.17784e-07L9.52858e-05 1.86665L8.00005 9.86661L16 1.86666Z" fill="#0D0D0D"/>
</svg>
