<svg width="21" height="16" viewBox="0 0 21 16" fill="none" xmlns="http://www.w3.org/2000/svg">
<path d="M7.30953 15.4314L1.5346e-05 8.12225L7.30953 0.813111L8.65394 2.15746L3.63945 7.17169L20.5468 7.17169L20.5468 9.07282L3.63945 9.07282L8.65394 14.0871L7.30953 15.4314Z" fill="#8D8D8D"/>
</svg>
