<svg width="9" height="6" viewBox="0 0 9 6" fill="none" xmlns="http://www.w3.org/2000/svg">
<path d="M8.37921 1.43328L7.4585 0.512573L4.43331 3.53776L1.40812 0.512573L0.487414 1.43328L4.43331 5.37918L8.37921 1.43328Z" fill="#0D0D0D"/>
</svg>
