<svg width="48" height="48" viewBox="0 0 48 48" fill="none" xmlns="http://www.w3.org/2000/svg">
<path d="M-0.000547236 23.7981C-0.000546087 10.6547 10.6542 -6.42647e-05 23.7976 -6.31157e-05C36.9409 -6.19666e-05 47.5957 10.6547 47.5957 23.7981C47.5957 36.9414 36.9409 47.5962 23.7976 47.5962C10.6542 47.5962 -0.000548385 36.9414 -0.000547236 23.7981Z" fill="#0D0D0D"/>
<path d="M25.7648 32.2711C26.3831 32.8883 27.3844 32.8883 28.0026 32.2711C28.6222 31.6525 28.6222 30.6484 28.0026 30.0298L21.7608 23.7979L28.0026 17.566C28.6222 16.9474 28.6222 15.9433 28.0026 15.3247C27.3844 14.7075 26.3831 14.7075 25.7648 15.3247L18.7127 22.3657C17.9208 23.1563 17.9208 24.4395 18.7127 25.2301L25.7648 32.2711Z" fill="white"/>
</svg>
