<svg width="17" height="17" viewBox="0 0 17 17" fill="none" xmlns="http://www.w3.org/2000/svg">
<rect width="17" height="17" fill="white"/>
<path d="M9.94599 12.8916L10.8667 11.9709L7.84151 8.9457L10.8667 5.92051L9.94599 4.9998L6.00009 8.9457L9.94599 12.8916Z" fill="#0D0D0D"/>
</svg>
