<svg width="13" height="21" viewBox="0 0 13 21" fill="none" xmlns="http://www.w3.org/2000/svg">
<path d="M9.28986 19.7769C9.96672 20.4527 11.063 20.4527 11.7399 19.7769C12.4182 19.0996 12.4182 18.0004 11.7399 17.3231L4.90595 10.5L11.7399 3.67695C12.4182 2.99964 12.4182 1.90036 11.7399 1.22305C11.063 0.547266 9.96672 0.547266 9.28985 1.22306L1.56872 8.93194C0.701726 9.79755 0.701727 11.2024 1.56872 12.0681L9.28986 19.7769Z" fill="#0D0D0D"/>
</svg>
