<svg width="69" height="205" viewBox="0 0 69 205" fill="none" xmlns="http://www.w3.org/2000/svg">
<path fill-rule="evenodd" clip-rule="evenodd" d="M59.9072 47.0259V4.27072C59.9072 1.91015 57.997 0 55.6365 0H54.1727L14.3946 -2.32737e-06H12.9309C10.5703 -2.32737e-06 8.66017 1.91015 8.66017 4.27072V21.3532V47.0263C2.97896 49.6391 1.0516 52.6435 0.569554 53.608C0.273282 54.2001 0.119141 54.8551 0.119141 55.5181V187.906C0.119141 197.327 7.78016 204.989 17.2016 204.989H51.3661C60.7872 204.989 68.4486 197.328 68.4486 187.906V55.5177C68.4486 54.8547 68.2945 54.1997 67.9982 53.6076C67.5157 52.6431 65.5884 49.6387 59.9072 47.0259ZM51.3661 18.3957V8.6123H17.2012V44.2918C21.6553 43.3385 27.2328 42.7056 34.2837 42.7056C41.3341 42.7056 46.9121 43.3377 51.3661 44.2914V32.8513V18.3957ZM51.3661 196.447C56.0745 196.447 59.9072 192.614 59.9072 187.906L59.9076 56.973C58.3313 55.5469 52.1545 51.247 34.2841 51.247C16.6511 51.247 10.4038 55.434 8.66057 57.0355V187.906C8.66057 192.614 12.4933 196.447 17.2016 196.447H51.3661Z" fill="#0D0D0D"/>
<path d="M30.4408 98.3963H34.5559C36.632 98.3778 38.2725 97.8402 39.4773 96.7836C40.7008 95.727 41.3125 94.1978 41.3125 92.1958C41.3125 90.268 40.8027 88.7758 39.7832 87.7192C38.7822 86.6441 37.2437 86.1065 35.1676 86.1065C33.351 86.1065 31.8588 86.6348 30.691 87.6914C29.5232 88.7295 28.9393 90.0919 28.9393 91.7787H22.1827C22.1827 89.7026 22.7295 87.8119 23.8232 86.1065C24.9354 84.4012 26.4739 83.0758 28.4388 82.1304C30.4222 81.1665 32.6373 80.6846 35.0842 80.6846C39.1252 80.6846 42.2949 81.7041 44.5935 83.7431C46.9105 85.7636 48.0691 88.5812 48.0691 92.1958C48.0691 94.0124 47.4852 95.727 46.3174 97.3397C45.1681 98.9339 43.6759 100.139 41.8408 100.954C44.0652 101.714 45.752 102.91 46.9013 104.541C48.0691 106.172 48.653 108.119 48.653 110.38C48.653 114.013 47.4017 116.905 44.8993 119.055C42.4154 121.206 39.1437 122.281 35.0842 122.281C31.1915 122.281 28.0032 121.243 25.5193 119.167C23.0354 117.09 21.7934 114.329 21.7934 110.881H28.55C28.55 112.66 29.1432 114.106 30.3295 115.218C31.5344 116.33 33.1471 116.887 35.1676 116.887C37.2622 116.887 38.912 116.33 40.1169 115.218C41.3217 114.106 41.9242 112.493 41.9242 110.38C41.9242 108.248 41.2939 106.608 40.0334 105.459C38.773 104.309 36.9008 103.735 34.4169 103.735H30.4408V98.3963Z" fill="black"/>
</svg>
