<svg width="10" height="9" viewBox="0 0 10 9" fill="none" xmlns="http://www.w3.org/2000/svg">
<path d="M3.45979 5.79993L1.99405 4.33421L1.87267 4.21282L1.75129 4.33421L0.878618 5.20687L0.757236 5.32826L0.878619 5.44964L2.97303 7.54403L3.09484 7.66584L3.09724 7.66342L3.35779 7.92396L3.47917 8.04535L3.60055 7.92396L9.51347 2.01101L9.63485 1.88963L9.51347 1.76825L8.62388 0.87862L8.5025 0.757234L8.38111 0.878618L3.45979 5.79993Z" fill="#0D0D0D" stroke="white" stroke-width="0.34332"/>
</svg>
