<svg width="40" height="40" viewBox="0 0 40 40" fill="none" xmlns="http://www.w3.org/2000/svg">
<circle cx="20" cy="20" r="20" fill="#0D0D0D"/>
<path d="M29.3814 16.153C30.2367 15.2969 30.2367 13.9097 29.3814 13.0536C28.525 12.1965 27.1357 12.1965 26.2793 13.0536L17.6467 21.6937L14.8561 18.9007C13.9997 18.0435 12.6104 18.0435 11.7541 18.9007C10.8987 19.7567 10.8987 21.1439 11.7541 22L16.3927 26.6427C17.0851 27.3358 18.2084 27.3358 18.9008 26.6427L29.3814 16.153Z" fill="white"/>
</svg>
