<svg width="14" height="12" viewBox="0 0 14 12" fill="none" xmlns="http://www.w3.org/2000/svg">
<path d="M4.36043 7.99046L2.22578 5.85583L2.049 5.67906L1.87223 5.85583L0.601299 7.12676L0.424522 7.30354L0.6013 7.48031L3.65153 10.5305L3.82893 10.7079L3.83243 10.7044L4.21188 11.0838L4.38866 11.2606L4.56543 11.0838L13.1768 2.4724L13.3536 2.29563L13.1768 2.11885L11.8813 0.823227L11.7045 0.646443L11.5277 0.823223L4.36043 7.99046Z" fill="white" stroke="white" stroke-width="0.5"/>
</svg>
