<svg width="19" height="16" viewBox="0 0 19 16" fill="none" xmlns="http://www.w3.org/2000/svg">
<path d="M17.669 4.44496C18.4173 3.64777 18.4173 2.40628 17.669 1.6091C16.8506 0.73735 15.4663 0.737349 14.648 1.6091L6.82202 9.94595L4.35202 7.3147C3.53369 6.44295 2.14936 6.44295 1.33104 7.3147C0.582704 8.11188 0.582704 9.35337 1.33104 10.1506L5.5481 14.6429C6.23826 15.3781 7.40578 15.3781 8.09594 14.6429L17.669 4.44496Z" fill="#B79B53"/>
</svg>
