<svg width="26" height="26" viewBox="0 0 26 26" fill="none" xmlns="http://www.w3.org/2000/svg">
<path fill-rule="evenodd" clip-rule="evenodd" d="M10.7803 8.98959C11.9518 10.1612 13.8513 10.1612 15.0229 8.98959L23.6418 0.370738C24.1361 -0.123579 24.9375 -0.123579 25.4318 0.370737C25.9261 0.865054 25.9261 1.6665 25.4318 2.16082L16.813 10.7797C15.6414 11.9512 15.6414 13.8507 16.813 15.0223L25.4324 23.6418C25.9267 24.1361 25.9267 24.9375 25.4324 25.4318C24.9381 25.9261 24.1367 25.9261 23.6423 25.4318L15.0229 16.8124C13.8513 15.6408 11.9518 15.6408 10.7803 16.8124L2.16081 25.4318C1.6665 25.9261 0.865054 25.9261 0.370737 25.4318C-0.123579 24.9375 -0.123579 24.1361 0.370738 23.6418L8.99018 15.0223C10.1618 13.8507 10.1618 11.9512 8.99018 10.7797L0.371331 2.16082C-0.122986 1.6665 -0.122986 0.865054 0.371331 0.370737C0.865647 -0.123579 1.66709 -0.123579 2.16141 0.370737L10.7803 8.98959Z" fill="black"/>
</svg>
