<svg width="16" height="16" viewBox="0 0 16 16" fill="none" xmlns="http://www.w3.org/2000/svg">
<rect x="6.66602" width="2.66667" height="16" rx="1.33333" fill="#0D0D0D"/>
<rect x="16" y="6.6665" width="2.66667" height="16" rx="1.33333" transform="rotate(90 16 6.6665)" fill="#0D0D0D"/>
</svg>
