<svg width="234" height="208" viewBox="0 0 234 208" fill="none" xmlns="http://www.w3.org/2000/svg">
<path d="M221.859 89.7237L220.428 87.8143C215.683 81.4423 216.01 78.3678 216.954 76.203C220.115 68.9717 218.748 64.3194 217.299 59.3863C216.93 58.1305 216.666 56.5518 216.331 54.5531C216.161 53.5394 215.977 52.441 215.756 51.2443C214.03 41.9016 208.48 24.534 190.694 13.1855C177.002 4.44991 159.836 1.06666 135.044 2.2176C128.893 2.50554 122.789 3.56712 116.918 5.30687C111.046 3.56718 104.942 2.50554 98.7904 2.2176C73.996 1.0662 56.8339 4.44991 43.1419 13.1855C25.3564 24.5338 19.806 41.9016 18.0806 51.244C17.8592 52.4414 17.675 53.5404 17.5051 54.5545C17.1704 56.5527 16.9058 58.1309 16.5356 59.391C15.0884 64.3173 13.7213 68.9703 16.8811 76.2007C17.8263 78.3678 18.1529 81.4425 13.4142 87.8052L11.9799 89.7195C5.29337 98.6176 1.29213 104.441 2.10403 110.254C3.05806 117.393 9.48089 119.819 12.3853 120.783C12.2907 121.01 12.1833 121.258 12.061 121.527L11.8186 122.042C10.9535 123.866 8.54072 128.951 11.8967 134.026C11.5184 135.315 11.4918 136.489 11.5267 137.391L11.532 137.515C11.4682 140.907 13.2998 143.095 14.395 144.403C14.6005 144.649 14.8702 144.971 14.9915 145.149C14.9848 145.23 14.9659 145.371 14.9148 145.583C13.8489 149.957 12.6166 158.151 16.3368 163.9C18.1326 166.675 20.9066 168.532 24.1516 169.131C32.306 170.629 38.3447 170.039 43.2015 169.565L43.2694 169.559C45.4793 169.342 47.5647 169.138 49.5471 169.173C51.5181 169.204 53.0441 170.384 53.2274 170.842C54.5667 174.979 55.8576 182.183 55.0878 188.876C54.6066 193.088 54.0344 194.334 52.5574 197.289L50.5786 199.958C49.3327 201.637 49.6844 204.009 51.3641 205.254C52.042 205.757 52.8328 206 53.6168 206C54.7749 206 55.9182 205.471 56.661 204.469L59.0343 201.269L59.1822 200.974C60.9164 197.508 61.9629 195.416 62.6117 189.739C63.5197 181.843 62.005 173.367 60.4283 168.498C59.1669 164.643 54.5403 161.678 49.6729 161.601C47.2628 161.56 44.9656 161.783 42.5329 162.021L42.461 162.028C37.6273 162.501 32.6286 162.989 25.5233 161.683C24.3002 161.458 23.3749 160.837 22.6945 159.786C20.8488 156.933 21.2662 151.505 22.2752 147.365C23.2741 143.209 21.4975 141.089 20.2012 139.541C19.448 138.642 19.0942 138.162 19.1032 137.68C19.1076 137.505 19.1032 137.328 19.0963 137.153L15.3128 137.302L19.0944 137.103C19.0607 136.236 19.1989 135.976 19.3981 135.704L21.3395 133.049L18.9819 130.755C17.2756 129.095 17.5037 127.727 18.6676 125.274L18.9336 124.707C20.7018 120.828 21.0809 118.204 20.1264 116.448L19.6507 115.572L18.8058 115.045C18.2916 114.723 17.8231 114.578 16.8762 114.3C16.7445 114.262 16.3951 114.16 16.2049 114.084C15.9423 113.981 15.6183 113.872 15.2529 113.753L15.1447 113.718C11.9575 112.677 9.92 111.567 9.60731 109.229C9.16634 106.07 14.0833 99.5268 18.0373 94.2651L19.4813 92.3376C22.9198 87.7207 27.1108 80.711 23.8214 73.1703C21.7638 68.4621 22.4449 66.1441 23.8027 61.5218C24.2998 59.8301 24.6122 57.9652 24.9742 55.8057C25.1376 54.83 25.3146 53.7724 25.5274 52.6199C27.0297 44.4861 31.8449 29.3769 47.2152 19.5697C59.5064 11.7279 75.3046 8.70722 98.4379 9.78235C100.375 9.87303 102.306 10.0515 104.225 10.3076C94.4926 15.1593 85.9559 21.9698 79.6973 30.2025C69.4318 43.7334 63.8201 67.4025 66.6443 85.2593C69.4336 102.893 79.6714 123.2 85.715 131.377C90.9608 138.456 93.494 143.527 93.6874 147.335C94.4325 161.883 91.1886 176.049 82.126 197.778L80.6076 200.139C79.4761 201.898 79.9848 204.241 81.7436 205.372C83.5023 206.503 85.8449 205.994 86.9766 204.236L88.8563 201.314L88.9847 201.007C98.6235 177.959 102.062 162.802 101.251 146.95C100.974 141.51 98.0596 135.316 91.8022 126.871C86.2054 119.3 76.7162 100.462 74.1245 84.076C71.5878 68.0373 76.5773 46.8444 85.7284 34.7829C93.2105 24.9406 104.382 17.3702 116.918 13.2312C129.454 17.37 140.625 24.9397 148.106 34.7799C157.259 46.8446 162.248 68.0376 159.712 84.076C157.12 100.462 147.631 119.3 142.037 126.868C135.777 135.316 132.862 141.51 132.586 146.948C131.773 162.802 135.213 177.958 144.851 201.007L144.98 201.314L146.86 204.236C147.991 205.995 150.334 206.504 152.093 205.372C153.852 204.24 154.36 201.897 153.229 200.139L151.71 197.778C142.647 176.048 139.404 161.883 140.149 147.334C140.342 143.527 142.876 138.456 148.124 131.373C154.165 123.2 164.403 102.893 167.192 85.2591C170.016 67.4027 164.404 43.7336 154.136 30.1995C147.879 21.9685 139.343 15.1588 129.611 10.3075C131.529 10.0515 133.46 9.87301 135.397 9.78235C158.53 8.70791 174.329 11.7279 186.621 19.5697C201.991 29.3772 206.806 44.4863 208.308 52.6201C208.522 53.7719 208.699 54.829 208.862 55.8046C209.224 57.9645 209.536 59.8301 210.035 61.5281C211.392 66.1452 212.072 68.4628 210.014 73.1726C206.725 80.7106 210.916 87.7204 214.361 92.3466L215.802 94.2692C219.753 99.5268 224.67 106.07 224.226 109.251C223.916 111.567 221.879 112.677 218.692 113.718L218.584 113.753C218.218 113.872 217.893 113.981 217.613 114.091C217.442 114.16 217.092 114.262 216.938 114.307C216.011 114.579 215.542 114.724 215.027 115.047L214.155 115.593L213.68 116.504C212.763 118.26 213.152 120.867 214.921 124.746L215.175 125.289C216.332 127.727 216.561 129.095 214.854 130.755L212.497 133.049L214.438 135.704C214.637 135.976 214.775 136.236 214.742 137.102L214.74 137.154C214.732 137.334 214.728 137.516 214.732 137.657C214.742 138.162 214.388 138.641 213.636 139.54C212.339 141.089 210.562 143.21 211.564 147.376C212.57 151.505 212.987 156.934 211.141 159.786C210.462 160.837 209.536 161.458 208.316 161.683C201.207 162.989 196.209 162.5 191.371 162.028L191.301 162.021C188.869 161.783 186.569 161.56 184.17 161.601C179.296 161.678 174.669 164.643 173.404 168.509C171.831 173.368 170.316 181.843 171.224 189.736C171.873 195.415 172.92 197.507 174.654 200.973L174.802 201.269L177.175 204.469C177.918 205.471 179.061 206 180.219 206C181.003 206 181.794 205.757 182.472 205.254C184.152 204.009 184.504 201.637 183.258 199.958L181.279 197.289C179.802 194.334 179.23 193.087 178.748 188.874C177.979 182.183 179.27 174.979 180.603 170.859C180.793 170.384 182.319 169.204 184.296 169.173C186.275 169.14 188.357 169.342 190.565 169.558L190.639 169.565C195.491 170.039 201.53 170.629 209.688 169.131C212.93 168.532 215.704 166.674 217.5 163.9C221.219 158.152 219.987 149.957 218.924 145.595C218.871 145.374 218.852 145.231 218.845 145.149C218.966 144.97 219.236 144.648 219.442 144.402C220.531 143.101 222.35 140.928 222.304 137.526L222.309 137.398C222.344 136.492 222.318 135.317 221.939 134.026C225.295 128.951 222.883 123.867 222.023 122.054L221.793 121.566C221.664 121.282 221.551 121.021 221.452 120.782C224.352 119.82 230.778 117.396 231.729 110.276C232.544 104.441 228.543 98.6176 221.859 89.7237Z" fill="black" stroke="black" stroke-width="3"/>
</svg>
