<svg width="124" height="209" viewBox="0 0 124 209" fill="none" xmlns="http://www.w3.org/2000/svg">
<path fill-rule="evenodd" clip-rule="evenodd" d="M110.79 60.4245H88.7189V41.0362C88.7189 36.4921 85.2567 33.0389 80.4962 32.7359L76.3848 32.6062L71.8407 32.6061V40.9497L80.0634 40.9496V60.4245H66.2146H57.5591H43.2775V40.9496L51.5002 40.9497V32.6061L47.3889 32.6062L42.8447 32.736C38.517 32.8658 34.622 36.3622 34.622 41.0795V60.4245H12.9833C5.79919 60.4678 0 66.3103 0 73.4944V203.76C0 206.097 1.90421 208.001 4.2412 208.001H4.32775H119.446C121.783 208.044 123.73 206.183 123.774 203.846V203.76V73.4944C123.774 66.3103 117.975 60.4678 110.79 60.4245ZM8.6555 199.345H115.118V73.4944C115.118 71.1141 113.214 69.1233 110.79 69.08H12.9833C10.5597 69.1233 8.6555 71.0708 8.6555 73.4944V199.345Z" fill="#0D0D0D"/>
<rect x="32" y="88" width="60" height="60" rx="8" stroke="#0D0D0D" stroke-width="8.5"/>
<rect x="20.25" y="4.25" width="83.5" height="32.5" rx="6.75" stroke="#0D0D0D" stroke-width="8.5"/>
</svg>
