<svg width="17" height="18" viewBox="0 0 17 18" fill="none" xmlns="http://www.w3.org/2000/svg">
<path fill-rule="evenodd" clip-rule="evenodd" d="M7.28884 17.7417H9.58884C9.78363 17.7387 9.9759 17.6971 10.1545 17.6193C10.3331 17.5414 10.4945 17.4289 10.6292 17.2883C10.764 17.1476 10.8695 16.9816 10.9397 16.7998C11.0098 16.6181 11.0432 16.4242 11.0378 16.2294V15.0794C11.0378 15.0233 11.0526 14.9681 11.0809 14.9196C11.1092 14.8711 11.1499 14.831 11.1988 14.8034L11.9406 14.3779C12.0063 14.3407 12.0806 14.321 12.1562 14.321C12.2318 14.321 12.3061 14.3407 12.3718 14.3779L13.3321 14.9529C13.67 15.1467 14.071 15.1986 14.4471 15.0973C14.8233 14.996 15.1439 14.7497 15.3388 14.4124L16.4888 12.4459C16.6712 12.1072 16.7138 11.7106 16.6074 11.3409C16.501 10.9712 16.2541 10.6579 15.9196 10.4679L14.9421 9.89295C14.8806 9.85744 14.8296 9.80628 14.7942 9.74468C14.7589 9.68308 14.7405 9.61322 14.7408 9.5422V8.71995C14.7405 8.64893 14.7589 8.57907 14.7942 8.51747C14.8296 8.45586 14.8806 8.40471 14.9421 8.3692L15.9138 7.7942C16.0838 7.70059 16.2335 7.57431 16.3544 7.42264C16.4754 7.27096 16.5651 7.09687 16.6186 6.91038C16.672 6.72389 16.6881 6.52868 16.6658 6.33596C16.6435 6.14325 16.5834 5.95684 16.4888 5.78745L15.3388 3.82095C15.1469 3.48687 14.8317 3.24134 14.4608 3.13706C14.0899 3.03278 13.693 3.07807 13.3551 3.2632L12.3948 3.8382C12.3291 3.8755 12.2548 3.8951 12.1792 3.8951C12.1036 3.8951 12.0293 3.8755 11.9636 3.8382L11.2793 3.4472C11.2132 3.40969 11.1582 3.35537 11.1198 3.28973C11.0814 3.22409 11.0611 3.14948 11.0608 3.07345V1.9637C11.0608 1.5733 10.9058 1.19889 10.6297 0.922838C10.3536 0.646784 9.97924 0.491699 9.58884 0.491699H7.28884C6.90244 0.497737 6.53391 0.655484 6.26281 0.930886C5.99172 1.20629 5.83979 1.57725 5.83984 1.9637V3.0907C5.8396 3.16673 5.81926 3.24134 5.78089 3.30698C5.74252 3.37262 5.68747 3.42694 5.62134 3.46445L4.93709 3.85545C4.87134 3.89275 4.79705 3.91235 4.72146 3.91235C4.64588 3.91235 4.57158 3.89275 4.50584 3.85545L3.54559 3.28045C3.20765 3.08667 2.80668 3.03475 2.43054 3.13606C2.05439 3.23737 1.73374 3.48366 1.53884 3.82095L0.388839 5.78745C0.294283 5.95684 0.234144 6.14325 0.211877 6.33596C0.18961 6.52868 0.205656 6.72389 0.259092 6.91038C0.312527 7.09687 0.402299 7.27096 0.523244 7.42264C0.64419 7.57431 0.793925 7.70059 0.963839 7.7942L1.95284 8.3807C2.00176 8.40827 2.04246 8.44836 2.07076 8.49687C2.09905 8.54538 2.11392 8.60054 2.11384 8.6567V9.52495C2.11467 9.59186 2.0988 9.65792 2.06768 9.71715C2.03656 9.77638 1.99116 9.82692 1.93559 9.8642L0.963839 10.4392C0.793925 10.5328 0.64419 10.6591 0.523244 10.8108C0.402299 10.9624 0.312527 11.1365 0.259092 11.323C0.205656 11.5095 0.18961 11.7047 0.211877 11.8974C0.234144 12.0901 0.294283 12.2766 0.388839 12.4459L1.53884 14.4124C1.73073 14.7465 2.04595 14.9921 2.41684 15.0963C2.78773 15.2006 3.18472 15.1553 3.52259 14.9702L4.48284 14.3952C4.54858 14.3579 4.62288 14.3383 4.69846 14.3383C4.77405 14.3383 4.84834 14.3579 4.91409 14.3952L5.59834 14.7862C5.66447 14.8237 5.71952 14.878 5.75789 14.9437C5.79626 15.0093 5.8166 15.0839 5.81684 15.1599V16.2697C5.81684 16.6601 5.97192 17.0345 6.24798 17.3106C6.52403 17.5866 6.89844 17.7417 7.28884 17.7417ZM5.50634 13.3947C5.26634 13.2581 4.99474 13.1867 4.71859 13.1877C4.45904 13.183 4.20232 13.2422 3.97109 13.3602L3.01084 13.9352C2.93749 13.9772 2.85054 13.9887 2.76878 13.9672C2.68702 13.9457 2.617 13.8929 2.57384 13.8202L1.42384 11.8537C1.3818 11.7803 1.37029 11.6934 1.39181 11.6116C1.41333 11.5299 1.46614 11.4599 1.53884 11.4167L2.48759 10.8704C2.72374 10.7341 2.91982 10.538 3.05609 10.3018C3.19236 10.0656 3.26401 9.79764 3.26384 9.52495V8.66245C3.26608 8.40753 3.20208 8.15639 3.07811 7.93363C2.95413 7.71088 2.77442 7.52414 2.55659 7.3917L1.53884 6.8167C1.49186 6.80213 1.44884 6.77698 1.41309 6.7432C1.37734 6.70942 1.3498 6.6679 1.33259 6.62182C1.31538 6.57574 1.30896 6.52633 1.31381 6.47738C1.31866 6.42844 1.33466 6.38125 1.36059 6.33945L2.51059 4.37295C2.55375 4.30025 2.62377 4.24744 2.70553 4.22592C2.78729 4.20441 2.87424 4.21591 2.94759 4.25795L3.90784 4.83295C4.14841 4.97117 4.42101 5.04391 4.69846 5.04391C4.97591 5.04391 5.24852 4.97117 5.48909 4.83295L6.17334 4.44195C6.41412 4.30361 6.61423 4.10429 6.75352 3.86406C6.89282 3.62383 6.96639 3.35115 6.96684 3.07345V1.9637C6.96684 1.8783 7.00076 1.7964 7.06115 1.73601C7.12154 1.67562 7.20344 1.6417 7.28884 1.6417H9.58884C9.66288 1.65652 9.72935 1.69688 9.77665 1.75574C9.82395 1.8146 9.84906 1.88821 9.84759 1.9637V3.1137C9.84804 3.3914 9.92161 3.66408 10.0609 3.90431C10.2002 4.14454 10.4003 4.34386 10.6411 4.4822L11.3253 4.8732C11.5659 5.01142 11.8385 5.08416 12.116 5.08416C12.3934 5.08416 12.666 5.01142 12.9066 4.8732L13.8668 4.2982C13.9402 4.25616 14.0271 4.24465 14.1089 4.26617C14.1907 4.28769 14.2607 4.3405 14.3038 4.4132L15.4538 6.3797C15.4959 6.45305 15.5074 6.54 15.4859 6.62176C15.4643 6.70352 15.4115 6.77354 15.3388 6.8167L14.3901 7.36295C14.1539 7.49929 13.9579 7.69544 13.8216 7.93163C13.6853 8.16783 13.6137 8.43576 13.6138 8.70845V9.52495C13.6163 9.79053 13.6868 10.051 13.8187 10.2816C13.9506 10.5121 14.1394 10.705 14.3671 10.8417L15.3388 11.4167C15.3894 11.4301 15.4359 11.4556 15.4744 11.491C15.5129 11.5264 15.5422 11.5706 15.5597 11.6199C15.5773 11.6691 15.5825 11.7219 15.5751 11.7737C15.5677 11.8254 15.5478 11.8746 15.5171 11.9169L14.3671 13.8834C14.3239 13.9562 14.2539 14.009 14.1721 14.0305C14.0904 14.052 14.0034 14.0405 13.9301 13.9984L12.9698 13.4234C12.7293 13.2852 12.4567 13.2125 12.1792 13.2125C11.9018 13.2125 11.6292 13.2852 11.3886 13.4234L10.6468 13.8489C10.4237 13.9778 10.2382 14.163 10.1091 14.386C9.9799 14.609 9.91155 14.862 9.91084 15.1197V16.2697C9.91084 16.3551 9.87691 16.437 9.81653 16.4974C9.75614 16.5578 9.67424 16.5917 9.58884 16.5917H7.28884C7.20546 16.5872 7.12707 16.5506 7.07022 16.4894C7.01336 16.4283 6.98248 16.3474 6.98409 16.2639V15.1542C6.98364 14.8765 6.91007 14.6038 6.77077 14.3636C6.63148 14.1234 6.43137 13.924 6.19059 13.7857L5.50634 13.3947ZM6.84317 11.5072C7.31596 11.8231 7.87181 11.9917 8.44043 11.9917C9.20293 11.9917 9.9342 11.6888 10.4734 11.1496C11.0125 10.6105 11.3154 9.8792 11.3154 9.1167C11.3154 8.54808 11.1468 7.99223 10.8309 7.51944C10.515 7.04664 10.066 6.67815 9.54065 6.46055C9.01531 6.24294 8.43724 6.18601 7.87955 6.29694C7.32185 6.40788 6.80958 6.68169 6.4075 7.08377C6.00542 7.48584 5.73161 7.99812 5.62067 8.55582C5.50974 9.11351 5.56668 9.69158 5.78428 10.2169C6.00188 10.7423 6.37038 11.1913 6.84317 11.5072ZM7.48207 7.68242C7.76575 7.49287 8.09926 7.3917 8.44043 7.3917C8.89793 7.3917 9.33669 7.57344 9.66019 7.89694C9.98369 8.22044 10.1654 8.6592 10.1654 9.1167C10.1654 9.45787 10.0643 9.79138 9.87472 10.0751C9.68517 10.3587 9.41576 10.5798 9.10056 10.7104C8.78536 10.841 8.43852 10.8751 8.1039 10.8086C7.76928 10.742 7.46192 10.5777 7.22067 10.3365C6.97943 10.0952 6.81514 9.78785 6.74858 9.45323C6.68202 9.11861 6.71618 8.77177 6.84674 8.45657C6.9773 8.14137 7.1984 7.87196 7.48207 7.68242Z" fill="#0D0D0D"/>
</svg>
