<svg width="205" height="205" viewBox="0 0 205 205" fill="none" xmlns="http://www.w3.org/2000/svg">
<path d="M203.24 74.2296L154.793 25.7824C153.718 24.7081 152.153 24.0234 150.546 24.0234H54.4524C52.9293 24.0234 51.3454 24.6428 50.2059 25.7824L1.7586 74.2296C-0.398305 76.3865 -0.591693 79.8443 1.31697 82.2302L97.8111 202.748C98.8897 204.103 100.63 205 102.499 205C104.28 205 106.054 204.172 107.187 202.748L203.682 82.2302C205.585 79.8503 205.404 76.3933 203.24 74.2296ZM153.817 41.794L184.494 72.4707H146.212L153.817 41.794ZM142.869 36.0352L135.765 64.6895L114.452 36.0352H142.869ZM126.582 72.4707H78.4166L102.499 40.0927L126.582 72.4707ZM90.5468 36.0352L69.2336 64.6895L62.1291 36.0352H90.5468ZM51.1812 41.794L58.787 72.4707H20.5045L51.1812 41.794ZM18.5077 84.4824H61.9913L87.9086 171.162L18.5077 84.4824ZM102.499 178.029L74.5288 84.4824H130.47L102.499 178.029ZM117.09 171.162L143.007 84.4824H186.491L117.09 171.162Z" fill="#0D0D0D"/>
<path d="M30.0293 144.543H24.0234V138.537C24.0234 135.22 21.3344 132.531 18.0176 132.531C14.7007 132.531 12.0117 135.22 12.0117 138.537V144.543H6.00586C2.68902 144.543 0 147.232 0 150.549C0 153.866 2.68902 156.555 6.00586 156.555H12.0117V162.561C12.0117 165.877 14.7007 168.566 18.0176 168.566C21.3344 168.566 24.0234 165.877 24.0234 162.561V156.555H30.0293C33.3461 156.555 36.0352 153.866 36.0352 150.549C36.0352 147.232 33.3461 144.543 30.0293 144.543Z" fill="#0D0D0D"/>
<path d="M198.994 12.0117H192.988V6.00586C192.988 2.68902 190.299 0 186.982 0C183.666 0 180.977 2.68902 180.977 6.00586V12.0117H174.971C171.654 12.0117 168.965 14.7007 168.965 18.0176C168.965 21.3344 171.654 24.0234 174.971 24.0234H180.977V30.0293C180.977 33.3461 183.666 36.0352 186.982 36.0352C190.299 36.0352 192.988 33.3461 192.988 30.0293V24.0234H198.994C202.311 24.0234 205 21.3344 205 18.0176C205 14.7007 202.311 12.0117 198.994 12.0117Z" fill="#0D0D0D"/>
</svg>
