<svg width="139" height="139" viewBox="0 0 139 139" fill="none" xmlns="http://www.w3.org/2000/svg">
<path d="M104.921 60.771C104.304 58.8785 102.664 57.5011 100.693 57.2193L81.1979 54.4318L72.6351 37.0802C71.7554 35.2967 69.9392 34.168 67.9506 34.168C65.9623 34.168 64.1461 35.297 63.266 37.0798L54.7025 54.4318L35.2073 57.2193C33.2368 57.5011 31.5975 58.8785 30.98 60.7706C30.3629 62.6631 30.8745 64.7419 32.3 66.1315L46.1665 79.6494L42.8859 99.0833C42.5568 101.035 43.3581 103.005 44.9567 104.172C46.536 105.325 48.6545 105.513 50.4345 104.594L67.9502 95.5471L85.4649 104.594C87.2232 105.503 89.3442 105.339 90.9427 104.172C92.5413 103.005 93.343 101.035 93.0135 99.0833L89.7325 79.6498L103.6 66.1318C105.026 64.7419 105.538 62.6634 104.921 60.771ZM80.4794 74.0789C79.2518 75.2759 78.689 76.9988 78.9746 78.6892L80.9708 90.5132L70.3477 85.0259C68.8439 84.2493 67.0569 84.2493 65.5527 85.0259L54.9285 90.5136L56.9245 78.6892C57.2097 76.9988 56.6476 75.2755 55.42 74.0789L47.1936 66.0594L58.9071 64.3846C60.6133 64.1404 62.0896 63.0709 62.8523 61.5253L67.9499 51.1964L73.0471 61.525C73.8098 63.0706 75.2861 64.1408 76.9922 64.3846L88.7062 66.0594L80.4794 74.0789Z" fill="#0D0D0D"/>
<path d="M68.261 0C65.3759 0 63.037 2.33895 63.037 5.22399V18.1485C63.037 21.0335 65.3759 23.3725 68.261 23.3725C71.146 23.3725 73.485 21.0335 73.485 18.1485V5.22399C73.485 2.33895 71.146 0 68.261 0Z" fill="#0D0D0D"/>
<path d="M68.261 108.049C65.3759 108.049 63.037 110.388 63.037 113.273V133.776C63.037 136.661 65.3759 139 68.261 139C71.146 139 73.485 136.661 73.485 133.776V113.273C73.485 110.388 71.146 108.049 68.261 108.049Z" fill="#0D0D0D"/>
<path d="M15.8921 63.0352H5.22399C2.33895 63.0352 0 65.3741 0 68.2591C0 71.1442 2.33895 73.4831 5.22399 73.4831H15.8921C18.7771 73.4831 21.1161 71.1442 21.1161 68.2591C21.1161 65.3741 18.7771 63.0352 15.8921 63.0352Z" fill="#0D0D0D"/>
<path d="M133.776 63.0352H120.006C117.121 63.0352 114.782 65.3741 114.782 68.2591C114.782 71.1442 117.121 73.4831 120.006 73.4831H133.776C136.661 73.4831 139 71.1442 139 68.2591C139 65.3741 136.661 63.0352 133.776 63.0352Z" fill="#0D0D0D"/>
<path d="M32.38 104.143C30.3402 102.103 27.0324 102.103 24.9922 104.143L9.44527 119.69C7.40513 121.73 7.40513 125.038 9.44527 127.078C11.4851 129.118 14.7932 129.118 16.833 127.078L32.38 111.531C34.4201 109.491 34.4201 106.184 32.38 104.143Z" fill="#0D0D0D"/>
<path d="M128.808 7.66656C126.755 5.63965 123.447 5.66089 121.42 7.71392L94.4437 35.0385C92.4172 37.0919 92.4381 40.3994 94.4914 42.4263C96.5455 44.4542 99.853 44.4313 101.879 42.3789L128.856 15.0543C130.882 13.0009 130.862 9.69347 128.808 7.66656Z" fill="#0D0D0D"/>
<path d="M116.632 109.241L111.086 103.696C109.046 101.656 105.738 101.656 103.698 103.696C101.658 105.736 101.658 109.044 103.698 111.084L109.244 116.629C111.284 118.669 114.591 118.669 116.632 116.629C118.672 114.589 118.672 111.282 116.632 109.241Z" fill="#0D0D0D"/>
<path d="M42.0955 35.053L25.5668 18.1764C23.5476 16.115 20.2401 16.0802 18.1794 18.0995C16.118 20.118 16.0835 23.4255 18.1021 25.4869L34.6308 42.3635C36.6514 44.4259 39.9589 44.458 42.0182 42.4405C44.0796 40.4219 44.1141 37.1144 42.0955 35.053Z" fill="#0D0D0D"/>
</svg>
