<svg width="139" height="139" viewBox="0 0 139 139" fill="none" xmlns="http://www.w3.org/2000/svg">
<path d="M137.43 126.482C114.147 108.343 86.7704 118.968 59.7857 126.004L47.6268 80.6232C50.0072 80.6498 52.4155 81.2436 54.6541 82.4587C56.6048 83.5886 59.0579 82.9034 60.184 81.041C64.0073 74.719 72.2211 71.4886 80.4166 75.6806C83.5512 77.284 87.1 74.4073 86.2049 71.0181C80.3121 48.7059 58.4166 35.2292 36.4764 39.0058L34.5445 31.7949C33.9627 29.6228 31.7303 28.3327 29.5574 28.9153C27.3849 29.4974 26.0959 31.7303 26.678 33.903L28.6099 41.1134C7.62661 48.8477 -4.49786 71.5429 1.55976 93.7459C2.49611 97.1767 7.12083 97.8524 8.97507 94.7773C12.967 88.1583 21.5108 85.2911 29.1835 89.3846C31.1116 90.4078 33.476 89.7329 34.5842 87.9012C35.9117 85.7057 37.7062 83.9693 39.763 82.7424L51.8728 127.94C36.3043 131.44 20.6595 132.816 5.77427 125.993C3.73027 125.056 1.31298 125.953 0.375816 127.998C-0.561347 130.042 0.336179 132.46 2.38072 133.397C49.0453 154.788 98.0365 106.114 132.425 132.907C134.199 134.289 136.757 133.972 138.14 132.198C139.522 130.423 139.204 127.864 137.43 126.482ZM75.499 65.7416C69.6566 65.1193 63.7717 66.7523 59.0802 70.3052C56.4014 61.2048 51.3741 52.9598 44.2031 46.5167C57.1537 46.6321 69.3982 53.9573 75.499 65.7416ZM8.18179 83.7955C7.58127 70.8289 14.2644 58.1867 25.7091 51.4607C22.7469 60.5359 22.4597 70.186 24.7127 79.5069C18.8584 78.7744 12.9344 80.3143 8.18179 83.7955ZM32.68 77.7995C30.362 68.4135 31.025 58.6414 35.1247 49.6529C43.1658 55.3831 48.6315 63.4931 51.323 72.7988C44.6844 71.6686 37.8626 73.4981 32.68 77.7995Z" fill="#B79B53"/>
<path d="M77.4525 36.9101H81.7827C84.0316 36.9101 85.8546 35.0869 85.8546 32.8379C85.8546 30.5889 84.0314 28.7656 81.7827 28.7656H77.4525C75.2035 28.7656 73.3805 30.5889 73.3805 32.8379C73.3805 35.0869 75.2035 36.9101 77.4525 36.9101Z" fill="#B79B53"/>
<path d="M106.165 46.5204C113.71 46.5204 119.848 40.3816 119.848 32.8365C119.848 25.2911 113.71 19.1523 106.165 19.1523C98.6202 19.1523 92.4819 25.2911 92.4819 32.8365C92.4819 40.3816 98.6202 46.5204 106.165 46.5204ZM106.165 27.2969C109.219 27.2969 111.704 29.7818 111.704 32.8362C111.704 35.8904 109.219 38.3756 106.165 38.3756C103.111 38.3756 100.626 35.8907 100.626 32.8362C100.626 29.7818 103.111 27.2969 106.165 27.2969Z" fill="#B79B53"/>
<path d="M106.165 12.4752C108.414 12.4752 110.237 10.6519 110.237 8.40297V4.07226C110.237 1.82329 108.414 0 106.165 0C103.916 0 102.093 1.82329 102.093 4.07226V8.4027C102.093 10.6519 103.916 12.4752 106.165 12.4752Z" fill="#B79B53"/>
<path d="M86.0092 18.4381C87.599 20.0285 90.1778 20.0287 91.7679 18.4381C93.3583 16.8478 93.3583 14.2695 91.7679 12.6789L88.7061 9.6168C87.116 8.02617 84.5375 8.02617 82.9474 9.6168C81.3571 11.2071 81.3571 13.7854 82.9474 15.3761L86.0092 18.4381Z" fill="#B79B53"/>
<path d="M86.0092 47.2359L82.9474 50.298C81.3571 51.8884 81.3571 54.4666 82.9474 56.0573C84.5372 57.6476 87.116 57.6479 88.7061 56.0573L91.7679 52.9952C93.3583 51.4048 93.3583 48.8266 91.7679 47.2359C90.1778 45.6453 87.5993 45.6453 86.0092 47.2359Z" fill="#B79B53"/>
<path d="M102.093 57.2715V61.6016C102.093 63.8506 103.916 65.6739 106.165 65.6739C108.414 65.6739 110.237 63.8506 110.237 61.6016V57.2715C110.237 55.0225 108.414 53.1992 106.165 53.1992C103.916 53.1992 102.093 55.0225 102.093 57.2715Z" fill="#B79B53"/>
<path d="M120.562 47.2359C118.972 48.8263 118.972 51.4046 120.562 52.9952L123.624 56.0573C125.214 57.6476 127.793 57.6479 129.383 56.0573C130.973 54.4669 130.973 51.8886 129.383 50.298L126.321 47.2359C124.731 45.6453 122.152 45.6453 120.562 47.2359Z" fill="#B79B53"/>
<path d="M126.526 32.8379C126.526 35.0869 128.349 36.9101 130.597 36.9101H134.928C137.177 36.9101 139 35.0869 139 32.8379C139 30.5889 137.176 28.7656 134.928 28.7656H130.597C128.349 28.7656 126.526 30.5889 126.526 32.8379Z" fill="#B79B53"/>
<path d="M126.321 18.4381L129.383 15.3761C130.973 13.7857 130.973 11.2074 129.383 9.6168C127.793 8.02617 125.214 8.02617 123.624 9.6168L120.562 12.6789C118.972 14.2692 118.972 16.8475 120.562 18.4381C122.152 20.0285 124.731 20.0287 126.321 18.4381Z" fill="#B79B53"/>
</svg>
