<svg width="205" height="206" viewBox="0 0 205 206" fill="none" xmlns="http://www.w3.org/2000/svg">
<path d="M154.739 89.6252C153.829 86.8342 151.411 84.8028 148.505 84.3872L119.752 80.2762L107.124 54.6856C105.826 52.0553 103.148 50.3906 100.215 50.3906C97.2827 50.3906 94.6041 52.0558 93.3061 54.6851L80.6765 80.2762L51.9246 84.3872C49.0185 84.8028 46.6008 86.8342 45.6901 89.6247C44.78 92.4158 45.5345 95.4816 47.6368 97.531L68.0875 117.468L63.2491 146.129C62.7637 149.007 63.9456 151.913 66.3031 153.634C68.6324 155.335 71.7568 155.612 74.382 154.257L100.214 140.914L126.045 154.257C128.639 155.597 131.767 155.355 134.124 153.634C136.482 151.913 137.664 149.007 137.178 146.129L132.339 117.468L152.792 97.5315C154.894 95.4816 155.649 92.4163 154.739 89.6252ZM118.693 109.252C116.882 111.017 116.052 113.558 116.473 116.051L119.418 133.49L103.75 125.397C101.532 124.252 98.897 124.252 96.6786 125.397L81.0099 133.49L83.9535 116.051C84.3741 113.558 83.5451 111.017 81.7346 109.252L69.6022 97.4247L86.8776 94.9546C89.3938 94.5946 91.5711 93.0172 92.6959 90.7378L100.214 75.5045L107.731 90.7372C108.856 93.0167 111.034 94.5951 113.55 94.9546L130.826 97.4247L118.693 109.252Z" fill="#0D0D0D"/>
<path d="M100.673 0C96.4179 0 92.9684 3.44953 92.9684 7.70444V26.7657C92.9684 31.0206 96.4179 34.4702 100.673 34.4702C104.928 34.4702 108.377 31.0206 108.377 26.7657V7.70444C108.377 3.44953 104.928 0 100.673 0Z" fill="#0D0D0D"/>
<path d="M100.673 159.355C96.4179 159.355 92.9684 162.805 92.9684 167.06V197.298C92.9684 201.553 96.4179 205.002 100.673 205.002C104.928 205.002 108.377 201.553 108.377 197.298V167.06C108.377 162.805 104.928 159.355 100.673 159.355Z" fill="#0D0D0D"/>
<path d="M23.4379 92.9648H7.70444C3.44953 92.9648 0 96.4144 0 100.669C0 104.924 3.44953 108.374 7.70444 108.374H23.4379C27.6928 108.374 31.1424 104.924 31.1424 100.669C31.1424 96.4144 27.6928 92.9648 23.4379 92.9648Z" fill="#0D0D0D"/>
<path d="M197.296 92.9648H176.988C172.733 92.9648 169.284 96.4144 169.284 100.669C169.284 104.924 172.733 108.374 176.988 108.374H197.296C201.55 108.374 205 104.924 205 100.669C205 96.4144 201.55 92.9648 197.296 92.9648Z" fill="#0D0D0D"/>
<path d="M47.7548 153.593C44.7464 150.584 39.868 150.584 36.8591 153.593L13.9302 176.521C10.9214 179.53 10.9214 184.408 13.9302 187.417C16.9385 190.426 21.8175 190.426 24.8258 187.417L47.7548 164.488C50.7636 161.479 50.7636 156.601 47.7548 153.593Z" fill="#0D0D0D"/>
<path d="M189.969 11.3076C186.94 8.31828 182.062 8.34962 179.073 11.3775L139.287 51.6763C136.298 54.7047 136.329 59.5826 139.358 62.5719C142.387 65.5628 147.265 65.5289 150.253 62.5021L190.039 22.2032C193.028 19.1749 192.997 14.2969 189.969 11.3076Z" fill="#0D0D0D"/>
<path d="M172.01 161.111L163.831 152.932C160.823 149.924 155.945 149.923 152.936 152.932C149.927 155.941 149.927 160.819 152.936 163.828L161.115 172.006C164.123 175.015 169.002 175.015 172.01 172.006C175.019 168.998 175.019 164.12 172.01 161.111Z" fill="#0D0D0D"/>
<path d="M62.0835 51.6961L37.7067 26.8062C34.7286 23.766 29.8507 23.7147 26.8116 26.6927C23.7714 29.6697 23.7205 34.5476 26.6975 37.5878L51.0744 62.4777C54.0545 65.5195 58.9324 65.5667 61.9695 62.5913C65.0097 59.6143 65.0605 54.7363 62.0835 51.6961Z" fill="#0D0D0D"/>
</svg>
