<svg width="126" height="139" viewBox="0 0 126 139" fill="none" xmlns="http://www.w3.org/2000/svg">
<path d="M112.652 0H111.163C104.029 0 98.2244 5.80424 98.2244 12.9377V86.1859C98.2244 86.2925 98.2328 86.4022 98.2412 86.5077C98.2634 86.8031 98.3151 87.0984 98.4016 87.3822L98.4048 87.3938C98.4079 87.4054 98.4111 87.417 98.4153 87.4276L107.955 118.951C109.136 122.851 114.679 122.849 115.859 118.951C116.164 117.945 125.187 88.128 125.419 87.3506C125.526 86.9877 125.572 86.6258 125.582 86.3241C125.584 86.2777 125.589 86.2323 125.589 86.1859C125.589 82.635 125.589 16.1057 125.589 12.9377C125.589 5.80424 119.785 0 112.652 0ZM106.483 24.3795H117.331V82.0569H106.483V24.3795ZM106.483 12.9377C106.483 10.3573 108.582 8.25802 111.163 8.25802H112.652C115.232 8.25802 117.331 10.3573 117.331 12.9377V16.1215H106.483V12.9377ZM111.907 103.499L107.917 90.3149H115.897L111.907 103.499Z" fill="black"/>
<path d="M76.5772 0H4.05886C1.81697 0 0 1.81697 0 4.05886V114.189C0 116.431 1.81697 118.248 4.05886 118.248H6.49418V134.484C6.49418 135.858 7.18863 137.138 8.34075 137.886C9.49288 138.636 10.9452 138.751 12.2009 138.194L21.1061 134.238L30.0113 138.194C30.5387 138.427 31.1 138.542 31.6591 138.542C32.4328 138.542 33.2023 138.322 33.8714 137.886C35.0235 137.138 35.718 135.858 35.718 134.484V118.248H76.5772C84.7837 118.248 91.4597 111.572 91.4597 103.366V14.8825C91.4597 6.67598 84.7837 0 76.5772 0ZM8.11772 8.11772H61.6947V110.13H8.11772V8.11772ZM27.6003 128.24L22.7539 126.088C22.2286 125.854 21.6673 125.738 21.1061 125.738C20.5448 125.738 19.9836 125.854 19.4582 126.088L14.6119 128.24V118.248H27.6003V128.24ZM83.342 103.366C83.342 107.096 80.3073 110.13 76.5772 110.13H69.8124V8.11772H76.5772C80.3073 8.11772 83.342 11.1524 83.342 14.8825V103.366Z" fill="black"/>
</svg>
