<svg width="221" height="206" viewBox="0 0 221 206" fill="none" xmlns="http://www.w3.org/2000/svg">
<path d="M200.217 21.7662C175.88 -2.57152 138.269 -5.13547 110.559 11.7145C82.2733 -5.2982 44.4023 -2.03326 20.6025 21.7662C-7.91134 50.28 -6.22837 97.0384 21.9371 125.203L40.5918 143.859C40.6017 143.868 40.6103 143.879 40.6203 143.888C44.2124 147.48 48.859 149.391 53.573 149.621C53.803 154.334 55.7131 158.98 59.3047 162.572C62.7915 166.058 67.3562 168.076 72.2471 168.313C72.4845 173.204 74.5024 177.769 77.9892 181.256C81.4786 184.745 86.0471 186.762 90.9415 186.998C91.1737 191.708 93.0837 196.35 96.6728 199.94C104.347 207.614 116.837 207.615 124.512 199.94L143.196 181.256C146.685 177.767 148.702 173.198 148.938 168.303C153.648 168.071 158.29 166.161 161.88 162.572C165.366 159.085 167.384 154.52 167.621 149.629C172.512 149.392 177.077 147.374 180.564 143.887C184.05 140.401 186.068 135.836 186.306 130.945C191.197 130.708 195.761 128.69 199.248 125.203C227.754 96.6996 228.413 49.9614 200.217 21.7662ZM59.3047 134.734C56.6769 137.361 52.4028 137.361 49.7754 134.734L49.7758 134.733L49.7655 134.723C47.1489 132.094 47.1519 127.828 49.7758 125.204L69.6257 105.354C72.2536 102.726 76.5285 102.727 79.1555 105.354C81.7829 107.981 81.7829 112.256 79.1555 114.884C74.7208 119.318 61.892 132.147 59.306 134.733L59.3047 134.734ZM68.4607 153.417C65.8333 150.791 65.8329 146.517 68.459 143.89L68.4599 143.889L87.1478 125.201C89.776 122.576 94.0484 122.577 96.6745 125.203C99.3019 127.831 99.3019 132.106 96.6745 134.733L77.9905 153.417C75.3631 156.044 71.0886 156.045 68.4607 153.417ZM87.1443 172.102C84.5105 169.468 84.5105 165.205 87.1443 162.572L105.829 143.888C108.462 141.254 112.725 141.254 115.359 143.888C117.992 146.522 117.992 150.784 115.359 153.418L96.6741 172.102C94.0415 174.735 89.7782 174.736 87.1443 172.102ZM134.043 172.102L115.359 190.786C112.732 193.413 108.457 193.414 105.829 190.786C103.202 188.158 103.202 183.883 105.829 181.256L124.513 162.572C127.147 159.939 131.409 159.938 134.043 162.572C136.677 165.206 136.677 169.468 134.043 172.102ZM190.096 116.049C187.468 118.677 183.193 118.677 180.566 116.049L147.774 83.2574C145.247 80.7295 141.148 80.7295 138.62 83.2574C136.092 85.7853 136.092 89.8838 138.62 92.4116L171.412 125.203C174.045 127.836 174.046 132.099 171.412 134.733C168.778 137.366 164.516 137.367 161.882 134.733L129.09 101.941C126.563 99.4135 122.464 99.4135 119.936 101.941C117.408 104.469 117.408 108.568 119.936 111.096L152.728 143.887C155.361 146.521 155.361 150.783 152.728 153.417C150.1 156.044 145.826 156.044 143.198 153.418L143.198 153.417C139.711 149.93 135.146 147.913 130.255 147.676C130.018 142.784 128 138.22 124.513 134.733C121.024 131.244 116.455 129.226 111.561 128.991C111.329 124.281 109.419 119.638 105.83 116.049C102.539 112.758 98.3618 110.882 94.0597 110.414C94.1361 105.275 92.2226 100.112 88.3102 96.1997C80.6175 88.507 68.1655 88.5057 60.4715 96.1997L40.6211 116.05C38.9485 117.722 37.6411 119.624 36.6975 121.654L31.0926 116.049C7.84573 92.8023 6.43988 54.239 29.7576 30.9208C47.6832 12.9952 76.1845 9.01029 99.1755 20.2429C98.326 21.0173 97.4916 21.8111 96.6745 22.6281L69.5731 49.7296C61.3879 57.9148 61.3879 71.2331 69.5731 79.4184C76.649 86.4943 87.7927 87.5544 96.062 82.0414L137.796 54.2196L190.096 106.52C192.729 109.153 192.729 113.415 190.096 116.049ZM199.25 97.3652L144.7 42.8142C141.644 39.7588 136.857 39.2848 133.262 41.6816L88.8813 71.269C85.7005 73.3892 81.4307 72.9662 78.7278 70.2632C75.5906 67.1261 75.5906 62.0206 78.7278 58.8834L105.829 31.782C129.123 8.488 167.773 7.63119 191.063 30.9208C209.837 49.6951 212.597 78.0807 201.569 100.147C200.89 99.1612 200.115 98.2297 199.25 97.3652Z" fill="#0D0D0D"/>
</svg>
