<svg width="156" height="206" viewBox="0 0 156 206" fill="none" xmlns="http://www.w3.org/2000/svg">
<path d="M83.9992 181.773H101.999C125.158 181.773 143.999 162.933 143.999 139.773C143.999 136.46 141.312 133.774 137.999 133.774H113.999C102.258 133.774 91.6288 138.619 83.9992 146.411V132.341C90.9835 129.864 95.999 123.196 95.999 115.374V109.374C102.626 109.374 107.999 104.001 107.999 97.3739V78.6569C107.999 74.8039 109.236 71.1258 111.579 68.0227C117.086 60.7181 119.999 52.0572 119.999 42.9745C119.999 17.1357 96.785 -2.94068 70.5102 1.6249C53.5463 4.57331 39.623 18.5232 36.6496 35.548C34.6575 46.9494 37.2996 58.3228 44.0855 67.5711C46.6464 71.0617 47.9995 74.9085 47.9995 78.6976V97.3739C47.9995 104.001 53.3721 109.374 59.9994 109.374V115.374C59.9994 123.196 65.0165 129.864 71.9993 132.341V146.411C64.3697 138.619 53.7416 133.774 41.9996 133.774H17.9998C14.6861 133.774 11.9999 136.46 11.9999 139.773C11.9999 162.931 30.8403 181.773 53.9995 181.773H71.9993V193.773H5.99994C2.68626 193.773 0 196.459 0 199.773C0 203.087 2.68626 205.773 5.99994 205.773H150C153.314 205.773 156 203.087 156 199.773C156 196.459 153.314 193.773 150 193.773H83.9992V181.773ZM113.999 145.769H131.397C128.608 159.445 116.486 169.773 101.999 169.773H84.6023C87.3897 156.097 99.5115 145.769 113.999 145.769ZM53.9995 169.773C39.5121 169.773 27.3904 159.45 24.6029 145.773H41.9996C56.4869 145.773 68.6087 156.097 71.3962 169.773H53.9995ZM59.9994 97.3739V84.9741H95.999V97.3739H59.9994ZM48.4698 37.612C50.5886 25.4825 60.4963 15.5466 72.5649 13.4482C91.8319 10.0998 107.999 24.8778 107.999 42.9745C107.999 49.4275 105.924 55.5915 101.997 60.7962C99.2396 64.4524 97.4006 68.5883 96.5475 72.9742H83.9992V57.4587L89.9991 51.4588C92.342 49.1158 92.3422 45.3172 89.9995 42.9741C87.6565 40.6306 83.8573 40.6305 81.514 42.9737L77.9992 46.4885L74.4844 42.9737C72.1411 40.6304 68.3419 40.6304 65.9986 42.9737C63.6553 45.317 63.6553 49.1163 65.9986 51.4596L71.9977 57.4587V72.9742H59.4119C58.5166 68.6008 56.6088 64.3571 53.7588 60.4727C48.9245 53.8822 47.0464 45.7651 48.4698 37.612ZM83.9992 109.374V115.374C83.9992 118.682 81.3086 121.374 77.9992 121.374C74.6914 121.374 71.9993 118.682 71.9993 115.374V109.374H83.9992Z" fill="#B79B53"/>
<path d="M141.948 16.2844C144.911 14.8027 148.515 16.0039 149.997 18.9674C151.479 21.9313 150.278 25.5356 147.314 27.0175L134.047 33.6497C131.084 35.1314 127.48 33.9299 125.998 30.9661C124.517 28.0024 125.718 24.3987 128.682 22.917L141.948 16.2844Z" fill="#B79B53"/>
<path d="M147.322 58.9181C150.286 60.4 151.487 64.0042 150.005 66.968C148.523 69.9317 144.919 71.1328 141.955 69.6509L128.689 63.0173C125.725 61.5355 124.524 57.9319 126.006 54.9683C127.488 52.0044 131.092 50.8029 134.055 52.2849L147.322 58.9181Z" fill="#B79B53"/>
<path d="M8.68268 27.0255C5.71875 25.5435 4.51747 21.9393 5.99961 18.9755C7.48165 16.0118 11.0856 14.8107 14.0492 16.2926L27.3155 22.9262C30.279 24.4081 31.4802 28.0116 29.9987 30.9752C28.5169 33.9391 24.9129 35.1406 21.9491 33.6587L8.68268 27.0255Z" fill="#B79B53"/>
<path d="M14.0493 69.6589C11.0855 71.1407 7.48167 69.9396 5.99964 66.9759C4.51749 64.012 5.71878 60.4078 8.68274 58.9258L21.9495 52.2925C24.9132 50.8106 28.5171 52.0118 29.9991 54.9754C31.4812 57.9393 30.28 61.5435 27.316 63.0255L14.0493 69.6589Z" fill="#B79B53"/>
</svg>
