<svg width="220" height="215" viewBox="0 0 220 215" fill="none" xmlns="http://www.w3.org/2000/svg">
<path d="M220 164.517C220 151.486 209.398 140.885 196.367 140.885H181.562C187.836 125.266 188.848 107.955 184.165 91.2639L176.044 62.3163C174.068 55.2696 165.177 53.0456 160.115 58.3313L151.733 67.0841L118.008 13.3237C114.303 7.41755 105.697 7.41752 101.992 13.3236L68.2666 67.0841L59.8843 58.3314C54.8222 53.0456 45.9321 55.2697 43.9552 62.3164L35.8346 91.2635C31.1523 107.954 32.1643 125.266 38.4377 140.884H23.6328C10.6017 140.884 0 151.486 0 164.517C0 177.405 10.3714 187.91 23.2057 188.139C22.7919 191.847 23.2641 195.626 24.6404 199.209C26.904 205.101 31.3268 209.76 37.0941 212.327C40.1676 213.694 43.4268 214.381 46.6933 214.381C49.5554 214.381 52.4236 213.853 55.1757 212.796L110 191.738L164.824 212.796C167.577 213.853 170.444 214.381 173.307 214.381C176.573 214.381 179.833 213.694 182.906 212.327C188.673 209.76 193.096 205.102 195.36 199.209C196.736 195.626 197.208 191.847 196.794 188.139C209.629 187.91 220 177.406 220 164.517ZM48.2462 94.7457L54.74 71.5967L62.0076 79.1854C66.266 83.6319 73.5709 82.886 76.8427 77.6705L110 24.8157L143.157 77.6709C146.429 82.8864 153.734 83.6324 157.992 79.1858L165.26 71.5971L171.754 94.7461C177.196 114.145 173.411 134.554 161.368 150.739C159.345 153.458 157.136 155.98 154.771 158.303L151.637 157.099C153.53 149.823 153.491 142.097 151.387 134.595L147.8 121.81C145.854 114.873 137.102 112.683 132.118 117.887L118.008 95.394C114.303 89.4878 105.697 89.4878 101.992 95.3939L87.8818 117.886C82.8982 112.683 74.1458 114.872 72.1996 121.81L68.6129 134.595C66.5083 142.097 66.4697 149.823 68.3629 157.099L65.2287 158.303C62.8641 155.98 60.6551 153.457 58.6317 150.738C46.5893 134.553 42.8037 114.145 48.2462 94.7457ZM134.098 164.367C128.536 171.843 120.041 176.225 110.788 176.391C110.264 176.4 109.737 176.4 109.211 176.391C99.9599 176.225 91.4641 171.843 85.9023 164.367C80.2476 156.768 78.47 147.185 81.0249 138.077L82.9155 131.337C86.5178 135.099 92.6971 134.468 95.4648 130.056L110 106.886L124.536 130.057C127.303 134.468 133.483 135.099 137.085 131.338L138.976 138.077C141.53 147.185 139.753 156.768 134.098 164.367ZM12.8906 164.517C12.8906 158.594 17.7096 153.775 23.6328 153.775H45.0841C46.0939 155.356 47.1578 156.912 48.2896 158.433C49.543 160.118 50.8582 161.737 52.2242 163.298L38.2276 168.674C34.5404 170.091 31.3363 172.352 28.8256 175.26H23.6328C17.7096 175.26 12.8906 170.441 12.8906 164.517ZM50.5532 200.763C47.8749 201.792 44.9561 201.716 42.3345 200.549C39.713 199.383 37.7025 197.265 36.6738 194.587C35.6452 191.908 35.7208 188.989 36.8874 186.368C38.054 183.746 40.1715 181.736 42.8502 180.707L62.5874 173.125C70.2354 179.132 78.9259 183.59 88.2475 186.284L50.5532 200.763ZM183.326 194.587C182.297 197.266 180.287 199.383 177.665 200.55C175.044 201.716 172.126 201.792 169.447 200.763L131.753 186.285C141.075 183.591 149.765 179.133 157.413 173.126L177.15 180.708C179.829 181.737 181.946 183.747 183.113 186.368C184.279 188.989 184.355 191.908 183.326 194.587ZM196.367 175.26H191.174C188.663 172.352 185.46 170.09 181.772 168.674L167.775 163.298C169.142 161.737 170.457 160.117 171.71 158.433C172.842 156.911 173.906 155.356 174.915 153.775H196.367C202.29 153.775 207.109 158.594 207.109 164.517C207.109 170.44 202.29 175.26 196.367 175.26Z" fill="#0D0D0D"/>
</svg>
