<svg width="179" height="207" viewBox="0 0 179 207" fill="none" xmlns="http://www.w3.org/2000/svg">
<path d="M112.791 7.38187L112.791 7.38188L108.924 24.5697C108.924 24.5698 108.924 24.5698 108.924 24.5698C108.453 26.664 106.596 28.0851 104.539 28.0851C104.211 28.0851 103.879 28.049 103.547 27.974C101.123 27.427 99.601 25.0163 100.146 22.5903L100.146 22.5902L104.013 5.40227L104.013 5.40221C104.559 2.97641 106.966 1.44984 109.391 1.99813L112.791 7.38187ZM112.791 7.38187C113.337 4.95595 111.815 2.54525 109.391 1.99819L112.791 7.38187Z" fill="black" stroke="black"/>
<path d="M90.5942 23.6992L90.5941 23.6993C89.8492 24.1705 89.0166 24.3966 88.1943 24.3966C86.7037 24.3966 85.2434 23.6546 84.3873 22.298L90.5942 23.6992ZM90.5942 23.6992C92.694 22.37 93.3207 19.5883 91.9936 17.4857C91.9936 17.4857 91.9936 17.4857 91.9936 17.4857L82.5981 2.59845C81.271 0.495308 78.492 -0.131354 76.3914 1.19663L76.3912 1.19678C74.2913 2.52597 73.6647 5.3077 74.9918 7.41028C74.9918 7.41029 74.9918 7.4103 74.9918 7.41031L84.3873 22.298L90.5942 23.6992Z" fill="black" stroke="black"/>
<path d="M123.284 31.0736L123.285 31.0734L138.164 21.6531L138.164 21.6531C140.263 20.3234 140.889 17.5416 139.562 15.4395C138.234 13.3375 135.455 12.7096 133.355 14.0396L118.476 23.4596L118.476 23.4596C116.376 24.7892 115.75 27.571 117.078 29.6732C117.934 31.0292 119.394 31.7712 120.884 31.7712C121.707 31.7712 122.539 31.5451 123.284 31.0736Z" fill="black" stroke="black"/>
<mask id="path-4-outside-1" maskUnits="userSpaceOnUse" x="0" y="20.1152" width="179" height="187" fill="black">
<rect fill="white" y="20.1152" width="179" height="187"/>
<path d="M170.515 174.743L145.192 163.825L137.074 133.476C147.551 129.557 156.45 121.455 161.334 111.198C166.109 101.168 166.431 90.2123 162.266 80.2418C162.236 80.1681 161.991 79.5931 161.895 79.3801L144.488 40.3914C143.686 38.5952 141.7 37.6487 139.803 38.158L101.543 48.422L102.13 42.7505C102.331 40.8042 101.098 38.9972 99.2143 38.4775L86.6901 35.0213C84.5612 34.4335 82.3595 35.6856 81.7729 37.8176C81.1863 39.9497 82.4367 42.1543 84.5656 42.7416L93.8254 45.2969L92.1162 61.8118C80.7595 56.5975 65.8498 57.1545 55.569 63.7613C47.2397 69.1141 34.0004 69.2014 25.0492 64.3347L39.9946 30.8721L50.0908 33.5823C52.2229 34.1553 54.4166 32.888 54.9884 30.7516C55.5602 28.6155 54.2945 26.4201 52.1617 25.8472L38.7718 22.2525C36.8752 21.7428 34.888 22.6893 34.086 24.4851L16.6667 63.4867C12.1206 73.6794 12.3216 84.9744 17.2328 95.2912C22.1172 105.552 31.0203 113.659 41.5001 117.581L33.3822 147.929L8.05669 158.838C3.54589 160.787 0.718738 165.288 1.02223 170.039C1.32493 174.784 4.70863 178.651 9.85284 180.13C9.87606 180.137 9.89928 180.143 9.9225 180.15L45.3246 189.64C45.3454 189.645 45.3666 189.651 45.3879 189.656C46.5646 189.951 47.7237 190.095 48.844 190.095C52.6742 190.095 56.0482 188.415 58.0858 185.353C60.7232 181.391 60.523 176.078 57.5865 172.131L41.1077 150.003L49.2252 119.657C51.5691 120.051 53.945 120.247 56.3241 120.247C65.1475 120.246 74.0069 117.576 81.3725 112.503C82.0191 112.058 82.6469 111.596 83.2591 111.121C86.2184 118.577 91.5773 124.942 98.7915 129.441C105.822 133.826 114.129 136.122 122.338 136.122C124.694 136.122 127.041 135.931 129.348 135.548L137.466 165.897L120.987 188.026C118.049 191.972 117.844 197.285 120.478 201.247C122.517 204.315 125.894 205.998 129.729 205.998C130.845 205.998 132 205.855 133.171 205.563C133.194 205.557 133.216 205.551 133.239 205.545L168.641 196.044C168.664 196.038 168.686 196.032 168.708 196.026C173.862 194.546 177.25 190.675 177.551 185.925C177.851 181.175 175.022 176.681 170.515 174.743ZM100.66 56.9495L138.579 46.7772L153.517 80.2354C144.569 85.1029 131.331 85.0132 122.995 79.6564C116.443 75.4419 107.562 73.5861 98.8487 74.4473L100.66 56.9495ZM51.4317 180.913C50.446 182.394 48.4693 182.169 47.3582 181.895L12.0294 172.425C10.9335 172.105 9.11732 171.308 9.00361 169.53C8.93234 168.416 9.59699 166.896 11.221 166.194L35.4245 155.769L51.1743 176.918C52.2321 178.339 52.0491 179.985 51.4317 180.913ZM76.8409 105.905C68.4067 111.714 57.1221 113.694 47.383 111.072C47.3826 111.072 47.3826 111.072 47.3822 111.071C47.3818 111.071 47.3814 111.071 47.3806 111.071C47.3802 111.071 47.3798 111.071 47.3794 111.071C37.6427 108.466 28.8573 101.099 24.4523 91.8455C21.3797 85.3908 20.6385 78.4712 22.2249 71.8956C27.5621 74.5895 33.7793 75.9568 39.977 75.9564C47.1063 75.956 54.206 74.153 59.8888 70.5011C68.4755 64.9821 82.2794 65.0558 91.2297 70.3814L89.7771 84.4166C88.8758 93.1488 84.2817 100.78 76.8409 105.905ZM103.02 122.643C96.2522 118.423 91.5564 112.175 89.6282 104.911C94.167 99.3224 96.9729 92.5938 97.732 85.241L98.0035 82.6181C105.474 81.4958 113.187 82.8647 118.674 86.395C124.364 90.0513 131.466 91.8559 138.599 91.8559C144.794 91.8559 151.008 90.489 156.342 87.7967C157.929 94.3751 157.189 101.296 154.115 107.751C149.711 117.001 140.931 124.362 131.193 126.965C131.193 126.965 131.193 126.965 131.192 126.965C131.192 126.965 131.191 126.965 131.191 126.965C131.19 126.966 131.189 126.966 131.187 126.966C121.904 129.469 111.373 127.853 103.02 122.643ZM166.533 188.319L131.206 197.8C130.096 198.072 128.121 198.294 127.136 196.811C126.519 195.883 126.339 194.236 127.399 192.813L143.149 171.663L167.355 182.101C168.976 182.798 169.639 184.31 169.569 185.419C169.457 187.2 167.633 187.998 166.533 188.319Z"/>
</mask>
<path d="M170.515 174.743L145.192 163.825L137.074 133.476C147.551 129.557 156.45 121.455 161.334 111.198C166.109 101.168 166.431 90.2123 162.266 80.2418C162.236 80.1681 161.991 79.5931 161.895 79.3801L144.488 40.3914C143.686 38.5952 141.7 37.6487 139.803 38.158L101.543 48.422L102.13 42.7505C102.331 40.8042 101.098 38.9972 99.2143 38.4775L86.6901 35.0213C84.5612 34.4335 82.3595 35.6856 81.7729 37.8176C81.1863 39.9497 82.4367 42.1543 84.5656 42.7416L93.8254 45.2969L92.1162 61.8118C80.7595 56.5975 65.8498 57.1545 55.569 63.7613C47.2397 69.1141 34.0004 69.2014 25.0492 64.3347L39.9946 30.8721L50.0908 33.5823C52.2229 34.1553 54.4166 32.888 54.9884 30.7516C55.5602 28.6155 54.2945 26.4201 52.1617 25.8472L38.7718 22.2525C36.8752 21.7428 34.888 22.6893 34.086 24.4851L16.6667 63.4867C12.1206 73.6794 12.3216 84.9744 17.2328 95.2912C22.1172 105.552 31.0203 113.659 41.5001 117.581L33.3822 147.929L8.05669 158.838C3.54589 160.787 0.718738 165.288 1.02223 170.039C1.32493 174.784 4.70863 178.651 9.85284 180.13C9.87606 180.137 9.89928 180.143 9.9225 180.15L45.3246 189.64C45.3454 189.645 45.3666 189.651 45.3879 189.656C46.5646 189.951 47.7237 190.095 48.844 190.095C52.6742 190.095 56.0482 188.415 58.0858 185.353C60.7232 181.391 60.523 176.078 57.5865 172.131L41.1077 150.003L49.2252 119.657C51.5691 120.051 53.945 120.247 56.3241 120.247C65.1475 120.246 74.0069 117.576 81.3725 112.503C82.0191 112.058 82.6469 111.596 83.2591 111.121C86.2184 118.577 91.5773 124.942 98.7915 129.441C105.822 133.826 114.129 136.122 122.338 136.122C124.694 136.122 127.041 135.931 129.348 135.548L137.466 165.897L120.987 188.026C118.049 191.972 117.844 197.285 120.478 201.247C122.517 204.315 125.894 205.998 129.729 205.998C130.845 205.998 132 205.855 133.171 205.563C133.194 205.557 133.216 205.551 133.239 205.545L168.641 196.044C168.664 196.038 168.686 196.032 168.708 196.026C173.862 194.546 177.25 190.675 177.551 185.925C177.851 181.175 175.022 176.681 170.515 174.743ZM100.66 56.9495L138.579 46.7772L153.517 80.2354C144.569 85.1029 131.331 85.0132 122.995 79.6564C116.443 75.4419 107.562 73.5861 98.8487 74.4473L100.66 56.9495ZM51.4317 180.913C50.446 182.394 48.4693 182.169 47.3582 181.895L12.0294 172.425C10.9335 172.105 9.11732 171.308 9.00361 169.53C8.93234 168.416 9.59699 166.896 11.221 166.194L35.4245 155.769L51.1743 176.918C52.2321 178.339 52.0491 179.985 51.4317 180.913ZM76.8409 105.905C68.4067 111.714 57.1221 113.694 47.383 111.072C47.3826 111.072 47.3826 111.072 47.3822 111.071C47.3818 111.071 47.3814 111.071 47.3806 111.071C47.3802 111.071 47.3798 111.071 47.3794 111.071C37.6427 108.466 28.8573 101.099 24.4523 91.8455C21.3797 85.3908 20.6385 78.4712 22.2249 71.8956C27.5621 74.5895 33.7793 75.9568 39.977 75.9564C47.1063 75.956 54.206 74.153 59.8888 70.5011C68.4755 64.9821 82.2794 65.0558 91.2297 70.3814L89.7771 84.4166C88.8758 93.1488 84.2817 100.78 76.8409 105.905ZM103.02 122.643C96.2522 118.423 91.5564 112.175 89.6282 104.911C94.167 99.3224 96.9729 92.5938 97.732 85.241L98.0035 82.6181C105.474 81.4958 113.187 82.8647 118.674 86.395C124.364 90.0513 131.466 91.8559 138.599 91.8559C144.794 91.8559 151.008 90.489 156.342 87.7967C157.929 94.3751 157.189 101.296 154.115 107.751C149.711 117.001 140.931 124.362 131.193 126.965C131.193 126.965 131.193 126.965 131.192 126.965C131.192 126.965 131.191 126.965 131.191 126.965C131.19 126.966 131.189 126.966 131.187 126.966C121.904 129.469 111.373 127.853 103.02 122.643ZM166.533 188.319L131.206 197.8C130.096 198.072 128.121 198.294 127.136 196.811C126.519 195.883 126.339 194.236 127.399 192.813L143.149 171.663L167.355 182.101C168.976 182.798 169.639 184.31 169.569 185.419C169.457 187.2 167.633 187.998 166.533 188.319Z" fill="black"/>
<path d="M170.515 174.743L145.192 163.825L137.074 133.476C147.551 129.557 156.45 121.455 161.334 111.198C166.109 101.168 166.431 90.2123 162.266 80.2418C162.236 80.1681 161.991 79.5931 161.895 79.3801L144.488 40.3914C143.686 38.5952 141.7 37.6487 139.803 38.158L101.543 48.422L102.13 42.7505C102.331 40.8042 101.098 38.9972 99.2143 38.4775L86.6901 35.0213C84.5612 34.4335 82.3595 35.6856 81.7729 37.8176C81.1863 39.9497 82.4367 42.1543 84.5656 42.7416L93.8254 45.2969L92.1162 61.8118C80.7595 56.5975 65.8498 57.1545 55.569 63.7613C47.2397 69.1141 34.0004 69.2014 25.0492 64.3347L39.9946 30.8721L50.0908 33.5823C52.2229 34.1553 54.4166 32.888 54.9884 30.7516C55.5602 28.6155 54.2945 26.4201 52.1617 25.8472L38.7718 22.2525C36.8752 21.7428 34.888 22.6893 34.086 24.4851L16.6667 63.4867C12.1206 73.6794 12.3216 84.9744 17.2328 95.2912C22.1172 105.552 31.0203 113.659 41.5001 117.581L33.3822 147.929L8.05669 158.838C3.54589 160.787 0.718738 165.288 1.02223 170.039C1.32493 174.784 4.70863 178.651 9.85284 180.13C9.87606 180.137 9.89928 180.143 9.9225 180.15L45.3246 189.64C45.3454 189.645 45.3666 189.651 45.3879 189.656C46.5646 189.951 47.7237 190.095 48.844 190.095C52.6742 190.095 56.0482 188.415 58.0858 185.353C60.7232 181.391 60.523 176.078 57.5865 172.131L41.1077 150.003L49.2252 119.657C51.5691 120.051 53.945 120.247 56.3241 120.247C65.1475 120.246 74.0069 117.576 81.3725 112.503C82.0191 112.058 82.6469 111.596 83.2591 111.121C86.2184 118.577 91.5773 124.942 98.7915 129.441C105.822 133.826 114.129 136.122 122.338 136.122C124.694 136.122 127.041 135.931 129.348 135.548L137.466 165.897L120.987 188.026C118.049 191.972 117.844 197.285 120.478 201.247C122.517 204.315 125.894 205.998 129.729 205.998C130.845 205.998 132 205.855 133.171 205.563C133.194 205.557 133.216 205.551 133.239 205.545L168.641 196.044C168.664 196.038 168.686 196.032 168.708 196.026C173.862 194.546 177.25 190.675 177.551 185.925C177.851 181.175 175.022 176.681 170.515 174.743ZM100.66 56.9495L138.579 46.7772L153.517 80.2354C144.569 85.1029 131.331 85.0132 122.995 79.6564C116.443 75.4419 107.562 73.5861 98.8487 74.4473L100.66 56.9495ZM51.4317 180.913C50.446 182.394 48.4693 182.169 47.3582 181.895L12.0294 172.425C10.9335 172.105 9.11732 171.308 9.00361 169.53C8.93234 168.416 9.59699 166.896 11.221 166.194L35.4245 155.769L51.1743 176.918C52.2321 178.339 52.0491 179.985 51.4317 180.913ZM76.8409 105.905C68.4067 111.714 57.1221 113.694 47.383 111.072C47.3826 111.072 47.3826 111.072 47.3822 111.071C47.3818 111.071 47.3814 111.071 47.3806 111.071C47.3802 111.071 47.3798 111.071 47.3794 111.071C37.6427 108.466 28.8573 101.099 24.4523 91.8455C21.3797 85.3908 20.6385 78.4712 22.2249 71.8956C27.5621 74.5895 33.7793 75.9568 39.977 75.9564C47.1063 75.956 54.206 74.153 59.8888 70.5011C68.4755 64.9821 82.2794 65.0558 91.2297 70.3814L89.7771 84.4166C88.8758 93.1488 84.2817 100.78 76.8409 105.905ZM103.02 122.643C96.2522 118.423 91.5564 112.175 89.6282 104.911C94.167 99.3224 96.9729 92.5938 97.732 85.241L98.0035 82.6181C105.474 81.4958 113.187 82.8647 118.674 86.395C124.364 90.0513 131.466 91.8559 138.599 91.8559C144.794 91.8559 151.008 90.489 156.342 87.7967C157.929 94.3751 157.189 101.296 154.115 107.751C149.711 117.001 140.931 124.362 131.193 126.965C131.193 126.965 131.193 126.965 131.192 126.965C131.192 126.965 131.191 126.965 131.191 126.965C131.19 126.966 131.189 126.966 131.187 126.966C121.904 129.469 111.373 127.853 103.02 122.643ZM166.533 188.319L131.206 197.8C130.096 198.072 128.121 198.294 127.136 196.811C126.519 195.883 126.339 194.236 127.399 192.813L143.149 171.663L167.355 182.101C168.976 182.798 169.639 184.31 169.569 185.419C169.457 187.2 167.633 187.998 166.533 188.319Z" stroke="black" stroke-width="2" mask="url(#path-4-outside-1)"/>
<path d="M63.4341 34.225V34.2251C63.4345 36.7141 65.4613 38.7293 67.9444 38.7293C70.4297 38.7293 72.4431 36.7122 72.4431 34.225C72.4431 31.7382 70.4298 29.7207 67.9444 29.7207H67.9212C65.4339 29.7207 63.4341 31.7397 63.4341 34.225Z" fill="black" stroke="black"/>
</svg>
