<svg width="250" height="207" viewBox="0 0 250 207" fill="none" xmlns="http://www.w3.org/2000/svg">
<path d="M245.48 15.6094C247.976 15.6094 250 13.5858 250 11.0895V5.25146C250 2.88187 248.079 0.960938 245.709 0.960938H228.027H58.5938C46.8555 0.960938 35.8193 5.53223 27.5195 13.832C19.2192 22.1323 14.6484 33.168 14.6484 44.9062C14.6484 55.8267 18.6094 66.1357 25.8438 74.2031H21.9727C9.85693 74.2031 0 84.0601 0 96.1758V125.473C0 131.096 2.12598 136.23 5.61279 140.121C2.12598 144.012 0 149.146 0 154.77V184.066C0 196.182 9.85693 206.039 21.9727 206.039H228.027C240.143 206.039 250 196.182 250 184.066V154.77C250 149.146 247.874 144.012 244.387 140.121C247.875 136.23 250 131.096 250 125.473V96.1758C250 93.6815 249.578 91.2844 248.809 89.0477C248.776 88.9519 248.847 88.8516 248.948 88.8516C249.529 88.8516 250 88.3806 250 87.7996V81.5273C250 77.4823 246.721 74.2031 242.676 74.2031H231.212C216.548 57.4873 216.548 32.3252 231.212 15.6094H245.48ZM220.703 88.8516H228.027C232.066 88.8516 235.352 92.1372 235.352 96.1758V125.473C235.352 129.511 232.066 132.797 228.027 132.797H220.703V88.8516ZM220.703 147.445H228.027C232.066 147.445 235.352 150.731 235.352 154.77V184.066C235.352 188.105 232.066 191.391 228.027 191.391H220.703V147.445ZM29.2969 191.391H21.9727C17.9341 191.391 14.6484 188.105 14.6484 184.066V154.77C14.6484 150.731 17.9341 147.445 21.9727 147.445H29.2969V191.391ZM29.2969 132.797H21.9727C17.9341 132.797 14.6484 129.511 14.6484 125.473V96.1758C14.6484 92.1372 17.9341 88.8516 21.9727 88.8516H29.2969V132.797ZM58.5938 191.391H43.9453V147.445H58.5938V191.391ZM120.549 96.179C123.019 93.7494 126.981 93.7494 129.451 96.179L149.649 116.046C154.28 120.601 162.109 117.32 162.109 110.824V88.8516H176.758V132.797H43.9453V88.8516H58.5938H87.8906V110.824C87.8906 117.32 95.7197 120.601 100.351 116.046L120.549 96.179ZM109.185 86.8101C106.715 89.2396 102.539 87.4898 102.539 84.0253V44.9062H147.461V84.0253C147.461 87.4898 143.285 89.2396 140.815 86.8101L127.739 73.9482C126.219 72.453 123.781 72.453 122.261 73.9482L109.185 86.8101ZM206.055 191.391H73.2422V147.445H206.055V191.391ZM206.055 132.797H191.406V88.8516H206.055V132.797ZM213.297 74.2031H162.109V44.9062H184.082C188.127 44.9062 191.406 41.6271 191.406 37.582C191.406 33.537 188.127 30.2578 184.082 30.2578H162.109H87.8906H65.918C61.8729 30.2578 58.5938 33.537 58.5938 37.582C58.5938 41.6271 61.8729 44.9062 65.918 44.9062H87.8906V74.2031H58.5938C50.7681 74.2031 43.4111 71.1558 37.8774 65.6221C32.3442 60.0889 29.2969 52.7319 29.2969 44.9062C29.2969 37.0806 32.3442 29.7236 37.8774 24.1899C43.4111 18.6567 50.7681 15.6094 58.5938 15.6094H213.297C202.983 33.6987 202.983 56.1138 213.297 74.2031Z" fill="#0D0D0D"/>
</svg>
