<svg width="11" height="10" viewBox="0 0 11 10" fill="none" xmlns="http://www.w3.org/2000/svg">
<rect x="5.28125" width="1" height="10" fill="#0D0D0D"/>
<rect x="11" y="4.11133" width="1" height="11" transform="rotate(90 11 4.11133)" fill="#0D0D0D"/>
</svg>
