<svg width="99" height="17" viewBox="0 0 99 17" fill="none" xmlns="http://www.w3.org/2000/svg">
<path d="M85.2574 3.28549V0.601562H76.5078V16.4265H85.2574V13.7474H79.5918V9.47497H85.0526V6.7958H79.5918V3.28549H85.2574Z" fill="#0D0D0D"/>
<path d="M93.8854 9.76075C96.2073 9.28683 97.491 7.69838 97.491 5.27403C97.491 2.31147 95.4476 0.601562 91.8897 0.601562H87.3125V16.4265H90.3965V10.068H90.7966L95.0666 16.4265H98.8675L93.8854 9.76075ZM91.2943 7.88414H90.3965L90.3989 3.09498H91.3467C93.271 3.09498 94.3141 3.89992 94.3141 5.43836C94.3141 7.03157 93.2662 7.88414 91.2943 7.88414Z" fill="#0D0D0D"/>
<path d="M17.7481 0.601562H14.6641V16.4265H17.7481V0.601562Z" fill="#0D0D0D"/>
<path d="M25.291 6.67233C23.4358 5.98885 22.8905 5.53398 22.8905 4.68141C22.8905 3.68357 23.8621 2.92626 25.1934 2.92626C26.115 2.92626 26.8771 3.30729 27.682 4.20988L29.2967 2.09274C27.9654 0.932956 26.3793 0.339966 24.6456 0.339966C21.845 0.339966 19.716 2.28326 19.716 4.87193C19.716 7.05099 20.7067 8.1679 23.6049 9.21099C24.8147 9.63728 25.4291 9.92068 25.7387 10.1112C26.3579 10.5137 26.6651 11.0852 26.6651 11.7497C26.6651 13.0309 25.6458 13.9835 24.2694 13.9835C22.8 13.9835 21.6092 13.2452 20.9019 11.8711L18.9062 13.793C20.3304 15.8815 22.0355 16.8079 24.3813 16.8079C27.5915 16.8079 29.842 14.6741 29.842 11.6115C29.8396 9.09668 28.7966 7.95595 25.291 6.67233Z" fill="#0D0D0D"/>
<path d="M4.73185 0.601568H0.207031V16.4265H4.71518C7.10619 16.4265 8.83515 15.855 10.3569 14.5952C12.1621 13.1044 13.2266 10.8539 13.2266 8.52477C13.2266 3.85229 9.73773 0.596805 4.73185 0.601568ZM8.33742 12.4852C7.37053 13.3592 6.11073 13.7426 4.11981 13.7426H3.29105V3.27835H4.11981C6.10835 3.27835 7.31814 3.63558 8.33742 4.55721C9.4067 5.50743 10.0497 6.97918 10.0497 8.49619C10.0497 10.0203 9.40908 11.535 8.33742 12.4852Z" fill="#0D0D0D"/>
<path d="M71.7732 0.601562L67.496 11.2301L63.2784 0.601562H59.9062L66.622 16.8266H68.2772L75.1144 0.601562H71.7732Z" fill="#0D0D0D"/>
<path d="M52.4528 0.144531C48.9687 0.144531 45.9728 2.26405 44.6987 5.28615C44.2701 6.29352 44.0391 7.40091 44.0391 8.56307C44.0391 13.2093 47.8066 16.9792 52.4528 16.9792C56.2299 16.9792 59.433 14.4906 60.4904 11.0636C60.5404 10.9184 60.5689 10.7707 60.6118 10.6254C60.6404 10.5016 60.6761 10.3801 60.6999 10.2587C60.8166 9.71095 60.8714 9.14178 60.8714 8.55831C60.8714 3.91204 57.1039 0.144531 52.4528 0.144531Z" fill="#0D0D0D"/>
<path d="M39.1581 3.04685C40.6322 3.04685 41.7491 3.57316 43.028 4.8282V1.19882C41.6753 0.510569 40.5584 0.227173 39.2319 0.227173C34.557 0.227173 30.8086 3.90656 30.8086 8.50759C30.8062 13.1562 34.457 16.7594 39.1557 16.7594C40.4869 16.7594 41.6253 16.5022 43.0256 15.8378V12.2037C41.792 13.4396 40.6989 13.9398 39.301 13.9398C36.1931 13.9398 33.9903 11.6845 33.9903 8.48139C33.9903 5.44738 36.2646 3.04685 39.1581 3.04685Z" fill="#0D0D0D"/>
</svg>
