<svg width="58" height="58" viewBox="0 0 58 58" fill="none" xmlns="http://www.w3.org/2000/svg">
<path d="M28.5511 24.0658L23.7109 28.906L28.5511 33.7462L33.3913 28.906L28.5511 24.0658Z" fill="#CC9410"/>
<path d="M28.5457 42.0275L15.438 28.9197L28.5457 15.812L41.6534 28.9197L28.5457 42.0275ZM18.4965 28.9197L28.4729 38.8962L38.4493 28.9197L28.5457 18.8705L18.4965 28.9197Z" fill="#CC9410"/>
<path d="M28.5542 49.601L7.80029 28.9199L28.5542 8.16602L49.3081 28.9199L28.5542 49.601ZM10.8588 28.9199L28.4814 46.5425L46.104 28.9199L28.5542 11.2973L10.8588 28.9199Z" fill="#CC9410"/>
<path d="M28.5457 57.4664L0 28.9207L28.5457 0.375L57.0914 28.9207L28.5457 57.4664ZM3.05847 28.9207L28.4729 54.3351L53.8873 28.9207L28.5457 3.43347L3.05847 28.9207Z" fill="#CC9410"/>
<path d="M16.2049 28.1384L12.3945 31.9487L13.9393 33.4935L17.7496 29.6831L16.2049 28.1384Z" fill="#CC9410"/>
<path d="M43.119 24.3701L39.3086 28.1804L40.8533 29.7252L44.6637 25.9148L43.119 24.3701Z" fill="#CC9410"/>
<path d="M25.419 5.06119L23.874 6.60571L27.7868 10.5196L29.3318 8.97509L25.419 5.06119Z" fill="#CC9410"/>
<path d="M29.318 47.2861L27.7734 48.8311L31.6873 52.7439L33.2319 51.1989L29.318 47.2861Z" fill="#CC9410"/>
</svg>
