<svg width="7" height="11" viewBox="0 0 7 11" fill="none" xmlns="http://www.w3.org/2000/svg">
<path d="M4.86691 10.3594C5.22145 10.7133 5.79569 10.7133 6.15024 10.3594C6.50558 10.0046 6.50558 9.42876 6.15024 9.07398L2.57057 5.5L6.15024 1.92602C6.50558 1.57124 6.50558 0.995429 6.15024 0.640649C5.79569 0.286664 5.22145 0.286664 4.86691 0.640648L0.8225 4.67863C0.368361 5.13205 0.368362 5.86795 0.8225 6.32137L4.86691 10.3594Z" fill="white"/>
</svg>
