<svg width="17" height="14" viewBox="0 0 17 14" fill="none" xmlns="http://www.w3.org/2000/svg">
<path d="M11.3606 2.72163H3.81071L4.43403 2.09831C4.82267 1.70966 4.82267 1.0799 4.43403 0.690745C4.04538 0.3021 3.41563 0.3021 3.02647 0.690745L0.704552 3.01266C0.704123 3.01309 0.703609 3.01309 0.703609 3.01309L0 3.71721L0.703523 4.42031C0.703523 4.42031 0.703952 4.42074 0.704466 4.42168L3.19201 6.9088C3.38655 7.10334 3.6413 7.20035 3.89554 7.20035C4.15072 7.20035 4.40495 7.10334 4.59957 6.9088C4.98822 6.52015 4.98822 5.8904 4.59957 5.50124L3.81071 4.71237H11.3606C13.3728 4.71237 15.0098 6.34989 15.0098 8.36156C15.0098 10.3732 13.3723 12.0108 11.3606 12.0108H1.4085C0.858432 12.0108 0.412919 12.4563 0.412919 13.0059C0.412919 13.5555 0.858432 14.0011 1.4085 14.0011H11.3606C14.4705 14.0011 17 11.4711 17 8.36165C17 5.25223 14.4704 2.72163 11.3606 2.72163Z" fill="#8D8D8D"/>
</svg>
