<svg width="21" height="16" viewBox="0 0 21 16" fill="none" xmlns="http://www.w3.org/2000/svg">
<path d="M7.30959 15.4314L7.63812e-05 8.12225L7.30959 0.813111L8.654 2.15746L3.63951 7.17169L20.5469 7.17169L20.5469 9.07282L3.63952 9.07282L8.654 14.0871L7.30959 15.4314Z" fill="#8D8D8D"/>
</svg>
