<svg width="21" height="15" viewBox="0 0 21 15" fill="none" xmlns="http://www.w3.org/2000/svg">
<path d="M7.30959 14.6318L8.40106e-05 7.31592L7.30959 1.58867e-07L8.654 1.34559L3.63952 6.36447L20.5469 6.36447L20.5469 8.26736L3.63952 8.26736L8.654 13.2862L7.30959 14.6318Z" fill="#8D8D8D"/>
</svg>
