<svg width="80" height="80" viewBox="0 0 80 80" fill="none" xmlns="http://www.w3.org/2000/svg">
<rect width="36" height="36" rx="5" fill="#513521"/>
<rect x="44" width="36" height="36" rx="5" fill="#50230A"/>
<rect y="44" width="36" height="36" rx="5" fill="#513E38"/>
<rect x="44" y="44" width="36" height="36" rx="5" fill="#431305"/>
</svg>
