<svg width="11" height="9" viewBox="0 0 11 9" fill="none" xmlns="http://www.w3.org/2000/svg">
<path d="M3.874 8.41681L-0.00052066 4.5447L3.874 0.672592L4.58662 1.38478L1.92862 4.04113L10.8906 4.04113L10.8906 5.04827L1.92862 5.04827L4.58662 7.70463L3.874 8.41681Z" fill="white"/>
</svg>
