<svg width="47" height="27" viewBox="0 0 47 27" fill="none" xmlns="http://www.w3.org/2000/svg">
<path d="M43.5189 0.215576L43.5188 0.215584C30.7955 3.04258 16.2035 3.0424 3.48018 0.215585L3.48017 0.215582C2.58853 0.01741 1.66125 0.275132 0.999717 0.904898L43.5189 0.215576ZM43.5189 0.215576C44.4105 0.0172369 45.3377 0.27503 45.9993 0.904905M43.5189 0.215576L45.9993 0.904905M2.69713 2.68785C2.65012 2.73261 2.62468 2.78403 2.61531 2.83466C2.60674 2.88099 2.61337 2.91909 2.61567 2.93228L2.61582 2.93315L2.61586 2.93338L5.29183 18.5526L5.31319 18.6773H5.43967H41.5593H41.6858L41.7072 18.5526L44.3831 2.93337L44.3832 2.93315L44.3833 2.93228C44.3856 2.9191 44.3923 2.881 44.3837 2.83466C44.3743 2.78405 44.3489 2.73265 44.302 2.68786L44.3016 2.68745C44.2546 2.64298 44.2022 2.62021 44.1513 2.61332C44.1048 2.60702 44.0672 2.61537 44.0541 2.61826L44.053 2.61851L44.0528 2.61856C30.9918 5.52067 16.0075 5.52067 2.94629 2.61856L2.91375 2.76499L2.94668 2.61865L2.9463 2.61856C2.93679 2.61642 2.91249 2.61095 2.88208 2.61095C2.82468 2.61095 2.7575 2.6303 2.69713 2.68785ZM2.69713 2.68785L2.80057 2.79647L2.69701 2.68796C2.69705 2.68792 2.69709 2.68788 2.69713 2.68785ZM45.9993 0.904905C46.661 1.53502 46.9637 2.44836 46.8094 3.3488L43.5308 22.4855C43.1481 24.7189 41.2262 26.3396 38.9602 26.3396H8.03876C5.7728 26.3396 3.85081 24.7189 3.46816 22.4855L0.18952 3.34882C0.189519 3.34881 0.189519 3.34881 0.189519 3.34881M45.9993 0.904905L0.189519 3.34881M0.189519 3.34881C0.0352974 2.44836 0.338096 1.53484 0.999709 0.904906L0.189519 3.34881ZM5.91288 21.1388H5.735L5.76503 21.3142L5.89446 22.0698C6.07386 23.1174 6.97605 23.878 8.03876 23.878H38.9603C40.0231 23.878 40.9251 23.1173 41.1046 22.0698L41.2341 21.3142L41.2641 21.1388H41.0862H5.91288Z" fill="black" stroke="white" stroke-width="0.3"/>
</svg>
