<svg width="15" height="12" viewBox="0 0 15 12" fill="none" xmlns="http://www.w3.org/2000/svg">
<path d="M13.8917 3.39185C14.5059 2.77026 14.5059 1.77028 13.8917 1.14869C13.2671 0.51652 12.2463 0.51652 11.6216 1.14869L5.38581 7.45946L3.37837 5.42789C2.7537 4.79572 1.73293 4.79572 1.10826 5.42789C0.494055 6.04948 0.494054 7.04946 1.10826 7.67104L4.4613 11.0644C4.9701 11.5793 5.80152 11.5793 6.31031 11.0644L13.8917 3.39185Z" fill="#34C01E"/>
</svg>
