<svg width="57" height="63" viewBox="0 0 57 63" fill="none" xmlns="http://www.w3.org/2000/svg">
<rect x="1" y="1" width="55" height="61" rx="5" stroke="white" stroke-width="2"/>
<path d="M26.216 35.4597L25.8625 35.1061L20.3054 29.5489C20.3054 29.5489 20.3054 29.5489 20.3054 29.5489C19.6637 28.9072 18.6231 28.9071 17.9813 29.5488C17.3396 30.1906 17.3396 31.231 17.9814 31.8728L17.9814 31.8728L25.054 38.9457C25.3622 39.2539 25.7802 39.4271 26.2159 39.4271L26.216 35.4597ZM26.216 35.4597L26.5696 35.1061M26.216 35.4597L26.5696 35.1061M26.5696 35.1061L38.6946 22.9813M26.5696 35.1061L38.6946 22.9813M38.6946 22.9813C39.3363 22.3395 40.3768 22.3396 41.0187 22.9814C41.6605 23.6232 41.6605 24.6637 41.0187 25.3055L27.3781 38.9458C27.3781 38.9458 27.378 38.9458 27.378 38.9458M38.6946 22.9813L27.378 38.9458M27.378 38.9458C27.0698 39.2539 26.6517 39.4271 26.2159 39.4271L27.378 38.9458Z" fill="white" stroke="#0D0D0D"/>
</svg>
