<svg width="16" height="11" viewBox="0 0 16 11" fill="none" xmlns="http://www.w3.org/2000/svg">
<path d="M2.27609 4H9.99999C10.3682 4 10.6667 3.70153 10.6667 3.33334C10.6667 2.96515 10.3682 2.66668 9.99999 2.66668H2.27609L3.8047 1.13808C4.06504 0.877732 4.06504 0.455605 3.8047 0.195259C3.54435 -0.0650864 3.12222 -0.0650864 2.86188 0.195259L0.195173 2.86193C0.179642 2.87746 0.164954 2.89381 0.151017 2.91081C0.144704 2.9185 0.139204 2.92662 0.133298 2.93453C0.126173 2.94403 0.118829 2.95331 0.112204 2.96322C0.10586 2.97268 0.10036 2.98253 0.0945475 2.99225C0.0892037 3.00118 0.0835787 3.00993 0.0786412 3.01915C0.0733286 3.02906 0.0688286 3.03928 0.0640786 3.0494C0.0595473 3.059 0.054766 3.06843 0.0506722 3.07828C0.0466097 3.08812 0.0432972 3.09818 0.0397346 3.10818C0.0359534 3.11872 0.0319221 3.12909 0.0286721 3.13984C0.0256408 3.14984 0.023422 3.16 0.0208908 3.17012C0.0181095 3.18109 0.015047 3.19194 0.0128282 3.20312C0.0105157 3.21484 0.00914069 3.22665 0.00745318 3.23844C0.00607817 3.24815 0.00420315 3.25775 0.0032344 3.26759C-0.00107813 3.31134 -0.00107813 3.35544 0.0032344 3.39919C0.00420315 3.40903 0.00604692 3.41859 0.00745318 3.42834C0.00914069 3.44012 0.0105157 3.45197 0.0128595 3.46366C0.0150782 3.47484 0.0181407 3.48566 0.020922 3.49663C0.0234533 3.50675 0.0256721 3.51691 0.0287033 3.52691C0.0319533 3.53766 0.0359846 3.54806 0.0397659 3.55856C0.0433597 3.56856 0.0466409 3.57863 0.0507035 3.58847C0.054766 3.59831 0.0595785 3.60772 0.0641098 3.61731C0.0688911 3.62744 0.0733911 3.63766 0.0787037 3.64759C0.0836412 3.65678 0.089235 3.6655 0.0945788 3.67444C0.100391 3.68419 0.105891 3.69403 0.112235 3.70353C0.118829 3.71341 0.126173 3.72266 0.133267 3.73216C0.139204 3.7401 0.144704 3.74822 0.151048 3.75594C0.164892 3.77281 0.179486 3.78903 0.194892 3.80444C0.195017 3.80456 0.195079 3.80469 0.195204 3.80478L2.86188 6.47146C3.12222 6.7318 3.54435 6.7318 3.8047 6.47146C4.06504 6.21111 4.06504 5.78898 3.8047 5.52864L2.27609 4Z" fill="white"/>
<path d="M15.8476 7.75581C15.854 7.74806 15.8595 7.73991 15.8655 7.73194C15.8725 7.7225 15.8799 7.71325 15.8864 7.70341C15.8928 7.69391 15.8983 7.68403 15.9041 7.67428C15.9094 7.66538 15.915 7.65666 15.9199 7.6475C15.9253 7.63756 15.9298 7.62731 15.9346 7.61716C15.9391 7.60759 15.9439 7.59819 15.9479 7.58838C15.952 7.57853 15.9553 7.56847 15.9589 7.55847C15.9627 7.54794 15.9667 7.53756 15.9699 7.52681C15.973 7.51681 15.9752 7.50662 15.9777 7.49653C15.9805 7.48556 15.9836 7.47472 15.9858 7.46356C15.9881 7.45184 15.9895 7.44003 15.9912 7.42825C15.9926 7.41853 15.9944 7.40897 15.9954 7.39909C15.9997 7.35534 15.9997 7.31125 15.9954 7.2675C15.9944 7.25765 15.9926 7.24809 15.9912 7.23834C15.9895 7.22656 15.9881 7.21472 15.9858 7.20303C15.9836 7.19184 15.9805 7.18103 15.9777 7.17006C15.9752 7.15994 15.973 7.14978 15.9699 7.13978C15.9667 7.12903 15.9627 7.11862 15.9589 7.10812C15.9553 7.09812 15.952 7.08806 15.9479 7.07822C15.9439 7.0684 15.9391 7.059 15.9346 7.04943C15.9298 7.03928 15.9253 7.02903 15.9199 7.01909C15.915 7.00993 15.9094 7.00122 15.9041 6.99231C15.8983 6.98256 15.8928 6.97268 15.8864 6.96318C15.8799 6.95334 15.8725 6.94409 15.8655 6.93465C15.8595 6.92668 15.854 6.91853 15.8476 6.91078C15.8339 6.89406 15.8194 6.87796 15.8041 6.86265C15.8039 6.8624 15.8037 6.86215 15.8035 6.86193L13.1368 4.19526C12.8765 3.93491 12.4543 3.93491 12.194 4.19526C11.9336 4.4556 11.9336 4.87773 12.194 5.13808L13.7226 6.66668H5.99869C5.6305 6.66668 5.33203 6.96515 5.33203 7.33334C5.33203 7.70153 5.6305 8 5.99869 8H13.7226L12.194 9.52861C11.9336 9.78895 11.9336 10.2111 12.194 10.4714C12.4543 10.7318 12.8765 10.7318 13.1368 10.4714L15.8035 7.80475C15.8037 7.8045 15.8039 7.80425 15.8041 7.80403C15.8194 7.78863 15.8339 7.77253 15.8476 7.75581Z" fill="white"/>
</svg>
