<svg width="19" height="19" viewBox="0 0 19 19" fill="none" xmlns="http://www.w3.org/2000/svg">
<path d="M13.4613 14.0592V16.7827C13.4613 17.4517 12.9189 17.994 12.25 17.994H2.21522C1.54623 17.994 1.00391 17.4517 1.00391 16.7827V6.74793C1.00391 6.07894 1.54623 5.53662 2.21522 5.53662H4.94009" stroke="#0D0D0D" stroke-width="1.21131" stroke-linecap="round" stroke-linejoin="round"/>
<rect x="7.14862" y="0.607121" width="11.2461" height="11.2461" rx="0.605656" stroke="#0D0D0D" stroke-width="1.21131"/>
<rect x="12.249" y="2.25122" width="1.12462" height="7.87236" rx="0.562312" fill="#0D0D0D"/>
<rect x="16.75" y="5.62646" width="1.12462" height="7.87236" rx="0.562312" transform="rotate(90 16.75 5.62646)" fill="#0D0D0D"/>
</svg>
