<svg width="28" height="28" viewBox="0 0 28 28" fill="none" xmlns="http://www.w3.org/2000/svg">
<rect x="0.0507812" y="2.55566" width="3.61399" height="35.9124" rx="1.80699" transform="rotate(-45 0.0507812 2.55566)" fill="#0D0D0D"/>
<rect x="25.3936" y="0.00341797" width="3.61399" height="35.9124" rx="1.80699" transform="rotate(45 25.3936 0.00341797)" fill="#0D0D0D"/>
</svg>
