<svg width="18" height="18" viewBox="0 0 18 18" fill="none" xmlns="http://www.w3.org/2000/svg">
<rect width="18" height="18" rx="2" fill="#333333"/>
<path d="M12.5126 7.91884C12.8919 7.53919 12.8919 6.92403 12.5126 6.54439C12.1328 6.16428 11.5167 6.16428 11.1369 6.54439L7.30872 10.376L6.07118 9.13734C5.6914 8.75722 5.07531 8.75722 4.69553 9.13734C4.31622 9.51698 4.31622 10.1321 4.69553 10.5118L6.7526 12.5707C7.05966 12.878 7.55779 12.878 7.86484 12.5707L12.5126 7.91884Z" fill="white"/>
</svg>
