<svg width="18" height="14" viewBox="0 0 18 14" fill="none" xmlns="http://www.w3.org/2000/svg">
<path d="M16.6322 3.68611C17.384 2.9464 17.384 1.7342 16.6322 0.994489C15.8974 0.271557 14.7186 0.271557 13.9839 0.994489L6.46297 8.39435L4.01612 5.98689C3.28137 5.26395 2.10258 5.26395 1.36782 5.98689C0.616012 6.7266 0.616012 7.93879 1.36782 8.67851L5.40439 12.6501C5.99178 13.228 6.93415 13.228 7.52155 12.6501L16.6322 3.68611Z" fill="#C9A047"/>
</svg>
