<svg width="20" height="20" viewBox="0 0 20 20" fill="none" xmlns="http://www.w3.org/2000/svg">
<rect x="0.0361328" y="1.82617" width="2.58142" height="25.6518" rx="1.29071" transform="rotate(-45 0.0361328 1.82617)" fill="white"/>
<rect x="18.1385" y="0.00195312" width="2.58142" height="25.6518" rx="1.29071" transform="rotate(45 18.1385 0.00195312)" fill="white"/>
</svg>
