<svg width="23" height="23" viewBox="0 0 23 23" fill="none" xmlns="http://www.w3.org/2000/svg">
<rect x="1.9375" y="1.9375" width="19.125" height="19.125" rx="9.5625" fill="#0D0D0D" stroke="#0D0D0D" stroke-width="2.125"/>
<rect x="6" y="6" width="11" height="11" rx="5.5" fill="white"/>
</svg>
