<svg width="171" height="137" viewBox="0 0 171 137" fill="none" xmlns="http://www.w3.org/2000/svg">
<path d="M6.67317 86.5427C6.67317 86.1256 6.67317 85.9171 6.67317 85.5C6.67317 42.1244 42.1244 6.67317 85.5 6.67317C128.876 6.67317 164.327 42.1244 164.327 85.5C164.327 85.9171 164.327 86.1256 164.327 86.5427H171C171 86.1256 171 85.9171 171 85.5C171 38.3707 132.629 0 85.5 0C38.3707 0 0 38.3707 0 85.5C0 85.9171 0 86.1256 0 86.5427H6.67317Z" fill="#A773C8"/>
<path d="M23.5648 86.5496C23.5648 86.1325 23.5648 85.924 23.5648 85.5069C23.5648 51.3069 51.3001 23.5715 85.5001 23.5715C119.7 23.5715 147.436 51.3069 147.436 85.5069C147.436 85.924 147.436 86.1325 147.436 86.5496H154.109C154.109 86.1325 154.109 85.924 154.109 85.5069C153.9 47.7618 123.245 16.8984 85.5001 16.8984C47.755 16.8984 16.8916 47.7618 16.8916 85.5069C16.8916 85.924 16.8916 86.1325 16.8916 86.5496H23.5648Z" fill="#A773C8"/>
<path d="M85.4997 136.382C57.3472 136.382 34.4082 113.443 34.4082 85.2907C34.4082 57.1383 57.3472 34.1992 85.4997 34.1992C113.652 34.1992 136.591 57.1383 136.591 85.2907C136.383 113.652 113.652 136.382 85.4997 136.382ZM85.4997 40.6639C60.8923 40.6639 40.6643 60.6834 40.6643 85.4992C40.6643 110.107 60.6838 130.335 85.4997 130.335C110.107 130.335 130.335 110.315 130.335 85.4992C130.126 60.8919 110.107 40.6639 85.4997 40.6639Z" fill="#A773C8"/>
<path d="M85.4991 123.869L42.332 65.687H128.458L85.4991 123.869ZM54.8442 71.9431L85.4991 113.442L116.154 71.9431H54.8442Z" fill="#A773C8"/>
<path d="M88.6282 37.5377H82.3721V135.341H88.6282V37.5377Z" fill="#A773C8"/>
</svg>
