<svg width="14" height="14" viewBox="0 0 14 14" fill="none" xmlns="http://www.w3.org/2000/svg">
<rect x="0.0219727" y="1.27832" width="1.80742" height="17.9605" transform="rotate(-45 0.0219727 1.27832)" fill="#0D0D0D"/>
<rect x="12.7002" width="1.80742" height="17.9605" transform="rotate(45 12.7002 0)" fill="#0D0D0D"/>
</svg>
