<svg width="8" height="8" viewBox="0 0 8 8" fill="none" xmlns="http://www.w3.org/2000/svg">
<rect x="0.341797" y="1.00427" width="0.949353" height="9.43378" rx="0.474677" transform="rotate(-45 0.341797 1.00427)" fill="#0D0D0D"/>
<rect x="6.99902" y="0.334351" width="0.949353" height="9.43378" rx="0.474677" transform="rotate(45 6.99902 0.334351)" fill="#0D0D0D"/>
</svg>
