<svg width="17" height="11" viewBox="0 0 17 11" fill="none" xmlns="http://www.w3.org/2000/svg">
<path d="M16.3594 2.54185L14.5248 0.707275L8.4969 6.73517L2.469 0.707275L0.634424 2.54185L8.4969 10.4043L16.3594 2.54185Z" fill="white"/>
</svg>
