<svg width="20" height="20" viewBox="0 0 20 20" fill="none" xmlns="http://www.w3.org/2000/svg">
<path d="M14.9361 6.84019C14.8935 6.79862 14.8391 6.77773 14.7728 6.77773H12.5781L12.081 5.61807C12.01 5.44673 11.8821 5.30089 11.6976 5.18051C11.5128 5.06015 11.3257 5 11.1364 5H8.86361C8.67428 5 8.48721 5.06015 8.30255 5.18051C8.11787 5.30089 7.99003 5.44671 7.91899 5.61807L7.42183 6.77773H5.22725C5.1609 6.77773 5.10652 6.79862 5.06388 6.84019C5.02137 6.88186 5 6.93513 5 6.99993V7.44442C5 7.50922 5.02127 7.56249 5.06388 7.60408C5.10652 7.64573 5.161 7.66655 5.22725 7.66655H5.909V14.2778C5.909 14.6621 6.02028 14.9896 6.2428 15.2604C6.46536 15.5313 6.73288 15.6667 7.0454 15.6667H12.9546C13.2672 15.6667 13.5347 15.5267 13.7572 15.2466C13.9797 14.9664 14.0909 14.6343 14.0909 14.2501V7.66655H14.7728C14.839 7.66655 14.8935 7.64573 14.9361 7.60408C14.9786 7.56251 15 7.50922 15 7.44442V6.99993C15 6.93513 14.9786 6.88186 14.9361 6.84019ZM8.75712 5.96512C8.79023 5.92348 8.8305 5.89794 8.87784 5.88874H11.1292C11.1766 5.89801 11.2169 5.92353 11.25 5.96512L11.591 6.77763H8.4091L8.75712 5.96512ZM13.1819 14.2501C13.1819 14.3519 13.1654 14.4457 13.1322 14.5313C13.099 14.6169 13.0646 14.6794 13.0292 14.7188C12.9936 14.7582 12.9689 14.7778 12.9546 14.7778H7.04543C7.03122 14.7778 7.0065 14.7582 6.9709 14.7188C6.93535 14.6794 6.901 14.6169 6.86784 14.5313C6.83473 14.4457 6.81816 14.3518 6.81816 14.2501V7.66655H13.1819V14.2501H13.1819Z" fill="#0D0D0D"/>
<rect x="0.35" y="0.35" width="19.3" height="19.3" rx="3.65" stroke="#0D0D0D" stroke-width="0.7"/>
</svg>
