<svg width="16" height="17" viewBox="0 0 16 17" fill="none" xmlns="http://www.w3.org/2000/svg">
<path d="M15.8977 2.93281C15.8296 2.86656 15.7425 2.83326 15.6365 2.83326H12.125L11.3296 0.985045C11.216 0.711977 11.0114 0.479536 10.7161 0.287683C10.4205 0.0958685 10.1212 0 9.81822 0H6.18178C5.87885 0 5.57954 0.0958685 5.28408 0.287683C4.98859 0.479536 4.78405 0.711939 4.67038 0.985045L3.87493 2.83326H0.363592C0.25744 2.83326 0.170433 2.86656 0.102212 2.93281C0.03419 2.99921 0 3.08411 0 3.18738V3.89579C0 3.99907 0.0340308 4.08396 0.102212 4.15025C0.170433 4.21662 0.257599 4.24981 0.363592 4.24981H1.45441V14.7864C1.45441 15.399 1.63244 15.9209 1.98847 16.3525C2.34458 16.7843 2.77261 17 3.27265 17H12.7273C13.2275 17 13.6555 16.7769 14.0115 16.3306C14.3676 15.884 14.5455 15.3547 14.5455 14.7423V4.24981H15.6365C15.7424 4.24981 15.8296 4.21662 15.8977 4.15025C15.9657 4.084 16 3.99907 16 3.89579V3.18738C16.0001 3.08411 15.9657 2.99921 15.8977 2.93281ZM6.01139 1.53816C6.06436 1.47179 6.1288 1.43109 6.20455 1.41643H9.8068C9.88254 1.4312 9.9471 1.47187 9.99999 1.53816L10.5456 2.8331H5.45456L6.01139 1.53816ZM13.0911 14.7424C13.0911 14.9047 13.0646 15.0541 13.0115 15.1906C12.9584 15.3269 12.9034 15.4266 12.8467 15.4893C12.7897 15.5522 12.7502 15.5834 12.7274 15.5834H3.27269C3.24996 15.5834 3.2104 15.5522 3.15344 15.4893C3.09656 15.4266 3.0416 15.3269 2.98854 15.1906C2.93556 15.0541 2.90905 14.9045 2.90905 14.7424V4.24981H13.091V14.7424H13.0911Z" fill="#BC5A59"/>
</svg>
