<svg width="15" height="9" viewBox="0 0 15 9" fill="none" xmlns="http://www.w3.org/2000/svg">
<path d="M2.80571 1.17598C2.35061 0.731004 1.62096 0.739202 1.17598 1.19429C0.731004 1.64939 0.739202 2.37904 1.19429 2.82402L2.80571 1.17598ZM14.0422 2.82402C14.4973 2.37904 14.5055 1.64939 14.0605 1.19429C13.6155 0.739202 12.8859 0.731004 12.4308 1.17598L14.0422 2.82402ZM7.26911 7.15202L8.07481 6.328L7.26911 7.15202ZM7.96739 7.15202L7.16168 6.328L7.96739 7.15202ZM1.19429 2.82402L6.4634 7.97603L8.07481 6.328L2.80571 1.17598L1.19429 2.82402ZM8.77309 7.97603L14.0422 2.82402L12.4308 1.17598L7.16168 6.328L8.77309 7.97603ZM6.4634 7.97603C7.10536 8.60373 8.13113 8.60373 8.77309 7.97603L7.16168 6.328C7.41548 6.07984 7.82102 6.07984 8.07481 6.328L6.4634 7.97603Z" fill="white"/>
</svg>
