<svg width="15" height="9" viewBox="0 0 15 9" fill="none" xmlns="http://www.w3.org/2000/svg">
<path d="M13.918 1.18457L7.26426 7.56104L1.16503 1.18457" stroke="black" stroke-width="0.797059"/>
</svg>
