<svg width="68" height="18" viewBox="0 0 68 18" fill="none" xmlns="http://www.w3.org/2000/svg">
<path d="M8.32236 0.97229L0.734375 17.7642H9.81826L10.9444 15.0869H13.5185L14.6446 17.7642H24.6434V15.7208L25.5344 17.7642H30.7065L31.5975 15.6776V17.7642H52.3923L54.9208 15.1564L57.2885 17.7642L67.9691 17.7858L60.3572 9.41515L67.9691 0.97229H57.4541L54.9927 3.5319L52.6996 0.97229H30.0776L28.1351 5.30644L26.147 0.97229H17.082V2.94619L16.0736 0.97229C16.0736 0.97229 8.32236 0.97229 8.32236 0.97229ZM10.08 3.35677H14.5079L19.5411 14.7435V3.35677H24.3917L28.2791 11.521L31.8619 3.35677H36.6883V15.4061H33.7515L33.7276 5.96432L29.4461 15.4061H26.8191L22.5136 5.96432V15.4061H16.4721L15.3267 12.7048H9.13878L7.99579 15.4037H4.75881L10.08 3.35677ZM39.3751 3.35677H51.3165L54.9688 7.30193L58.7388 3.35677H62.3911L56.8418 9.41278L62.3911 15.399H58.5731L54.9208 11.408L51.1316 15.399H39.3751V3.35677ZM12.2341 5.39545L10.1954 10.2076H14.2704L12.2341 5.39545ZM42.324 5.8516V8.0512H48.8385V10.5028H42.324V12.9042H49.6309L53.0262 9.36722L49.775 5.84949H42.324V5.8516Z" fill="#0D0D0D"/>
</svg>
