<svg width="12" height="9" viewBox="0 0 12 9" fill="none" xmlns="http://www.w3.org/2000/svg">
<path d="M12 2.153L10.6126 0.765625L6.0541 5.32415L1.49558 0.765625L0.108203 2.153L6.0541 8.0989L12 2.153Z" fill="#8D8D8D"/>
</svg>
