<svg width="74" height="240" viewBox="0 0 74 240" fill="none" xmlns="http://www.w3.org/2000/svg">
<mask id="path-1-inside-1" fill="white">
<path fill-rule="evenodd" clip-rule="evenodd" d="M5.86746e-05 39.8272H0V29.8704C-2.31266e-06 13.3734 13.3734 0 29.8704 0H43.9759C60.4728 -2.64555e-06 73.8463 13.3734 73.8463 29.8704V39.4644H73.8463V199.984V201.262V209.941C73.8463 226.438 60.4729 239.811 43.9759 239.811H29.8705C13.3735 239.811 5.86746e-05 226.438 5.86746e-05 209.941V201.262V199.984V39.8272Z"/>
</mask>
<path d="M0 39.8272H-2V41.8272H0V39.8272ZM5.86746e-05 39.8272H2.00006V37.8272H5.86746e-05V39.8272ZM0 29.8704L2 29.8704L2 29.8704L0 29.8704ZM43.9759 0L43.9759 2L43.9759 2L43.9759 0ZM73.8463 39.4644H71.8463V41.4644H73.8463V39.4644ZM73.8463 39.4644H75.8463V37.4644H73.8463V39.4644ZM0 41.8272H5.86746e-05V37.8272H0V41.8272ZM-2 29.8704V39.8272H2V29.8704H-2ZM29.8704 -2C12.2689 -2 -2 12.2689 -2 29.8704L2 29.8704C2 14.478 14.478 2 29.8704 2V-2ZM43.9759 -2H29.8704V2H43.9759V-2ZM75.8463 29.8704C75.8463 12.2689 61.5774 -2 43.9759 -2L43.9759 2C59.3683 2 71.8463 14.478 71.8463 29.8704H75.8463ZM75.8463 39.4644V29.8704H71.8463V39.4644H75.8463ZM73.8463 41.4644H73.8463V37.4644H73.8463V41.4644ZM71.8463 39.4644V199.984H75.8463V39.4644H71.8463ZM71.8463 199.984V201.262H75.8463V199.984H71.8463ZM75.8463 209.941V201.262H71.8463V209.941H75.8463ZM43.9759 241.811C61.5775 241.811 75.8463 227.542 75.8463 209.941H71.8463C71.8463 225.333 59.3683 237.811 43.9759 237.811V241.811ZM29.8705 241.811H43.9759V237.811H29.8705V241.811ZM-1.99994 209.941C-1.99994 227.542 12.2689 241.811 29.8705 241.811V237.811C14.4781 237.811 2.00006 225.333 2.00006 209.941H-1.99994ZM-1.99994 201.262V209.941H2.00006V201.262H-1.99994ZM2.00006 201.262V199.984H-1.99994V201.262H2.00006ZM2.00006 199.984V39.8272H-1.99994V199.984H2.00006Z" fill="white" mask="url(#path-1-inside-1)"/>
<path d="M25.9961 97.71H53.9291" stroke="#B79B53" stroke-width="2" stroke-linecap="round" stroke-linejoin="round"/>
<path d="M48.5601 92.3408L53.9281 97.7098L48.5601 103.081" stroke="#B79B53" stroke-width="2" stroke-linecap="round" stroke-linejoin="round"/>
<path d="M29.7113 92.3408L24.3413 97.7098L29.7113 103.081" stroke="#B79B53" stroke-width="2" stroke-linecap="round" stroke-linejoin="round"/>
<path d="M30.7698 133.451L28.4563 108.625C28.4446 106.665 30.0385 105.051 31.9975 105.04C33.9585 105.028 35.5715 106.622 35.5832 108.582L37.8232 121.154L45.9931 121.105C47.9221 121.094 49.7833 121.802 51.2161 123.092L53.7086 125.338C55.3233 126.793 56.2528 128.861 56.2658 131.036L56.3101 138.428C56.3374 142.979 52.6705 146.689 48.1186 146.716L34.7499 146.796C32.1029 146.812 29.6015 145.585 27.9949 143.482L21.2668 134.803C19.8725 133.426 19.8589 131.158 21.2366 129.764C22.6143 128.371 24.8822 128.357 26.2765 129.734L30.4637 133.203" stroke="white" stroke-width="2" stroke-linecap="round" stroke-linejoin="round"/>
</svg>
