<svg width="30" height="21" viewBox="0 0 30 21" fill="none" xmlns="http://www.w3.org/2000/svg">
<path d="M1 0.302734C0.447716 0.302734 0 0.75045 0 1.30273V19.1887C0 19.741 0.447715 20.1887 1 20.1887H29C29.5523 20.1887 30 19.741 30 19.1887V1.30274C30 0.750451 29.5523 0.302734 29 0.302734H1ZM15.0002 12.5832L2.69537 1.77779H27.3046L15.0002 12.5832ZM10.0985 10.2422L1.47506 17.8149V2.66949L10.0985 10.2422ZM11.2162 11.2239L14.9998 14.5466L18.7834 11.2239L27.3124 18.7137H2.68764L11.2162 11.2239ZM19.9012 10.2426L28.5249 2.66949V17.8149L19.9012 10.2426Z" fill="#0D0D0D"/>
</svg>
