<svg width="29" height="49" viewBox="0 0 29 49" fill="none" xmlns="http://www.w3.org/2000/svg">
<path d="M24.1488 49L0.000362396 24.8304L24.1488 0.660767L28.5903 5.1062L12.024 21.6871L8.88068 24.8304L12.024 27.9737L28.5903 44.5546L24.1488 49Z" fill="#0D0D0D"/>
</svg>
