<svg width="12" height="12" viewBox="0 0 12 12" fill="none" xmlns="http://www.w3.org/2000/svg">
<circle cx="6" cy="6" r="5.41667" stroke="#0D0D0D" stroke-width="0.833333"/>
<path d="M6.17134 3.0951C5.74372 3.0951 5.47599 3.31821 5.47599 3.68262C5.47599 4.05074 5.74372 4.27385 6.17134 4.27385C6.59153 4.27385 6.86297 4.05074 6.86297 3.68262C6.86297 3.31821 6.59153 3.0951 6.17134 3.0951ZM6.77001 4.97664C6.45023 5.05101 6.0821 5.08447 5.6582 5.08447C5.50574 5.08447 5.34585 5.07332 5.18595 5.05844V5.21834C5.55408 5.21834 5.67307 5.43401 5.67307 5.89138V8.29349C5.67307 8.7174 5.53921 8.84011 5.18595 8.84011V9C5.38675 8.99256 5.84412 8.97025 6.23828 8.97025C6.63615 8.97025 7.06377 8.99256 7.25713 9V8.84011C6.90016 8.84011 6.77001 8.7174 6.77001 8.29349V4.97664Z" fill="#0D0D0D"/>
</svg>
