<svg width="18" height="19" viewBox="0 0 18 19" fill="none" xmlns="http://www.w3.org/2000/svg">
<path fill-rule="evenodd" clip-rule="evenodd" d="M2.74759 15.4805C1.888 14.6499 1.20236 13.6563 0.730681 12.5578C0.259 11.4593 0.0107242 10.2778 0.000339811 9.08223C-0.0100445 7.88669 0.217671 6.70105 0.670199 5.59449C1.12273 4.48793 1.791 3.48262 2.63604 2.63721C3.48107 1.7918 4.48594 1.12322 5.59201 0.670496C6.69808 0.217767 7.88319 -0.010049 9.07821 0.000339962C10.2732 0.0107289 11.4542 0.259115 12.5522 0.731005C13.6503 1.2029 14.6434 1.88884 15.4736 2.74881C17.113 4.44698 18.0202 6.72141 17.9997 9.08223C17.9792 11.443 17.0326 13.7014 15.364 15.3708C13.6953 17.0402 11.438 17.9871 9.07821 18.0076C6.71843 18.0282 4.44501 17.1206 2.74759 15.4805ZM9.00037 15.1051C12.3685 15.1051 15.0998 12.3733 15.0998 9.00245C15.0998 5.6316 12.3685 2.89981 9.00037 2.89981C5.6322 2.89981 2.90092 5.6316 2.90092 9.00245C2.90092 12.3733 5.6322 15.1051 9.00037 15.1051ZM16.2004 9.00245C16.2004 12.9807 12.9768 16.2056 9.00037 16.2056C5.02392 16.2056 1.80037 12.9807 1.80037 9.00245C1.80037 5.02423 5.02392 1.79925 9.00037 1.79925C12.9768 1.79925 16.2004 5.02423 16.2004 9.00245ZM9.3734 4.74765C9.53159 4.58939 9.74614 4.50048 9.96986 4.50048C10.1936 4.50048 10.4081 4.58939 10.5663 4.74765C10.7245 4.90591 10.8134 5.12056 10.8134 5.34437C10.8134 5.56819 10.7245 5.78284 10.5663 5.9411C10.4081 6.09936 10.1936 6.18827 9.96986 6.18827C9.74614 6.18827 9.53159 6.09936 9.3734 5.9411C9.21521 5.78284 9.12634 5.56819 9.12634 5.34437C9.12634 5.12056 9.21521 4.90591 9.3734 4.74765ZM7.27059 8.69744C7.27059 8.69744 9.09822 7.24032 9.76741 7.18406C10.3904 7.13033 10.2645 7.84626 10.1981 8.22441C10.195 8.24223 10.192 8.2593 10.1892 8.2755C10.0748 8.73476 9.93201 9.25724 9.79151 9.77123C9.46902 10.9509 9.15876 12.0859 9.23318 12.3093C9.31256 12.5922 9.84276 12.2314 10.2175 11.9764C10.2676 11.9424 10.3148 11.9102 10.3579 11.8817C10.3579 11.8817 10.4254 11.8142 10.4928 11.9099C10.5097 11.9347 10.5264 11.9573 10.5418 11.9781C10.6136 12.0749 10.6566 12.1329 10.5547 12.2024C10.5483 12.2068 10.5377 12.2141 10.5235 12.2239C10.3384 12.3514 9.53526 12.9044 9.22194 13.1082C8.8789 13.3332 7.55177 14.0927 7.75421 12.6187C7.9327 11.5807 8.1707 10.6898 8.3544 10.0022C8.6974 8.7183 8.85111 8.14292 8.07475 8.64118C7.76546 8.83247 7.57988 8.95061 7.46741 9.02375C7.37194 9.08911 7.37076 9.08708 7.30738 8.9775C7.29984 8.96446 7.29141 8.94989 7.28184 8.93373C7.26528 8.90474 7.25063 8.88128 7.23844 8.86176C7.1844 8.77523 7.17882 8.7663 7.27059 8.69744Z" fill="#8D8D8D"/>
</svg>
