<svg width="18" height="18" viewBox="0 0 18 18" fill="none" xmlns="http://www.w3.org/2000/svg">
<circle cx="8.59091" cy="8.59091" r="8.59091" fill="#8D8D8D"/>
<path d="M9.77843 2.45459C9.49083 2.45459 9.21501 2.56884 9.01165 2.7722C8.80828 2.97557 8.69403 3.25139 8.69403 3.53899C8.69403 3.82659 8.80828 4.10241 9.01165 4.30578C9.21501 4.50914 9.49083 4.62339 9.77843 4.62339C10.066 4.62339 10.3419 4.50914 10.5452 4.30578C10.7486 4.10241 10.8628 3.82659 10.8628 3.53899C10.8628 3.25139 10.7486 2.97557 10.5452 2.7722C10.3419 2.56884 10.066 2.45459 9.77843 2.45459ZM9.51818 5.90299C8.65789 5.97528 6.30835 7.84768 6.30835 7.84768C6.16376 7.95612 6.20714 7.94889 6.32281 8.15131C6.43848 8.34651 6.42402 8.36096 6.56138 8.26698C6.70596 8.173 6.94453 8.02118 7.34215 7.77539C8.87477 6.7922 7.58794 9.06221 6.93007 12.8865C6.66982 14.7806 8.37594 13.8047 8.81693 13.5155C9.25069 13.2335 10.4146 12.4311 10.5303 12.3516C10.6893 12.2431 10.5737 12.1564 10.4508 11.9756C10.364 11.8527 10.2773 11.9395 10.2773 11.9395C9.80735 12.2504 8.94706 12.901 8.83139 12.4889C8.69403 12.0768 9.57601 9.25017 10.0604 7.30548C10.1399 6.8428 10.3568 5.83069 9.51818 5.90299Z" fill="white"/>
</svg>
