<svg width="20" height="20" viewBox="0 0 20 20" fill="none" xmlns="http://www.w3.org/2000/svg">
<rect y="11.4282" width="8.57207" height="8.57151" fill="#8D8D8D"/>
<rect x="11.4258" y="11.4282" width="8.57207" height="8.57151" fill="#8D8D8D"/>
<rect x="11.4258" width="8.57207" height="8.57151" fill="#8D8D8D"/>
<rect width="8.57207" height="8.57151" fill="#8D8D8D"/>
</svg>
