<svg width="19" height="21" viewBox="0 0 19 21" fill="none" xmlns="http://www.w3.org/2000/svg">
<path d="M18.0204 11.2708C18.4163 10.6728 18.614 10.0145 18.614 9.29546C18.614 8.46322 18.3073 7.74036 17.6935 7.12574C17.0793 6.51176 16.3521 6.20483 15.512 6.20483H13.379C13.7667 5.40506 13.9609 4.62935 13.9609 3.8781C13.9609 2.93278 13.8192 2.18148 13.5366 1.62399C13.2538 1.06633 12.8417 0.656431 12.3004 0.393731C11.7589 0.131159 11.1491 0 10.4705 0C10.0582 0 9.6948 0.149453 9.37972 0.448487C9.03238 0.787759 8.78191 1.22415 8.62846 1.7574C8.47494 2.29048 8.35167 2.80158 8.25884 3.29039C8.16601 3.77916 8.02246 4.12454 7.82865 4.3265C7.43267 4.7547 7.00048 5.2719 6.53188 5.87778C5.71589 6.93605 5.16239 7.56226 4.87168 7.75624H1.5512C1.123 7.75624 0.757368 7.90794 0.454387 8.21067C0.151533 8.51369 0 8.87928 0 9.30752V17.0634C0 17.4917 0.151363 17.8571 0.454387 18.1601C0.757537 18.4632 1.123 18.6148 1.5512 18.6148H5.04117C5.21893 18.6148 5.77629 18.7763 6.7135 19.0995C7.7073 19.447 8.58186 19.7115 9.33719 19.8933C10.0926 20.0752 10.8581 20.1661 11.6338 20.1661H12.7605H13.197C14.3361 20.1661 15.253 19.8408 15.9479 19.1903C16.6426 18.5399 16.9861 17.6532 16.9781 16.5302C17.4628 15.9081 17.7052 15.189 17.7052 14.3731C17.7052 14.1955 17.6932 14.0218 17.6689 13.852C17.9758 13.3109 18.1296 12.7291 18.1296 12.107C18.1295 11.8161 18.0932 11.5373 18.0204 11.2708ZM16.8028 10.2898C16.6291 10.6613 16.4129 10.8512 16.1544 10.8592C16.2756 10.9966 16.3766 11.1886 16.4575 11.4348C16.5382 11.6813 16.5783 11.9054 16.5783 12.1075C16.5783 12.6647 16.3645 13.1455 15.9363 13.5494C16.0818 13.8078 16.1545 14.0867 16.1545 14.3854C16.1545 14.6844 16.0839 14.9813 15.9424 15.2761C15.8012 15.5707 15.6092 15.7829 15.3669 15.9121C15.4073 16.1544 15.4273 16.3807 15.4273 16.5907C15.4273 17.9398 14.6516 18.6144 13.1003 18.6144H11.6343C10.5757 18.6144 9.1944 18.3197 7.48955 17.7298C7.4491 17.7137 7.33211 17.6711 7.13809 17.6026C6.94407 17.534 6.80073 17.4835 6.70777 17.4512C6.61482 17.4187 6.47356 17.3723 6.28357 17.3118C6.09362 17.2511 5.9403 17.2066 5.82307 17.1784C5.706 17.1503 5.57259 17.124 5.42327 17.0997C5.27386 17.0755 5.14656 17.0634 5.04155 17.0634H4.65376V9.30782H5.04155C5.1708 9.30782 5.31418 9.27135 5.47174 9.19881C5.62926 9.12606 5.79094 9.01702 5.95652 8.87155C6.12219 8.72609 6.27758 8.58271 6.42309 8.44123C6.56855 8.29989 6.7301 8.12217 6.90791 7.90815C7.08563 7.69397 7.22498 7.52236 7.32604 7.39307C7.42698 7.26382 7.55419 7.09811 7.70772 6.89615C7.86116 6.69423 7.95416 6.57301 7.98647 6.53256C8.43075 5.98326 8.7418 5.61567 8.91952 5.42976C9.25077 5.08247 9.4911 4.64013 9.64055 4.10285C9.79017 3.56548 9.91335 3.0585 10.01 2.58192C10.1068 2.10529 10.2605 1.76181 10.4708 1.55175C11.2462 1.55175 11.7635 1.74153 12.0219 2.12129C12.2803 2.50097 12.4096 3.08677 12.4096 3.87852C12.4096 4.35515 12.2156 5.00347 11.8277 5.82345C11.44 6.64351 11.2462 7.28784 11.2462 7.75641H15.5119C15.9163 7.75641 16.2756 7.91185 16.5906 8.22306C16.9058 8.53406 17.0635 8.89554 17.0635 9.30769C17.0634 9.59042 16.9765 9.91768 16.8028 10.2898Z" fill="#C4C4C4"/>
</svg>
