<svg width="27" height="27" viewBox="0 0 27 27" fill="none" xmlns="http://www.w3.org/2000/svg">
<circle cx="13.1837" cy="13.4663" r="13.1837" fill="#B79B53"/>
<path d="M19.6375 11.5727C19.1018 8.52908 16.9354 5.07342 13.362 5.07342C10.4067 5.07342 8.34626 7.53418 7.48676 10.0244C6.6096 12.5617 6.75088 15.5876 7.95183 18.0071C9.16455 20.4561 11.6077 22.4283 14.557 21.7042C16.0229 21.345 16.9766 20.5915 17.8773 19.4377C18.4071 18.7607 18.831 18.0601 19.1077 17.2359C19.1194 17.2006 19.1253 17.1712 19.1371 17.1359C19.1489 17.0652 19.1548 16.9946 19.1548 16.9239C19.1489 16.7767 19.1077 16.6531 19.0311 16.5295C18.8545 16.2528 18.6603 16.141 18.3306 16.141C16.8471 16.141 15.3694 16.141 13.8859 16.141C13.8859 16.0939 13.8859 16.0409 13.8859 15.9938C14.1979 15.9938 14.5099 15.9938 14.8278 15.9938C14.8278 13.9157 14.8278 11.8376 14.8278 9.75946C14.5924 9.88897 14.3628 10.0185 14.1273 10.1539C13.8977 10.2834 13.6681 10.4188 13.4385 10.5483C13.4091 10.5012 13.3796 10.4541 13.3561 10.4129C13.5798 10.2834 13.8094 10.148 14.0331 10.0185C14.6394 9.67115 15.1869 9.27672 15.6932 8.79988C15.8345 8.79988 15.9758 8.79988 16.1171 8.79988C16.1171 11.2018 16.1171 13.5978 16.1171 15.9997C18.0362 15.9997 19.9495 15.9997 21.8687 15.9997C20.5912 19.9852 16.6057 22.3576 12.526 21.9867C8.44045 21.6217 4.95535 18.5311 4.50794 14.3631C4.06053 10.1657 6.82153 6.44508 10.7894 5.29712C14.7278 4.16093 19.0782 5.75042 21.1505 9.35325C20.6501 10.095 20.1438 10.8368 19.6375 11.5727Z" fill="white"/>
<path d="M13.2321 16.1468C11.9134 16.1468 10.6006 16.1468 9.28198 16.1468C10.0532 15.0048 10.8185 13.8686 11.5897 12.7265C13.3616 9.90074 10.0532 8.91173 9.45859 10.7779C9.40561 10.7661 9.35263 10.7485 9.30553 10.7367C9.48214 8.77633 11.2659 8.79988 11.2659 8.79988C12.2961 8.79988 13.0261 9.58285 13.0261 10.5189C13.0261 11.2018 12.5904 11.8199 11.778 12.8678C11.2718 13.5271 10.2533 15.0342 10.2533 15.0342C11.2482 15.0342 12.2372 15.0342 13.2321 15.0342C13.2321 15.4051 13.2321 15.776 13.2321 16.1468Z" fill="white"/>
</svg>
