<svg width="42" height="42" viewBox="0 0 42 42" fill="none" xmlns="http://www.w3.org/2000/svg">
<path d="M40.4553 13.1941C41.762 6.66106 41.7771 1.4902 41.7771 1.27325C41.7771 0.954084 41.6504 0.647777 41.4243 0.422044C41.1986 0.196311 40.8926 0.0693359 40.5731 0.0693359C40.3562 0.0693359 35.1853 0.0843848 28.6522 1.39113C26.3247 1.85639 24.1194 2.4295 22.0552 3.10168C22.0411 3.10576 22.0276 3.11046 22.0138 3.11517C20.6776 3.55158 19.4003 4.0297 18.1898 4.54826C16.7094 5.18282 15.3255 5.87914 14.0426 6.63378C14.0037 6.65447 13.9658 6.67705 13.9294 6.70181C11.8712 7.92359 10.0744 9.29649 8.56262 10.8083C5.56068 13.8102 3.9075 17.801 3.9075 22.046C3.9075 25.8872 5.26127 29.5203 7.74277 32.4009L1.0363 39.1077C0.566024 39.578 0.566024 40.3401 1.0363 40.8101C1.27144 41.0452 1.57932 41.1628 1.8875 41.1628C2.19569 41.1628 2.50388 41.0452 2.73871 40.8101L9.44549 34.1036C12.3258 36.5848 15.9588 37.9386 19.8001 37.9386C24.0454 37.9386 28.0362 36.2857 31.0381 33.2841C32.5502 31.772 33.9228 29.9749 35.1446 27.9167C35.1693 27.8803 35.1919 27.8423 35.2126 27.8035C35.9672 26.5202 36.6636 25.1367 37.2978 23.6566C37.8173 22.4445 38.2957 21.166 38.7328 19.8282C38.7366 19.8169 38.7403 19.8053 38.7438 19.794C39.4163 17.7289 39.9897 15.5226 40.4553 13.1941ZM29.078 3.76133C33.5513 2.86341 37.4355 2.59316 39.3344 2.51196C39.2532 4.41125 38.983 8.29543 38.0851 12.7684C37.7477 14.4488 37.2978 16.3162 36.7031 18.2456L25.3029 18.2459L32.3063 11.2428C32.7763 10.7725 32.7763 10.0101 32.3063 9.54009C31.836 9.06982 31.0739 9.06982 30.6036 9.54009L23.6008 16.5431V5.14331C25.5302 4.54857 27.3975 4.09867 29.078 3.76133ZM33.4444 26.0355H17.5133L22.8951 20.6537L35.8914 20.6534C35.2226 22.4708 34.4166 24.298 33.4444 26.0355ZM21.193 5.95501V18.9507L15.8108 24.3325L15.8105 8.40202C17.5484 7.4298 19.3752 6.62375 21.193 5.95501ZM6.31532 22.046C6.31532 18.4443 7.718 15.058 10.265 12.511C11.2247 11.5513 12.2816 10.6854 13.4027 9.90409L13.4033 26.7403L9.45176 30.6922C7.42141 28.2709 6.31532 25.2436 6.31532 22.046ZM29.3357 31.5817C26.7887 34.1284 23.4021 35.5308 19.8001 35.5308C16.6028 35.5308 13.5755 34.4247 11.1542 32.3946L15.1054 28.4434H31.9426C31.1613 29.5648 30.2954 30.6217 29.3357 31.5817Z" fill="white"/>
</svg>
