<svg width="49" height="49" viewBox="0 0 49 49" fill="none" xmlns="http://www.w3.org/2000/svg">
<circle opacity="0.8" cx="24.5" cy="24.5" r="24.5" fill="#0D0D0D"/>
<path d="M21.2036 11L18 14.2036L28.5261 24.7297L18 35.2558L21.2036 38.4594L34.9333 24.7297L21.2036 11Z" fill="white"/>
</svg>
