<svg width="13" height="21" viewBox="0 0 13 21" fill="none" xmlns="http://www.w3.org/2000/svg">
<path opacity="0.5" d="M3.73715 1.22342C3.06147 0.547742 1.96599 0.547743 1.29031 1.22342C0.614637 1.89909 0.614638 2.99458 1.29031 3.67025L8.1065 10.4864L1.29031 17.3026C0.614636 17.9783 0.614637 19.0738 1.29031 19.7495C1.96599 20.4251 3.06147 20.4251 3.73715 19.7495L11.5523 11.9344C12.3519 11.1347 12.3519 9.83818 11.5523 9.03852L3.73715 1.22342Z" fill="white"/>
</svg>
