<svg width="8" height="5" viewBox="0 0 8 5" fill="none" xmlns="http://www.w3.org/2000/svg">
<path d="M5.05844 0.379883L7.49764 2.68994L5.05844 5L4.6098 4.57512L6.28315 2.99037L0.641113 2.99037L0.641113 2.38951L6.28315 2.38951L4.6098 0.804764L5.05844 0.379883Z" fill="white"/>
</svg>
