<svg width="39" height="29" viewBox="0 0 39 29" fill="none" xmlns="http://www.w3.org/2000/svg">
<path d="M8.95078 0.799994C12.2174 0.799994 14.5841 1.96666 16.0508 4.3C16.7174 5.3 17.2508 6.53333 17.6508 8C18.0508 9.46666 18.2508 11 18.2508 12.6C18.2508 16.0667 17.3508 19.2 15.5508 22C13.8174 24.8 11.2174 27 7.75078 28.6L6.85078 26.8C8.78412 26 10.4508 24.7667 11.8508 23.1C13.3174 21.4333 14.1841 19.7333 14.4508 18C14.6508 17.2 14.7508 16.4333 14.7508 15.7C14.7508 15.0333 14.6508 14.4 14.4508 13.8C12.9841 15.4 11.0508 16.2 8.65078 16.2C6.31745 16.2 4.41745 15.5333 2.95078 14.2C1.48411 12.8 0.750781 10.9 0.750781 8.5C0.750781 6.23333 1.51745 4.4 3.05078 3C4.58411 1.53333 6.55078 0.799994 8.95078 0.799994ZM29.5508 0.799994C32.8174 0.799994 35.1841 1.96666 36.6508 4.3C37.3175 5.3 37.8508 6.53333 38.2508 8C38.6508 9.46666 38.8508 11 38.8508 12.6C38.8508 16.0667 37.9508 19.2 36.1508 22C34.4174 24.8 31.8174 27 28.3508 28.6L27.4508 26.8C29.3841 26 31.0508 24.7667 32.4508 23.1C33.9174 21.4333 34.7841 19.7333 35.0508 18C35.2508 17.2 35.3508 16.4333 35.3508 15.7C35.3508 15.0333 35.2508 14.4 35.0508 13.8C33.5841 15.4 31.6508 16.2 29.2508 16.2C26.9174 16.2 25.0174 15.5333 23.5508 14.2C22.0841 12.8 21.3508 10.9 21.3508 8.5C21.3508 6.23333 22.1174 4.4 23.6508 3C25.1841 1.53333 27.1508 0.799994 29.5508 0.799994Z" fill="#B79B53"/>
</svg>
