<svg width="11" height="19" viewBox="0 0 11 19" fill="none" xmlns="http://www.w3.org/2000/svg">
<path d="M1.44531 18L9.88867 9.55664L1.44531 1.11328" stroke="black" stroke-width="0.942926" stroke-linecap="round" stroke-linejoin="round"/>
</svg>
