<svg width="11" height="16" viewBox="0 0 11 16" fill="none" xmlns="http://www.w3.org/2000/svg">
<path d="M3.00176 0.82009C2.47698 0.35264 1.68519 0.352639 1.1604 0.82009C0.542372 1.37059 0.542373 2.33682 1.1604 2.88732L6.83784 7.94444L1.1604 13.0016C0.542373 13.5521 0.542372 14.5183 1.1604 15.0688C1.68519 15.5362 2.47698 15.5362 3.00176 15.0688L9.38829 9.38006C10.2467 8.61545 10.2467 7.27343 9.38829 6.50883L3.00176 0.82009Z" fill="white"/>
</svg>
