<svg width="14" height="15" viewBox="0 0 14 15" fill="none" xmlns="http://www.w3.org/2000/svg">
<rect y="5.5293" width="13.2353" height="4.0724" fill="white"/>
<rect x="8.6543" y="0.947998" width="13.2353" height="4.0724" transform="rotate(90 8.6543 0.947998)" fill="white"/>
</svg>
