<svg width="21" height="16" viewBox="0 0 21 16" fill="none" xmlns="http://www.w3.org/2000/svg">
<path d="M7.30959 15.4313L7.63812e-05 8.12213L7.30959 0.812988L8.654 2.15733L3.63951 7.17157L20.5469 7.17157L20.5469 9.0727L3.63952 9.0727L8.654 14.0869L7.30959 15.4313Z" fill="#0D0D0D"/>
</svg>
