<svg width="39" height="29" viewBox="0 0 39 29" fill="none" xmlns="http://www.w3.org/2000/svg">
<path d="M30.1066 28.1C26.84 28.1 24.4733 26.9333 23.0066 24.6C22.34 23.6 21.8066 22.3667 21.4066 20.9C21.0066 19.4333 20.8066 17.9 20.8066 16.3C20.8066 12.8333 21.6733 9.7 23.4066 6.9C25.2066 4.1 27.84 1.9 31.3066 0.299994L32.2066 2.09999C30.2733 2.9 28.5733 4.13333 27.1066 5.79999C25.7066 7.46666 24.8733 9.16666 24.6066 10.9C24.4066 11.7 24.3066 12.4667 24.3066 13.2C24.3066 13.8667 24.4066 14.5 24.6066 15.1C26.0733 13.5 28.0066 12.7 30.4066 12.7C32.74 12.7 34.64 13.4 36.1066 14.8C37.5733 16.1333 38.3066 18 38.3066 20.4C38.3066 22.6667 37.54 24.5333 36.0066 26C34.4733 27.4 32.5066 28.1 30.1066 28.1ZM9.50664 28.1C6.23997 28.1 3.87331 26.9333 2.40664 24.6C1.73997 23.6 1.20664 22.3667 0.806641 20.9C0.406641 19.4333 0.206641 17.9 0.206641 16.3C0.206641 12.8333 1.07331 9.7 2.80664 6.9C4.60664 4.1 7.23997 1.9 10.7066 0.299994L11.6066 2.09999C9.67331 2.9 7.97331 4.13333 6.50664 5.79999C5.10664 7.46666 4.27331 9.16666 4.00664 10.9C3.80664 11.7 3.70664 12.4667 3.70664 13.2C3.70664 13.8667 3.80664 14.5 4.00664 15.1C5.47331 13.5 7.40664 12.7 9.80664 12.7C12.14 12.7 14.04 13.4 15.5066 14.8C16.9733 16.1333 17.7066 18 17.7066 20.4C17.7066 22.6667 16.94 24.5333 15.4066 26C13.8733 27.4 11.9066 28.1 9.50664 28.1Z" fill="#B79B53"/>
</svg>
