<svg width="38" height="38" viewBox="0 0 38 38" fill="none" xmlns="http://www.w3.org/2000/svg">
<path d="M0.0361328 18.6343C0.0361328 26.2281 4.60247 32.7517 11.1367 35.6199C11.0846 34.325 11.1274 32.7704 11.4595 31.3615C11.8161 29.856 13.8457 21.2563 13.8457 21.2563C13.8457 21.2563 13.2533 20.0722 13.2533 18.3222C13.2533 15.574 14.8461 13.5215 16.8298 13.5215C18.5166 13.5215 19.3316 14.7885 19.3316 16.3056C19.3316 18.0013 18.25 20.5377 17.6938 22.887C17.2292 24.8542 18.6802 26.4587 20.6209 26.4587C24.1345 26.4587 26.501 21.9458 26.501 16.5989C26.501 12.5344 23.7634 9.49222 18.7844 9.49222C13.1589 9.49222 9.65444 13.6874 9.65444 18.3734C9.65444 19.9891 10.1308 21.1284 10.8769 22.0107C11.22 22.416 11.2677 22.579 11.1435 23.0443C11.0546 23.3855 10.8503 24.207 10.7657 24.5325C10.6422 25.0022 10.2616 25.1701 9.83713 24.9967C7.24609 23.939 6.03939 21.1015 6.03939 17.9118C6.03939 12.6438 10.4823 6.32703 19.2933 6.32703C26.3736 6.32703 31.0337 11.4506 31.0337 16.9504C31.0337 24.2252 26.9892 29.6601 21.0274 29.6601C19.0253 29.6601 17.142 28.5779 16.4968 27.3486C16.4968 27.3486 15.4202 31.6214 15.1922 32.4465C14.799 33.8763 14.0294 35.3054 13.3257 36.4192C15.032 36.9237 16.8022 37.1799 18.5815 37.1797C28.8222 37.1797 37.1256 28.8768 37.1256 18.6343C37.1256 8.39229 28.8222 0.0893555 18.5815 0.0893555C8.3398 0.0893555 0.0361328 8.39229 0.0361328 18.6343Z" fill="#CB1F27"/>
</svg>
