<svg width="66" height="17" viewBox="0 0 66 17" fill="none" xmlns="http://www.w3.org/2000/svg">
<path d="M51.0192 4.40039H47.4573C47.2477 4.40039 47.0382 4.60991 46.9335 4.81944L45.4668 14.0385C45.4668 14.248 45.5716 14.3527 45.7811 14.3527H47.6668C47.8763 14.3527 47.9811 14.248 47.9811 14.0385L48.4001 11.4194C48.4001 11.2099 48.6096 11.0004 48.9239 11.0004H50.0763C52.4858 11.0004 53.8477 9.848 54.162 7.54324C54.3715 6.60039 54.162 5.76229 53.743 5.23849C53.1144 4.71468 52.1715 4.40039 51.0192 4.40039ZM51.4382 7.85753C51.2287 9.11467 50.2858 9.11467 49.343 9.11467H48.7144L49.1335 6.70515C49.1335 6.60039 49.2382 6.49562 49.4477 6.49562H49.6573C50.2858 6.49562 50.9144 6.49562 51.2287 6.91467C51.4382 7.01943 51.4382 7.33372 51.4382 7.85753Z" fill="#139AD6"/>
<path d="M25.3522 4.40039H21.7903C21.5808 4.40039 21.3712 4.60991 21.2665 4.81944L19.7998 14.0385C19.7998 14.248 19.9046 14.3527 20.1141 14.3527H21.7903C21.9998 14.3527 22.2093 14.1432 22.3141 13.9337L22.7331 11.4194C22.7331 11.2099 22.9427 11.0004 23.2569 11.0004H24.4093C26.8188 11.0004 28.1807 9.848 28.495 7.54324C28.7045 6.60039 28.495 5.76229 28.076 5.23849C27.4474 4.71468 26.6093 4.40039 25.3522 4.40039ZM25.7712 7.85753C25.5617 9.11467 24.6188 9.11467 23.676 9.11467H23.1522L23.5712 6.70515C23.5712 6.60039 23.676 6.49562 23.8855 6.49562H24.095C24.7236 6.49562 25.3522 6.49562 25.6665 6.91467C25.7712 7.01943 25.876 7.33372 25.7712 7.85753Z" fill="#263B80"/>
<path d="M36.1425 7.75249H34.4663C34.3616 7.75249 34.1521 7.85725 34.1521 7.96201L34.0473 8.48582L33.9425 8.2763C33.5235 7.75249 32.7902 7.54297 31.9521 7.54297C30.0664 7.54297 28.3902 9.00963 28.0759 11.0001C27.8664 12.0477 28.1806 12.9906 28.7045 13.6191C29.2283 14.2477 29.9616 14.4572 30.9044 14.4572C32.4759 14.4572 33.314 13.5144 33.314 13.5144L33.2092 14.0382C33.2092 14.2477 33.314 14.3525 33.5235 14.3525H35.0949C35.3044 14.3525 35.514 14.143 35.6187 13.9334L36.5616 8.06678C36.4568 7.96202 36.2473 7.75249 36.1425 7.75249ZM33.733 11.1049C33.5235 12.0477 32.7902 12.7811 31.7425 12.7811C31.2187 12.7811 30.7997 12.5715 30.5902 12.362C30.3806 12.0477 30.2759 11.6287 30.2759 11.1049C30.3806 10.162 31.2187 9.42868 32.1616 9.42868C32.6854 9.42868 32.9997 9.6382 33.314 9.84772C33.6283 10.162 33.733 10.6858 33.733 11.1049Z" fill="#263B80"/>
<path d="M61.7045 7.75249H60.0284C59.9236 7.75249 59.7141 7.85725 59.7141 7.96201L59.6093 8.48582L59.5045 8.2763C59.0855 7.75249 58.3522 7.54297 57.5141 7.54297C55.6284 7.54297 53.9522 9.00963 53.6379 11.0001C53.4284 12.0477 53.7427 12.9906 54.2665 13.6191C54.7903 14.2477 55.5236 14.4572 56.4665 14.4572C58.0379 14.4572 58.876 13.5144 58.876 13.5144L58.7712 14.0382C58.7712 14.2477 58.876 14.3525 59.0855 14.3525H60.6569C60.8664 14.3525 61.076 14.143 61.1807 13.9334L62.1236 8.06678C62.0188 7.96202 61.9141 7.75249 61.7045 7.75249ZM59.295 11.1049C59.0855 12.0477 58.3522 12.7811 57.3046 12.7811C56.7807 12.7811 56.3617 12.5715 56.1522 12.362C55.9426 12.0477 55.8379 11.6287 55.8379 11.1049C55.9426 10.162 56.7807 9.42868 57.7236 9.42868C58.2474 9.42868 58.5617 9.6382 58.876 9.84772C59.295 10.162 59.3998 10.6858 59.295 11.1049Z" fill="#139AD6"/>
<path d="M45.2571 7.75195H43.4761C43.2666 7.75195 43.1618 7.85671 43.0571 7.96148L40.7523 11.5234L39.7047 8.171C39.5999 7.96148 39.4952 7.85672 39.1809 7.85672H37.5047C37.2952 7.85672 37.1904 8.06624 37.1904 8.27576L39.0761 13.8281L37.2952 16.3424C37.1904 16.5519 37.2952 16.8662 37.5047 16.8662H39.1809C39.3904 16.8662 39.4952 16.7615 39.5999 16.6567L45.3618 8.38052C45.6761 8.06624 45.4666 7.75195 45.2571 7.75195Z" fill="#263B80"/>
<path d="M63.6952 4.71449L62.2285 14.143C62.2285 14.3526 62.3333 14.4573 62.5428 14.4573H64.0095C64.219 14.4573 64.4285 14.2478 64.5333 14.0383L65.9999 4.81925C65.9999 4.60973 65.8952 4.50497 65.6856 4.50497H64.0095C63.9047 4.4002 63.7999 4.50497 63.6952 4.71449Z" fill="#139AD6"/>
<path d="M12.0476 1.25714C11.3143 0.419045 9.95236 0 8.06665 0H2.82856C2.51428 0 2.19999 0.314283 2.09523 0.628568L0 14.3523C0 14.6666 0.209523 14.8762 0.419047 14.8762H3.66666L4.50475 9.74283V9.95236C4.60951 9.63807 4.9238 9.32378 5.23808 9.32378H6.80951C9.8476 9.32378 12.1524 8.06665 12.8857 4.60951C12.8857 4.50475 12.8857 4.39999 12.8857 4.29523C12.7809 4.29523 12.7809 4.29523 12.8857 4.29523C12.9904 2.93332 12.7809 2.09523 12.0476 1.25714Z" fill="#263B80"/>
<path d="M12.7811 4.29492C12.7811 4.39968 12.7811 4.50445 12.7811 4.60921C12.0478 8.1711 9.743 9.32348 6.70491 9.32348H5.13349C4.8192 9.32348 4.50492 9.63777 4.40016 9.95205L3.35254 16.3425C3.35254 16.552 3.4573 16.7616 3.77159 16.7616H6.49539C6.80967 16.7616 7.12396 16.552 7.12396 16.2378V16.133L7.64777 12.8854V12.6759C7.64777 12.3616 7.96205 12.152 8.27634 12.152H8.69538C11.3144 12.152 13.4097 11.1044 13.9335 7.96158C14.143 6.70444 14.0382 5.55206 13.4097 4.81873C13.3049 4.60921 13.0954 4.39968 12.7811 4.29492Z" fill="#139AD6"/>
<path d="M12.0477 3.98128C11.943 3.98128 11.8382 3.87651 11.7334 3.87651C11.6287 3.87651 11.5239 3.87651 11.4192 3.77175C11.0001 3.66699 10.5811 3.66699 10.0573 3.66699H5.97155C5.86678 3.66699 5.76202 3.66699 5.65726 3.77175C5.44774 3.87651 5.34298 4.08604 5.34298 4.29556L4.50488 9.74317V9.95269C4.60964 9.63841 4.92393 9.32412 5.23821 9.32412H6.80964C9.84773 9.32412 12.1525 8.06698 12.8858 4.60985C12.8858 4.50508 12.8858 4.40032 12.9906 4.29556C12.7811 4.1908 12.6763 4.08604 12.4668 4.08604C12.1525 3.98128 12.1525 3.98128 12.0477 3.98128Z" fill="#232C65"/>
</svg>
