<svg width="34" height="42" viewBox="0 0 34 42" fill="none" xmlns="http://www.w3.org/2000/svg">
<path d="M32.2653 9.19938C34.282 7.16513 34.282 3.85529 32.2653 1.82104C30.2485 -0.213133 26.9671 -0.213133 24.9503 1.82104L21.6867 5.11289C20.9111 5.89524 19.649 5.89524 18.8733 5.11289L18.4233 4.65883C18.423 4.65859 18.4227 4.65835 18.4225 4.65811L17.973 4.20477C16.8871 3.10946 15.1202 3.1093 14.0342 4.20477L11.3333 6.92906C10.8073 7.45962 10.5175 8.16516 10.5175 8.91556C10.5175 9.66596 10.8073 10.3715 11.3333 10.9021L14.6532 14.2507L3.62421 25.3749C2.30769 26.7028 2.2332 28.8157 3.39948 30.2333C3.09096 30.7568 2.66936 31.4919 2.24418 32.2944C0.691324 35.2255 0.511719 36.3691 0.511719 36.9743C0.511719 39.4085 2.47512 41.3889 4.88844 41.3889C7.30177 41.3889 9.26516 39.4085 9.26516 36.9743C9.26516 36.3691 9.08556 35.2255 7.5327 32.2944C7.37267 31.9923 7.21328 31.7001 7.06009 31.4249C7.67068 31.2654 8.23067 30.9446 8.68839 30.4829L19.7172 19.3587L23.2059 22.8776C23.7489 23.4253 24.4621 23.6991 25.1753 23.6991C25.8886 23.6991 26.6018 23.4253 27.1448 22.8776L29.8456 20.1533C30.9315 19.058 30.9315 17.2757 29.8456 16.1803L29.0016 15.329C28.6259 14.95 28.419 14.4461 28.419 13.9101C28.419 13.3741 28.626 12.8702 29.0016 12.4912L32.2653 9.19938ZM4.88852 38.981C3.79156 38.981 2.8991 38.0808 2.8991 36.9743C2.8991 36.4243 3.63837 34.6491 4.88868 32.427C6.13875 34.6482 6.87794 36.4236 6.87794 36.9743C6.87794 38.0808 5.98549 38.981 4.88852 38.981ZM7.00041 28.7803C6.53497 29.2497 5.77787 29.2499 5.31227 28.7803H5.31235C4.8469 28.3109 4.8469 27.547 5.31227 27.0776L16.3411 15.9533L18.0292 17.656L7.00041 28.7803ZM28.1576 18.4506L25.4568 21.1749C25.3017 21.3314 25.0491 21.3314 24.894 21.1749L23.1779 19.4439L24.247 18.3656C24.7132 17.8954 24.7132 17.1331 24.247 16.6629C23.781 16.1928 23.0252 16.1927 22.5589 16.6629L21.4897 17.7413L19.8016 16.0386L20.8707 14.9602C21.3369 14.49 21.3369 13.7277 20.8707 13.2575C20.4046 12.7873 19.6488 12.7873 19.1827 13.2575L18.1135 14.3359L17.1851 13.3994C17.185 13.3994 17.185 13.3994 17.185 13.3993L16.4254 12.6332L17.4945 11.5549C17.9607 11.0847 17.9607 10.3224 17.4945 9.85218C17.0284 9.38206 16.2726 9.38198 15.8065 9.85218L14.7373 10.9305L13.0211 9.19946C12.9197 9.0972 12.9046 8.97777 12.9046 8.91572C12.9046 8.85367 12.9196 8.73424 13.0211 8.6319L15.722 5.9076C15.7996 5.82934 15.9015 5.79026 16.0033 5.79026C16.1053 5.79026 16.2072 5.82934 16.2847 5.9076L16.7348 6.36159L17.185 6.81565L27.3134 17.0318L28.1574 17.8831C28.3127 18.0395 28.3127 18.2942 28.1576 18.4506ZM27.3137 10.7885C26.8163 11.2901 26.4545 11.8916 26.2443 12.5477L21.6284 7.89185C22.2674 7.6842 22.8683 7.3263 23.3747 6.81549L26.6384 3.52363C27.7243 2.42825 29.4914 2.42833 30.5773 3.52363C31.6632 4.61894 31.6632 6.40132 30.5773 7.49662L27.3137 10.7885Z" fill="white"/>
</svg>
