<svg width="11" height="11" viewBox="0 0 11 11" fill="none" xmlns="http://www.w3.org/2000/svg">
<path d="M9.05882 0.00195312L11 1.94313L9.90719 3.03594L7.96601 1.09476L9.05882 0.00195312ZM0.0143791 9.0464L7.11765 1.94313L9.05882 3.88431L1.95556 10.9732L0 10.9876L0.0143791 9.0464Z" fill="#0D0D0D"/>
</svg>
