<svg width="42" height="42" viewBox="0 0 42 42" fill="none" xmlns="http://www.w3.org/2000/svg">
<path d="M27.4841 16.6276C27.1709 16.4497 26.9686 16.0618 26.9686 15.6395L26.9685 7.31368C28.3702 6.81668 29.3767 5.47754 29.3767 3.90772C29.3768 1.91588 27.7563 0.29541 25.7645 0.29541H16.1317C14.14 0.29541 12.5195 1.91588 12.5195 3.90764C12.5195 5.47746 13.526 6.81668 14.9277 7.3136V15.7252C14.9277 16.1015 14.6893 16.4652 14.2901 16.6978C10.2558 19.0479 7.70312 23.3763 7.70312 28.1499C7.70312 35.458 13.6076 41.391 20.971 41.3908C27.7631 41.3905 32.9701 36.427 33.9912 30.4939C34.9775 24.7633 32.2606 19.3423 27.4841 16.6276ZM15.5021 18.7788C16.6503 18.1099 17.3358 16.9685 17.3358 15.7253V7.51996H18.5398C19.2048 7.51996 19.744 6.98082 19.744 6.31583C19.744 5.65083 19.2048 5.11178 18.5398 5.11178H16.1316C15.4677 5.11178 14.9276 4.57159 14.9276 3.90764C14.9276 3.24369 15.4678 2.70359 16.1316 2.70359H25.7644C26.4283 2.70359 26.9684 3.24377 26.9684 3.90764C26.9684 4.57159 26.4282 5.11178 25.7644 5.11178H23.3562C22.6912 5.11178 22.1521 5.65091 22.1521 6.31583C22.1521 6.98082 22.6912 7.51996 23.3562 7.51996H24.5602L24.5603 15.6395C24.5603 16.9327 25.2246 18.1135 26.294 18.7213C29.2015 20.3737 31.0984 23.1577 31.6306 26.3137C28.2995 27.4791 24.9348 26.9525 21.6159 24.74C18.671 22.7768 15.3744 21.754 11.834 22.3009C12.7486 20.8745 13.9955 19.6565 15.5021 18.7788ZM31.6179 30.0857C30.7816 34.9447 26.541 38.9954 20.9481 38.9822C14.9098 38.9679 10.1113 34.1073 10.1113 28.1501C10.1113 27.0948 10.2679 26.0587 10.5628 25.0705C13.7949 24.0368 17.0612 24.5976 20.2803 26.7438C23.7639 29.0662 27.662 30.0117 31.7655 28.8014C31.7408 29.227 31.6918 29.6557 31.6179 30.0857Z" fill="white"/>
<path d="M30.2077 13.2861L41.1432 2.35063C41.6133 1.88044 41.6133 1.11824 41.1432 0.648053C40.673 0.177862 39.9108 0.177862 39.4406 0.648053L28.9314 11.1571L27.1764 12.9123L20.9491 19.1395L14.6998 12.8902L12.9445 11.1351L2.45756 0.648053C1.98745 0.177862 1.22518 0.177862 0.754987 0.648053C0.284796 1.11824 0.284796 1.88044 0.754987 2.35063L11.6684 13.2641L13.4236 15.0193L19.2465 20.8422L5.92323 34.1654L3.53969 36.549L0.755067 39.3336C0.284876 39.8038 0.284876 40.566 0.755067 41.0361C1.22518 41.5063 1.98753 41.5063 2.45764 41.0361L6.9206 36.5732L9.32847 34.1654L20.9491 22.5448L32.5698 34.1654L34.9775 36.5732L39.4404 41.0361C39.9105 41.5063 40.6729 41.5063 41.143 41.0361C41.6132 40.566 41.6132 39.8038 41.143 39.3336L38.3553 36.5458L22.6517 20.8422L30.2077 13.2861Z" fill="white"/>
<path d="M18.54 31.7621C19.205 31.7621 19.744 31.223 19.744 30.5581C19.744 29.8931 19.205 29.354 18.54 29.354C17.875 29.354 17.3359 29.8931 17.3359 30.5581C17.3359 31.223 17.875 31.7621 18.54 31.7621Z" fill="white"/>
<path d="M25.7626 34.1703C26.4276 34.1703 26.9667 33.6312 26.9667 32.9663C26.9667 32.3013 26.4276 31.7622 25.7626 31.7622C25.0977 31.7622 24.5586 32.3013 24.5586 32.9663C24.5586 33.6312 25.0977 34.1703 25.7626 34.1703Z" fill="white"/>
<path d="M18.54 36.579C19.205 36.579 19.744 36.0399 19.744 35.375C19.744 34.71 19.205 34.1709 18.54 34.1709C17.875 34.1709 17.3359 34.71 17.3359 35.375C17.3359 36.0399 17.875 36.579 18.54 36.579Z" fill="white"/>
<path d="M13.7236 29.3544C14.3886 29.3544 14.9276 28.8153 14.9276 28.1503C14.9276 27.4854 14.3886 26.9463 13.7236 26.9463C13.0586 26.9463 12.5195 27.4854 12.5195 28.1503C12.5195 28.8153 13.0586 29.3544 13.7236 29.3544Z" fill="white"/>
</svg>
