<svg width="12" height="12" viewBox="0 0 12 12" fill="none" xmlns="http://www.w3.org/2000/svg">
<path d="M6.52995 0.830483L5.22787 0.830483L5.22787 5.10875L0.949603 5.10875L0.949603 6.41083L6.52995 6.41083L6.52995 0.830483Z" fill="#0D0D0D"/>
<path d="M5.36214 10.8233L6.66422 10.8233L6.66422 6.54506L10.9425 6.54506L10.9425 5.24298L5.36214 5.24298L5.36214 10.8233Z" fill="#0D0D0D"/>
</svg>
