<svg width="83" height="63" viewBox="0 0 83 63" fill="none" xmlns="http://www.w3.org/2000/svg">
<path d="M38.65 12.944C38.65 13.6965 39.2601 14.3065 40.0125 14.3065C40.765 14.3065 41.3751 13.6965 41.3751 12.944C41.2435 9.88978 38.952 7.36401 35.925 6.93669V6.8127C35.925 6.06021 35.315 5.4502 34.5625 5.4502C33.81 5.4502 33.2 6.06021 33.2 6.8127V6.93669C30.173 7.36401 27.8815 9.88978 27.75 12.944C27.8815 15.9982 30.173 18.5239 33.2 18.9513V25.6779C31.6838 25.334 30.5748 24.0331 30.475 22.4815C30.475 21.729 29.865 21.119 29.1125 21.119C28.36 21.119 27.75 21.729 27.75 22.4815C27.8815 25.5357 30.173 28.0615 33.2 28.4888V28.6128C33.2 29.3653 33.81 29.9753 34.5625 29.9753C35.315 29.9753 35.925 29.3653 35.925 28.6128V28.4888C38.952 28.0615 41.2435 25.5357 41.3751 22.4815C41.2435 19.4273 38.952 16.9015 35.925 16.4742V9.74754C37.4413 10.0915 38.5503 11.3924 38.65 12.944ZM30.475 12.944C30.5748 11.3924 31.6838 10.0915 33.2 9.74754V16.1404C31.6838 15.7964 30.5748 14.4956 30.475 12.944ZM38.65 22.4815C38.5503 24.0331 37.4413 25.334 35.925 25.6779V19.2851C37.4413 19.6291 38.5503 20.9299 38.65 22.4815Z" fill="white"/>
<path d="M3.22501 35.4251H5.95002V39.5127C5.95002 41.0176 7.17005 42.2377 8.67503 42.2377H11.4V46.3252C11.4 47.8302 12.6201 49.0502 14.1251 49.0502H40.0127C40.7651 49.0502 41.3752 48.4402 41.3752 47.6877C41.3752 46.9352 40.7651 46.3252 40.0127 46.3252H14.1251V42.2377H40.0127C40.7651 42.2377 41.3752 41.6277 41.3752 40.8752C41.3752 40.1227 40.7651 39.5127 40.0127 39.5127H8.67503V35.4251H34.5626C43.5783 35.4251 50.9127 27.479 50.9127 17.7126C50.9804 11.7569 48.1088 6.15041 43.2363 2.72501H65.9003V20.4376C65.9003 21.1901 66.5103 21.8001 67.2628 21.8001C68.0153 21.8001 68.6253 21.1901 68.6253 20.4376V2.72501C68.6253 1.22003 67.4052 0 65.9003 0H15.4876C14.7351 0 14.1251 0.610014 14.1251 1.36251C14.1251 2.115 14.7351 2.72501 15.4876 2.72501H25.8889C21.0164 6.15041 18.1449 11.7569 18.2126 17.7126C18.1449 23.6682 21.0164 29.2747 25.8889 32.7001H3.22501V2.72501H8.67503C9.42752 2.72501 10.0375 2.115 10.0375 1.36251C10.0375 0.610014 9.42752 0 8.67503 0H3.22501C1.72003 0 0.5 1.22003 0.5 2.72501V32.7001C0.5 34.2051 1.72003 35.4251 3.22501 35.4251ZM20.9376 17.7126C20.9376 9.44897 27.0498 2.72501 34.5626 2.72501C42.0755 2.72501 48.1877 9.44897 48.1877 17.7126C48.1877 25.9762 42.0755 32.7001 34.5626 32.7001C27.0498 32.7001 20.9376 25.9762 20.9376 17.7126Z" fill="white"/>
<path d="M12.7617 5.4502H7.31172C6.55923 5.4502 5.94922 6.06021 5.94922 6.8127V12.2627C5.94922 13.0152 6.55923 13.6252 7.31172 13.6252C8.06422 13.6252 8.67423 13.0152 8.67423 12.2627V8.17521H12.7617C13.5142 8.17521 14.1243 7.56519 14.1243 6.8127C14.1243 6.06021 13.5142 5.4502 12.7617 5.4502Z" fill="white"/>
<path d="M61.8125 13.6252C62.565 13.6252 63.175 13.0152 63.175 12.2627V6.8127C63.175 6.06021 62.565 5.4502 61.8125 5.4502H56.3625C55.61 5.4502 55 6.06021 55 6.8127C55 7.56519 55.61 8.17521 56.3625 8.17521H60.45V12.2627C60.45 13.0152 61.06 13.6252 61.8125 13.6252Z" fill="white"/>
<path d="M7.31172 21.8008C6.55923 21.8008 5.94922 22.4108 5.94922 23.1633V28.6133C5.94922 29.3658 6.55923 29.9758 7.31172 29.9758H12.7617C13.5142 29.9758 14.1243 29.3658 14.1243 28.6133C14.1243 27.8608 13.5142 27.2508 12.7617 27.2508H8.67423V23.1633C8.67423 22.4108 8.06422 21.8008 7.31172 21.8008Z" fill="white"/>
<path d="M63.1727 24.5234C52.6379 24.5234 44.0977 33.0636 44.0977 43.5985C44.0977 54.1334 52.6379 62.6736 63.1727 62.6736C73.7076 62.6736 82.2478 54.1334 82.2478 43.5985C82.2365 33.0683 73.7029 24.5347 63.1727 24.5234ZM63.1727 59.9486C54.1428 59.9486 46.8227 52.6284 46.8227 43.5985C46.8227 34.5686 54.1428 27.2484 63.1727 27.2484C72.2026 27.2484 79.5228 34.5686 79.5228 43.5985C79.513 52.6244 72.1986 59.9388 63.1727 59.9486Z" fill="white"/>
<path d="M64.5375 43.0344V32.6984C64.5375 31.946 63.9275 31.3359 63.175 31.3359C62.4225 31.3359 61.8125 31.946 61.8125 32.6984V43.5985C61.8126 43.9598 61.9562 44.3063 62.2117 44.5618L67.6617 50.0118C68.1964 50.5282 69.0462 50.5208 69.5717 49.9952C70.0973 49.4696 70.1047 48.6198 69.5883 48.0852L64.5375 43.0344Z" fill="white"/>
</svg>
