<svg width="22" height="22" viewBox="0 0 22 22" fill="none" xmlns="http://www.w3.org/2000/svg">
<path d="M0.892356 5.45184C0.888213 5.43816 0.884286 5.42184 0.882049 5.41255C0.881492 5.41024 0.881041 5.40836 0.880716 5.40707L1.02621 5.37058M0.892356 5.45184L0.854825 5.26354L1.0041 5.24882M0.892356 5.45184L1.03594 5.40843C1.03321 5.39944 1.03101 5.39034 1.02882 5.38124C1.02796 5.37768 1.0271 5.37413 1.02621 5.37058M0.892356 5.45184L1.0041 5.24882M1.02621 5.37058C1.02533 5.36711 1.02443 5.36365 1.02353 5.36019C1.02086 5.34998 1.0182 5.33978 1.01613 5.32937C1.01393 5.31819 1.01238 5.30695 1.01084 5.29571C1.01036 5.29221 1.00987 5.28872 1.00937 5.28523C1.00876 5.28091 1.00807 5.27661 1.00738 5.27232C1.00613 5.26453 1.00488 5.25675 1.0041 5.24882M1.02621 5.37058L0.880812 5.40745C0.880392 5.40579 0.879833 5.40365 0.879177 5.40115C0.876455 5.39075 0.872067 5.37398 0.869014 5.35863L0.868971 5.35841C0.865805 5.34237 0.863408 5.32483 0.861848 5.31341C0.861482 5.31074 0.861163 5.3084 0.86089 5.3065L0.860854 5.30624L0.860708 5.30533C0.859921 5.30046 0.856186 5.27737 0.854823 5.26351M1.0041 5.24882L0.854823 5.26351M1.0041 5.24882C0.998711 5.19414 0.998711 5.13902 1.0041 5.08433M1.0041 5.24882V5.08433M0.854823 5.26351C0.848471 5.19907 0.84847 5.13413 0.854818 5.06969L1.0041 5.08433M0.854823 5.26351L1.0041 5.08433M1.0041 5.08433C1.00491 5.0761 1.0062 5.06805 1.0075 5.05999C1.00814 5.05596 1.00879 5.05194 1.00937 5.04789M1.0041 5.08433L0.854825 5.06962C0.856168 5.05597 0.85928 5.03664 0.86047 5.02924C0.860685 5.02791 0.860837 5.02696 0.860905 5.02651M1.00937 5.04789L0.86089 5.02662C0.860895 5.02658 0.8609 5.02655 0.860905 5.02651M1.00937 5.04789C1.0099 5.0442 1.01041 5.04052 1.01091 5.03684C1.01242 5.02578 1.01393 5.01473 1.01609 5.00375L0.860921 5.02641L1.00937 5.04789ZM0.860905 5.02651C0.861168 5.02467 0.861483 5.02235 0.861847 5.01967C0.863378 5.00839 0.865786 4.99065 0.868932 4.9747L0.868959 4.97457C0.872023 4.95912 0.876423 4.9423 0.879148 4.93189C0.879799 4.9294 0.880355 4.92728 0.880773 4.92563L1.02617 4.96249L0.880677 4.92601C0.881009 4.92468 0.881464 4.92279 0.882022 4.92048L0.860905 5.02651ZM1.24406 5.75582L1.138 5.86188L4.47136 9.1952C4.85536 9.57921 5.478 9.57921 5.862 9.1952C6.24601 8.81119 6.24601 8.18856 5.862 7.80455L4.20733 6.14988H12.6667C16.2886 6.14988 19.1833 9.04463 19.1833 12.6666C19.1833 16.2885 16.2886 19.1832 12.6666 19.1832H1.83332C1.29024 19.1832 0.85 19.6235 0.85 20.1666C0.85 20.7096 1.29024 21.1499 1.83332 21.1499H12.6667C17.3748 21.1499 21.15 17.3746 21.15 12.6666C21.15 7.95848 17.3748 4.1832 12.6666 4.18324H4.20729L5.86196 2.52856C6.24597 2.14455 6.24597 1.52192 5.86196 1.13791C5.47796 0.753904 4.85533 0.753904 4.47132 1.13791L1.138 4.47123C1.1372 4.47202 1.13645 4.4728 1.13574 4.47354C1.11345 4.49595 1.09254 4.51927 1.0729 4.54321M1.24406 5.75582L1.14026 4.7038L1.0156 4.62057C1.01561 4.62057 1.01561 4.62056 1.01561 4.62056C1.02454 4.60718 1.03553 4.59273 1.04229 4.58384C1.04397 4.58162 1.04539 4.57976 1.04645 4.57833L1.04653 4.57823C1.04677 4.57791 1.04737 4.57708 1.04825 4.57586C1.05268 4.56973 1.0642 4.55381 1.0729 4.54321M1.24406 5.75582L1.138 5.86188C1.11484 5.83873 1.09321 5.81463 1.07294 5.78991C1.06424 5.77931 1.05274 5.76341 1.04829 5.75725C1.04749 5.75614 1.04692 5.75535 1.04663 5.75496C1.04553 5.7535 1.04415 5.75168 1.04256 5.74959L1.24406 5.75582ZM1.0729 4.54321L1.18886 4.63835L1.07298 4.54311C1.07295 4.54315 1.07293 4.54318 1.0729 4.54321ZM0.989538 5.6699L0.989548 5.66992C0.990396 5.67134 0.991516 5.67325 0.992852 5.67552C0.998217 5.68467 1.00705 5.69973 1.01567 5.7126C1.01569 5.71263 1.01571 5.71267 1.01573 5.7127L0.989538 5.6699ZM0.989538 5.6699C0.988869 5.66878 0.98786 5.66713 0.986607 5.66508M0.989538 5.6699L0.986607 5.66508M0.924781 5.54261L0.924936 5.54298C0.930468 5.55628 0.937581 5.57103 0.941902 5.57999C0.942989 5.58225 0.943899 5.58413 0.944563 5.58554L1.0802 5.52148L0.944397 5.58519C0.945123 5.58674 0.946015 5.58867 0.947044 5.5909L0.924781 5.54261ZM0.924781 5.54261C0.919159 5.52899 0.913817 5.51366 0.910478 5.50409M0.924781 5.54261L0.910478 5.50409M0.908604 4.83434L0.90859 4.83438C0.908038 4.83592 0.90729 4.83795 0.906401 4.84036C0.902774 4.85021 0.896812 4.8664 0.892349 4.88117C0.892326 4.88124 0.892304 4.88132 0.892282 4.88139L0.908604 4.83434ZM0.908604 4.83434C0.909108 4.83294 0.909795 4.83098 0.910627 4.8286M0.908604 4.83434L0.910627 4.8286M0.986607 5.66508C0.981651 5.65698 0.972879 5.64263 0.966207 5.63018L0.986607 5.66508ZM0.910478 5.50409C0.909687 5.50182 0.909008 5.49987 0.908464 5.49834M0.910478 5.50409L0.908464 5.49834M0.908464 5.49834L1.04977 5.448L0.908464 5.49834ZM0.910627 4.8286C0.913877 4.81929 0.919342 4.80365 0.924781 4.79047M0.910627 4.8286L0.924781 4.79047M0.924781 4.79047C0.930366 4.77694 0.937811 4.76156 0.942068 4.75276M0.924781 4.79047L0.942068 4.75276M0.942068 4.75276C0.943117 4.75059 0.943972 4.74883 0.944558 4.74759L0.942068 4.75276ZM1.01561 5.00365H1.01561H1.01561Z" fill="#8D8D8D" stroke="#8D8D8D" stroke-width="0.3"/>
</svg>
