<svg width="16" height="16" viewBox="0 0 16 16" fill="none" xmlns="http://www.w3.org/2000/svg">
<path d="M0.801757 4.23998L0.802028 4.24063C0.806212 4.25069 0.810232 4.25931 0.812994 4.26513C0.816257 4.27201 0.816485 4.27244 0.816659 4.27277C0.816806 4.27305 0.816913 4.27326 0.818781 4.27722L0.818916 4.27752C0.820941 4.28196 0.829316 4.30028 0.83748 4.31551L0.801757 4.23998ZM0.801757 4.23998C0.795496 4.22481 0.789038 4.20606 0.787772 4.20238M0.801757 4.23998L0.787772 4.20238M0.753759 4.08145L0.753835 4.08183C0.757292 4.09921 0.762905 4.12026 0.763785 4.12356L0.7639 4.12399L0.766753 4.13573C0.768273 4.14188 0.77066 4.15127 0.773889 4.16194L0.753759 4.08145ZM0.753759 4.08145C0.750384 4.06434 0.747686 4.04419 0.746913 4.03841C0.746815 4.03769 0.746748 4.03719 0.746714 4.03695L0.746651 4.0365M0.753759 4.08145L0.746651 4.0365M0.746651 4.0365C0.746658 4.03655 0.746599 4.03613 0.746354 4.03459M0.746651 4.0365L0.746354 4.03459M0.753781 3.75162L0.753732 3.75187C0.750283 3.76935 0.747461 3.79073 0.746836 3.79546L0.746768 3.796L0.746715 3.79637L0.745233 3.80569C0.74432 3.81152 0.742798 3.82156 0.741637 3.83335L0.753781 3.75162ZM0.753781 3.75162C0.75725 3.73413 0.76287 3.71306 0.763756 3.70974L0.753781 3.75162ZM0.787804 3.63084L0.78778 3.63091C0.785141 3.63826 0.785437 3.63741 0.785822 3.63629C0.786278 3.63497 0.786858 3.6333 0.782851 3.64442C0.780538 3.65084 0.777228 3.66025 0.773914 3.67121C0.773877 3.67133 0.773839 3.67145 0.773802 3.67158L1.02513 3.74735C1.02321 3.75366 1.02167 3.76005 1.02013 3.76644L0.787804 3.63084ZM0.787804 3.63084L0.792151 3.6185M0.787804 3.63084L0.792151 3.6185M0.837685 3.51745L0.837407 3.51796C0.829311 3.53311 0.820473 3.55241 0.818987 3.55566L0.818776 3.55611L0.813127 3.56787C0.810326 3.57375 0.806119 3.58274 0.801761 3.59331L0.837685 3.51745ZM0.837685 3.51745C0.84288 3.50778 0.847765 3.49958 0.850993 3.49423L0.857498 3.48352L0.857514 3.48349L0.837685 3.51745ZM0.906447 3.41049L0.906319 3.41067C0.906295 3.4107 0.890825 3.4307 0.879946 3.44699C0.879945 3.447 0.879943 3.447 0.879942 3.447L0.906447 3.41049ZM0.906447 3.41049L0.912242 3.40252C0.915718 3.39776 0.921743 3.38959 0.929261 3.38043M0.906447 3.41049L0.929261 3.38043M1.58333 15.2625H9.16669C12.5493 15.2625 15.2625 12.5493 15.2625 9.16667C15.2625 5.78403 12.5493 3.07081 9.16666 3.07084H3.62534L4.51475 2.18143C4.84506 1.85112 4.84506 1.31555 4.51475 0.985235C4.18444 0.654922 3.64887 0.654922 3.31856 0.985235L0.985228 3.31856L0.985234 3.31857C0.984357 3.31944 0.983507 3.3203 0.982685 3.32114C0.96355 3.34043 0.945779 3.36029 0.929261 3.38043M1.58333 15.2625L0.929261 3.38043M1.58333 15.2625C1.11619 15.2625 0.7375 14.8838 0.7375 14.4167C0.7375 13.9495 1.11619 13.5708 1.58333 13.5708H9.16666C11.615 13.5708 13.5708 11.615 13.5708 9.16667C13.5708 6.7183 11.6151 4.76248 9.16669 4.76248H3.62537M1.58333 15.2625L3.62537 4.76248M3.62537 4.76248L4.51478 5.65189C4.84509 5.9822 4.84509 6.51777 4.51478 6.84808C4.18446 7.1784 3.6489 7.1784 3.31858 6.84808L0.98523 4.51476C0.965096 4.49463 0.946519 4.47391 0.929341 4.45296C0.929297 4.45291 0.929252 4.45286 0.929208 4.4528L3.62537 4.76248ZM0.787772 4.20238L0.787561 4.20179L0.787772 4.20238ZM0.746354 4.03459L0.745281 4.02787M0.746354 4.03459L0.745281 4.02787M0.745281 4.02787C0.744396 4.02225 0.742822 4.01202 0.741637 4L0.745281 4.02787ZM0.792151 3.6185C0.79429 3.61249 0.797563 3.60348 0.801757 3.59332L0.792151 3.6185ZM0.857514 4.34985L0.857498 4.34983L0.880045 4.38645C0.873593 4.3768 0.868348 4.36815 0.864826 4.36224C0.860204 4.35448 0.860232 4.35448 0.860254 4.35448C0.860272 4.35449 0.860286 4.35449 0.857514 4.34985ZM0.906697 4.42311L0.906405 4.42272L0.906086 4.42231C0.903073 4.41838 0.890132 4.40151 0.880163 4.38662L0.906697 4.42311ZM0.741633 3.99995C0.73618 3.9446 0.736177 3.88882 0.741625 3.83347L0.741633 3.99995Z" fill="#8D8D8D" stroke="#8D8D8D" stroke-width="0.525"/>
</svg>
