<svg width="16" height="16" viewBox="0 0 16 16" fill="none" xmlns="http://www.w3.org/2000/svg">
<circle cx="8" cy="7.99902" r="8" fill="#EB5757"/>
<rect x="4.77115" y="5.53394" width="1.09827" height="8.03231" rx="0.549134" transform="rotate(-45 4.77115 5.53394)" fill="white" stroke="white" stroke-width="0.322392"/>
<rect x="10.4412" y="4.758" width="1.09827" height="8.03231" rx="0.549134" transform="rotate(45 10.4412 4.758)" fill="white" stroke="white" stroke-width="0.322392"/>
</svg>
