<svg width="22" height="22" viewBox="0 0 22 22" fill="none" xmlns="http://www.w3.org/2000/svg">
<g opacity="0.5">
<circle cx="11" cy="11" r="10.375" fill="white" stroke="black" stroke-width="1.25"/>
<rect x="5" y="10" width="12" height="1.5" fill="black"/>
</g>
</svg>
