<svg width="71" height="63" viewBox="0 0 71 63" fill="none" xmlns="http://www.w3.org/2000/svg">
<path d="M66.252 0.00390625H4.80884C2.57067 0.00390625 0.75 1.82485 0.75 4.06275V42.138C0.75 44.3758 2.57067 46.1966 4.80884 46.1966H33.4192C34.6321 51.3281 37.3747 54.9623 39.7717 57.2907C43.2704 60.6897 47.281 62.4998 48.831 62.4998C50.3809 62.4998 54.3915 60.6898 57.8903 57.2909C60.2873 54.9623 63.0301 51.3281 64.2428 46.1967H66.252C68.4901 46.1967 70.3109 44.3759 70.3109 42.1382V4.06275C70.3109 1.82485 68.4901 0.00390625 66.252 0.00390625ZM62.1591 40.6287C62.1592 47.787 58.855 52.5352 56.0829 55.258C52.7946 58.4878 49.4216 59.7441 48.831 59.7823C48.2403 59.7441 44.8671 58.4879 41.5789 55.258C38.8071 52.5352 35.5028 47.787 35.5028 40.6287V33.9381C40.1805 32.5854 44.5574 30.734 48.8314 28.301C53.0091 30.6722 57.5822 32.6059 62.1591 33.9373V40.6287ZM67.5937 42.138C67.5937 42.8776 66.9917 43.4794 66.252 43.4794H64.7153C64.8194 42.569 64.8764 41.6196 64.8764 40.6287V32.908C64.8764 32.2948 64.4656 31.7577 63.8739 31.597C58.9404 30.2573 53.9759 28.1696 49.5172 25.5599C49.0934 25.3118 48.5687 25.3121 48.1445 25.5601C43.5595 28.2439 38.8634 30.2184 33.7881 31.597C33.1964 31.7578 32.7856 32.2949 32.7856 32.908V40.6287C32.7856 41.6196 32.8425 42.569 32.9467 43.4794H4.80884C4.06908 43.4794 3.46722 42.8775 3.46722 42.138V19.0242H67.5937V42.138ZM67.5937 16.3071H3.46722V10.8729H67.5937V16.3071ZM67.5937 8.15556H3.46722V4.06275C3.46722 3.32299 4.06908 2.72112 4.80884 2.72112H66.252C66.9917 2.72112 67.5937 3.32299 67.5937 4.06275V8.15556Z" fill="white"/>
<path d="M17.0539 28.5342C16.2348 28.5342 15.426 28.6998 14.6774 29.0155C13.9461 28.7056 13.1423 28.5342 12.2994 28.5342C8.92831 28.5342 6.18555 31.2767 6.18555 34.6476C6.18555 38.0186 8.92817 40.7614 12.2994 40.7614C13.1423 40.7614 13.9461 40.5899 14.6773 40.28C15.426 40.5958 16.2348 40.7614 17.0539 40.7614C20.4251 40.7614 23.1679 38.0186 23.1679 34.6476C23.1679 31.2767 20.4251 28.5342 17.0539 28.5342ZM12.2994 38.0442C10.4264 38.0442 8.90276 36.5206 8.90276 34.6476C8.90276 32.7748 10.4264 31.2514 12.2994 31.2514C14.1721 31.2514 15.6958 32.7748 15.6958 34.6476C15.6958 36.5205 14.1721 38.0442 12.2994 38.0442ZM17.3907 38.0276C18.036 37.0588 18.413 35.8965 18.413 34.6478C18.413 33.3991 18.036 32.2371 17.3908 31.2682C19.106 31.4378 20.4505 32.8888 20.4505 34.6478C20.4505 36.4068 19.106 37.8579 17.3907 38.0276Z" fill="white"/>
<path d="M14.5344 22.415H7.54611C6.79575 22.415 6.1875 23.0233 6.1875 23.7736C6.1875 24.5239 6.79575 25.1323 7.54611 25.1323H14.5344C15.2847 25.1323 15.893 24.5237 15.893 23.7736C15.893 23.0233 15.2847 22.415 14.5344 22.415Z" fill="white"/>
<path d="M58.0271 37.2447C57.3943 36.5905 56.3678 36.5902 55.7343 37.2445L47.0636 46.2071L42.52 41.5099C41.8867 40.8558 40.86 40.8555 40.2269 41.5099C39.5937 42.1645 39.5936 43.2259 40.2269 43.8804L45.9171 49.7628C46.2338 50.0902 46.6487 50.2539 47.0636 50.2539C47.4785 50.2539 47.8936 50.0902 48.2099 49.7628L58.0269 39.6152C58.6603 38.9608 58.6603 37.8995 58.0271 37.2447Z" fill="white"/>
</svg>
