<svg width="42" height="42" viewBox="0 0 42 42" fill="none" xmlns="http://www.w3.org/2000/svg">
<circle cx="21" cy="21" r="21" fill="#0D0D0D"/>
<path fill-rule="evenodd" clip-rule="evenodd" d="M30.5642 21.5647C30.4249 21.7044 30.2593 21.8152 30.0771 21.8908C29.8949 21.9664 29.6995 22.0054 29.5022 22.0054C29.3049 22.0054 29.1095 21.9664 28.9273 21.8908C28.7451 21.8152 28.5795 21.7044 28.4402 21.5647L20.5022 13.6237L12.5642 21.5647C12.2825 21.8464 11.9005 22.0046 11.5022 22.0046C11.1039 22.0046 10.7219 21.8464 10.4402 21.5647C10.1585 21.283 10.0003 20.901 10.0003 20.5027C10.0003 20.1044 10.1585 19.7224 10.4402 19.4407L19.4402 10.4407C19.5795 10.301 19.7451 10.1902 19.9273 10.1146C20.1095 10.0389 20.3049 10 20.5022 10C20.6995 10 20.8949 10.0389 21.0771 10.1146C21.2593 10.1902 21.4249 10.301 21.5642 10.4407L30.5642 19.4407C30.7039 19.58 30.8147 19.7456 30.8903 19.9278C30.966 20.11 31.0049 20.3054 31.0049 20.5027C31.0049 20.7 30.966 20.8954 30.8903 21.0776C30.8147 21.2598 30.7039 21.4254 30.5642 21.5647Z" fill="white"/>
<path fill-rule="evenodd" clip-rule="evenodd" d="M20.502 31.0024C20.1041 31.0024 19.7226 30.8444 19.4413 30.5631C19.16 30.2818 19.002 29.9003 19.002 29.5024L19.002 14.5024C19.002 14.1046 19.16 13.7231 19.4413 13.4418C19.7226 13.1605 20.1041 13.0024 20.502 13.0024C20.8998 13.0024 21.2813 13.1605 21.5626 13.4418C21.8439 13.7231 22.002 14.1046 22.002 14.5024L22.002 29.5024C22.002 29.9003 21.8439 30.2818 21.5626 30.5631C21.2813 30.8444 20.8998 31.0024 20.502 31.0024Z" fill="white"/>
</svg>
