<svg width="20" height="37" viewBox="0 0 20 37" fill="none" xmlns="http://www.w3.org/2000/svg">
<path d="M20 26.3207L17.6793 24L10.0543 31.625L2.42935 24L0.108692 26.3207L10.0543 36.2663L20 26.3207Z" fill="#0D0D0D"/>
<path opacity="0.3" d="M20 14.3207L17.6793 12L10.0543 19.625L2.42935 12L0.108692 14.3207L10.0543 24.2663L20 14.3207Z" fill="#0D0D0D"/>
<path opacity="0.15" d="M20 2.32065L17.6793 -1.01439e-07L10.0543 7.625L2.42935 -7.68038e-07L0.108692 2.32065L10.0543 12.2663L20 2.32065Z" fill="#0D0D0D"/>
</svg>
