<svg width="36" height="36" viewBox="0 0 36 36" fill="none" xmlns="http://www.w3.org/2000/svg">
<circle cx="18" cy="18" r="17.5" stroke="black"/>
<path d="M19 22.4286H19.5H19.5H19ZM19 15.5714H18.5V15.5714L19 15.5714ZM23.2929 14.9653L23.6183 14.5857V14.5857L23.2929 14.9653ZM26.7071 17.8918L27.0325 17.5122V17.5122L26.7071 17.8918ZM10 13.5H18V12.5H10V13.5ZM18.5 13.8571V22.4286H19.5V13.8571H18.5ZM9.5 22.4286V13.8571H8.5V22.4286H9.5ZM11 22.7857H10V23.7857H11V22.7857ZM18 22.7857H15V23.7857H18V22.7857ZM8.5 22.4286C8.5 23.2476 9.24666 23.7857 10 23.7857V22.7857C9.64877 22.7857 9.5 22.5563 9.5 22.4286H8.5ZM18.5 22.4286C18.5 22.5563 18.3512 22.7857 18 22.7857V23.7857C18.7533 23.7857 19.5 23.2476 19.5 22.4286H18.5ZM18 13.5C18.3512 13.5 18.5 13.7294 18.5 13.8571H19.5C19.5 13.0381 18.7533 12.5 18 12.5V13.5ZM10 12.5C9.24666 12.5 8.5 13.0381 8.5 13.8571H9.5C9.5 13.7294 9.64877 13.5 10 13.5V12.5ZM19.5 22.4286L19.5 15.5714L18.5 15.5714L18.5 22.4286H19.5ZM20 15.2143H22.5858V14.2143H20V15.2143ZM26.5 18.4979V22.4286H27.5V18.4979H26.5ZM22.9675 15.345L26.3817 18.2714L27.0325 17.5122L23.6183 14.5857L22.9675 15.345ZM21 22.7857H20V23.7857H21V22.7857ZM26 22.7857H25V23.7857H26V22.7857ZM27.5 18.4979C27.5 18.1109 27.32 17.7586 27.0325 17.5122L26.3817 18.2714C26.4693 18.3465 26.5 18.4302 26.5 18.4979H27.5ZM22.5858 15.2143C22.7412 15.2143 22.8776 15.2679 22.9675 15.345L23.6183 14.5857C23.3332 14.3413 22.9608 14.2143 22.5858 14.2143V15.2143ZM18.5 22.4286C18.5 23.2476 19.2467 23.7857 20 23.7857V22.7857C19.6488 22.7857 19.5 22.5563 19.5 22.4286H18.5ZM26.5 22.4286C26.5 22.5563 26.3512 22.7857 26 22.7857V23.7857C26.7533 23.7857 27.5 23.2476 27.5 22.4286H26.5ZM19.5 15.5714C19.5 15.4437 19.6488 15.2143 20 15.2143V14.2143C19.2467 14.2143 18.5 14.7524 18.5 15.5714H19.5ZM14.5 23.2857C14.5 23.8868 13.9035 24.5 13 24.5V25.5C14.3056 25.5 15.5 24.5782 15.5 23.2857H14.5ZM13 24.5C12.0965 24.5 11.5 23.8868 11.5 23.2857H10.5C10.5 24.5782 11.6944 25.5 13 25.5V24.5ZM11.5 23.2857C11.5 22.6846 12.0965 22.0714 13 22.0714V21.0714C11.6944 21.0714 10.5 21.9933 10.5 23.2857H11.5ZM13 22.0714C13.9035 22.0714 14.5 22.6846 14.5 23.2857H15.5C15.5 21.9933 14.3056 21.0714 13 21.0714V22.0714ZM24.5 23.2857C24.5 23.8868 23.9035 24.5 23 24.5V25.5C24.3056 25.5 25.5 24.5782 25.5 23.2857H24.5ZM23 24.5C22.0965 24.5 21.5 23.8868 21.5 23.2857H20.5C20.5 24.5782 21.6944 25.5 23 25.5V24.5ZM21.5 23.2857C21.5 22.6846 22.0965 22.0714 23 22.0714V21.0714C21.6944 21.0714 20.5 21.9933 20.5 23.2857H21.5ZM23 22.0714C23.9035 22.0714 24.5 22.6846 24.5 23.2857H25.5C25.5 21.9933 24.3056 21.0714 23 21.0714V22.0714Z" fill="black"/>
</svg>
