<svg width="205" height="205" viewBox="0 0 205 205" fill="none" xmlns="http://www.w3.org/2000/svg">
<path d="M154.74 89.626C153.829 86.835 151.412 84.8036 148.505 84.388L119.753 80.2769L107.124 54.6864C105.827 52.0561 103.148 50.3914 100.215 50.3914C97.283 50.3914 94.6045 52.0566 93.3065 54.6859L80.6769 80.2769L51.9249 84.388C49.0188 84.8036 46.6012 86.835 45.6905 89.6255C44.7804 92.4166 45.5349 95.4824 47.6372 97.5318L68.0878 117.468L63.2494 146.13C62.7641 149.008 63.9459 151.914 66.3035 153.635C68.6328 155.336 71.7572 155.613 74.3824 154.258L100.215 140.914L126.046 154.258C128.639 155.598 131.767 155.356 134.125 153.635C136.482 151.914 137.665 149.008 137.179 146.13L132.34 117.469L152.792 97.5323C154.895 95.4824 155.65 92.4171 154.74 89.626ZM118.693 109.253C116.883 111.018 116.053 113.559 116.474 116.052L119.418 133.49L103.751 125.398C101.533 124.252 98.8974 124.252 96.679 125.398L81.0102 133.491L83.9538 116.052C84.3745 113.559 83.5455 111.018 81.735 109.253L69.6025 97.4255L86.8779 94.9554C89.3942 94.5954 91.5715 93.018 92.6963 90.7385L100.214 75.5053L107.732 90.738C108.857 93.0175 111.034 94.5959 113.55 94.9554L130.826 97.4255L118.693 109.253Z" fill="#B79B53"/>
<path d="M100.673 0.000488281C96.4183 0.000488281 92.9688 3.45002 92.9688 7.70493V26.7662C92.9688 31.0211 96.4183 34.4707 100.673 34.4707C104.928 34.4707 108.378 31.0211 108.378 26.7662V7.70493C108.378 3.45002 104.928 0.000488281 100.673 0.000488281Z" fill="#B79B53"/>
<path d="M100.673 159.354C96.4183 159.354 92.9688 162.804 92.9688 167.058V197.296C92.9688 201.551 96.4183 205.001 100.673 205.001C104.928 205.001 108.378 201.551 108.378 197.296V167.058C108.378 162.804 104.928 159.354 100.673 159.354Z" fill="#B79B53"/>
<path d="M23.4379 92.9669H7.70444C3.44953 92.9669 0 96.4165 0 100.671C0 104.926 3.44953 108.376 7.70444 108.376H23.4379C27.6928 108.376 31.1424 104.926 31.1424 100.671C31.1424 96.4165 27.6928 92.9669 23.4379 92.9669Z" fill="#B79B53"/>
<path d="M197.295 92.9669H176.988C172.733 92.9669 169.283 96.4165 169.283 100.671C169.283 104.926 172.733 108.376 176.988 108.376H197.295C201.55 108.376 204.999 104.926 204.999 100.671C204.999 96.4165 201.55 92.9669 197.295 92.9669Z" fill="#B79B53"/>
<path d="M47.755 153.593C44.7467 150.584 39.8682 150.584 36.8594 153.593L13.9305 176.522C10.9216 179.531 10.9216 184.409 13.9305 187.418C16.9388 190.426 21.8178 190.426 24.8261 187.418L47.755 164.489C50.7638 161.48 50.7638 156.602 47.755 153.593Z" fill="#B79B53"/>
<path d="M189.969 11.3087C186.941 8.31938 182.063 8.35072 179.074 11.3786L139.288 51.6774C136.299 54.7058 136.33 59.5837 139.358 62.573C142.388 65.5639 147.266 65.53 150.254 62.5032L190.04 22.2043C193.028 19.176 192.998 14.298 189.969 11.3087Z" fill="#B79B53"/>
<path d="M172.011 161.113L163.832 152.934C160.824 149.926 155.945 149.925 152.936 152.934C149.927 155.943 149.927 160.821 152.936 163.83L161.115 172.008C164.124 175.017 169.002 175.017 172.011 172.008C175.02 168.999 175.02 164.121 172.011 161.113Z" fill="#B79B53"/>
<path d="M62.0839 51.6963L37.707 26.8063C34.729 23.7662 29.8511 23.7148 26.8119 26.6928C23.7717 29.6698 23.7209 34.5478 26.6979 37.5879L51.0747 62.4779C54.0548 65.5196 58.9328 65.5669 61.9698 62.5914C65.01 59.6144 65.0609 54.7365 62.0839 51.6963Z" fill="#B79B53"/>
</svg>
