<svg width="40" height="20" viewBox="0 0 40 20" fill="none" xmlns="http://www.w3.org/2000/svg">
<path d="M1.09703 18.953L1.159 18.8745L1.09704 18.953C1.21844 19.0488 1.37902 19.1 1.54286 19.1H38.4571C38.621 19.1 38.7816 19.0488 38.903 18.953C39.025 18.8567 39.1 18.7203 39.1 18.5714V14.2C39.1 14.0709 39.0434 13.95 38.9472 13.857C38.8515 13.7645 38.7217 13.7039 38.5816 13.6813L38.5815 13.6813C37.4946 13.507 36.5212 13.042 35.8246 12.3691C35.1284 11.6966 34.7522 10.8594 34.7522 10C34.7522 9.14063 35.1284 8.30335 35.8246 7.63093C36.5212 6.95803 37.4946 6.49299 38.5815 6.31874L38.5816 6.31873C38.7217 6.29615 38.8515 6.23553 38.9472 6.14299C39.0434 6.04998 39.1 5.92911 39.1 5.8V1.42857C39.1 1.27973 39.025 1.14335 38.903 1.04704C38.7816 0.95119 38.621 0.9 38.4571 0.9H1.54286C1.37902 0.9 1.21844 0.95119 1.09703 1.04704C0.975044 1.14335 0.9 1.27973 0.9 1.42857V5.79997C0.9 5.79998 0.9 5.79999 0.9 5.8C0.899974 5.92913 0.95664 6.04998 1.05281 6.14299C1.14849 6.23553 1.27825 6.29615 1.41838 6.31873L1.41846 6.31874C2.50539 6.49299 3.47879 6.95803 4.17544 7.63093C4.87161 8.30335 5.24776 9.14063 5.24776 10C5.24776 10.8594 4.87161 11.6966 4.17544 12.3691C3.47879 13.042 2.50539 13.507 1.41846 13.6813L1.41838 13.6813C1.27825 13.7039 1.14849 13.7645 1.05281 13.857C0.95664 13.95 0.899974 14.0709 0.9 14.2C0.9 14.2 0.9 14.2 0.9 14.2V18.5714C0.9 18.7203 0.975044 18.8567 1.09703 18.953ZM37.8143 14.6161V18.0429H2.18571V14.6161C3.42157 14.326 4.5121 13.7309 5.29553 12.9133C6.09588 12.078 6.5324 11.0552 6.5324 10C6.5324 8.94475 6.09588 7.92203 5.29553 7.08674C4.5121 6.26911 3.42157 5.67398 2.18571 5.38388V1.95714H37.8143V5.38388C36.5784 5.67398 35.4879 6.26911 34.7045 7.08674C33.9041 7.92203 33.4676 8.94475 33.4676 10C33.4676 11.0552 33.9041 12.078 34.7045 12.9133C35.4879 13.7309 36.5784 14.326 37.8143 14.6161Z" fill="#4FBB62" stroke="#4FBB62" stroke-width="0.2"/>
</svg>
