<svg width="18" height="19" viewBox="0 0 18 19" fill="none" xmlns="http://www.w3.org/2000/svg">
<path d="M6.73189 16.0687C6.99454 16.0692 7.20758 15.8562 7.20707 15.5935C7.20656 15.3323 6.99494 15.1207 6.73375 15.1202L4.55599 15.1159L8.8172 10.8547C9.00269 10.6692 9.00269 10.3685 8.8172 10.183C8.63172 9.99754 8.33098 9.99754 8.14549 10.183L3.88428 14.4442L3.88003 12.2665C3.87951 12.0053 3.6679 11.7937 3.40671 11.7932C3.14406 11.7926 2.93102 12.0057 2.93153 12.2683L2.93785 15.5013C2.93846 15.8109 3.18932 16.0618 3.49896 16.0624L6.73189 16.0687Z" fill="#0D0D0D" stroke="#0D0D0D" stroke-width="0.200116"/>
<path d="M11.9722 2.9313C11.7096 2.93079 11.4965 3.14383 11.497 3.40648C11.4975 3.66767 11.7092 3.87929 11.9704 3.8798L14.1481 3.88406L9.8869 8.14527C9.70141 8.33075 9.70141 8.63149 9.8869 8.81698C10.0724 9.00246 10.3731 9.00246 10.5586 8.81698L14.8198 4.55576L14.8241 6.73352C14.8246 6.99471 15.0362 7.20633 15.2974 7.20684C15.56 7.20735 15.7731 6.99431 15.7726 6.73166L15.7663 3.49873C15.7656 3.18909 15.5148 2.93823 15.2051 2.93762L11.9722 2.9313Z" fill="#0D0D0D" stroke="#0D0D0D" stroke-width="0.200116"/>
</svg>
