<svg width="28" height="48" viewBox="0 0 28 48" fill="none" xmlns="http://www.w3.org/2000/svg">
<path d="M27.1641 34.8354L25.0259 32.6974L15.5114 42.2117L15.5114 -5.09353e-07L12.4876 -6.4153e-07L12.4876 42.2117L2.97321 32.6974L0.835036 34.8354L13.9996 48L27.1641 34.8354Z" fill="white"/>
</svg>
