<svg width="80" height="80" viewBox="0 0 80 80" fill="none" xmlns="http://www.w3.org/2000/svg">
<rect width="36" height="36" rx="5" fill="#F4D2B6"/>
<rect x="44" width="36" height="36" rx="5" fill="#DCB68C"/>
<rect y="44" width="36" height="36" rx="5" fill="#E29E69"/>
<rect x="44" y="44" width="36" height="36" rx="5" fill="#D5AA86"/>
</svg>
