<svg width="23" height="18" viewBox="0 0 23 18" fill="none" xmlns="http://www.w3.org/2000/svg">
<path d="M20.2248 4.47524C20.2394 4.67212 20.2394 4.86787 20.2394 5.06362C20.2394 11.0542 15.6798 17.9572 7.34693 17.9572C4.77969 17.9572 2.39469 17.2136 0.387695 15.9221C0.752195 15.9637 1.10319 15.9783 1.48232 15.9783C3.52193 15.9833 5.50379 15.3013 7.10843 14.0422C6.16278 14.0251 5.24608 13.7131 4.48633 13.1498C3.72658 12.5865 3.1617 11.8 2.87057 10.9001C3.15069 10.9417 3.43194 10.9699 3.72669 10.9699C4.13281 10.9699 4.54119 10.9136 4.92031 10.8157C3.89404 10.6085 2.97122 10.0522 2.30876 9.2415C1.6463 8.43076 1.2851 7.41559 1.28657 6.36861V6.31236C1.89069 6.64874 2.59157 6.85911 3.33406 6.88724C2.71204 6.4739 2.202 5.91301 1.84945 5.25463C1.4969 4.59624 1.3128 3.86083 1.31357 3.11399C1.31357 2.2725 1.53744 1.50075 1.93007 0.827999C3.06872 2.22864 4.48888 3.3745 6.09856 4.19136C7.70825 5.00821 9.47156 5.47786 11.2743 5.56986C11.2045 5.23237 11.1618 4.88249 11.1618 4.53149C11.1615 3.93632 11.2785 3.34693 11.5061 2.79701C11.7338 2.2471 12.0675 1.74743 12.4884 1.32658C12.9092 0.905737 13.4089 0.571962 13.9588 0.344338C14.5087 0.116714 15.0981 -0.000295176 15.6933 5.59195e-07C16.9983 5.59195e-07 18.1762 0.546749 19.0042 1.431C20.0186 1.23482 20.9915 0.864474 21.8797 0.336375C21.5415 1.38354 20.8331 2.27149 19.8873 2.83387C20.787 2.73125 21.6664 2.49463 22.4962 2.13187C21.8764 3.03536 21.1085 3.82763 20.2248 4.47524Z" fill="black"/>
</svg>
