<svg width="18" height="13" viewBox="0 0 18 13" fill="none" xmlns="http://www.w3.org/2000/svg">
<path d="M0.816847 0H8.95056C9.50092 0.104278 9.7761 0.388147 9.7761 0.851607V0.981955C9.7761 1.457 9.45457 1.72928 8.81152 1.7988H5.78745V12.1484C5.78745 12.6177 5.49779 12.9016 4.91846 13H4.87501C4.39418 13 4.09872 12.7017 3.98865 12.105V1.7988H0.895056C0.298352 1.68294 0 1.3701 0 0.860297C0.127451 0.286766 0.399734 0 0.816847 0Z" fill="black"/>
<path d="M8.3323 4.04102H16.3573C16.9003 4.1439 17.1718 4.42398 17.1718 4.88124V5.00985C17.1718 5.47854 16.8546 5.74719 16.2201 5.81578H13.2365L13.2364 12.1598C13.2364 12.6228 12.9506 12.9028 12.379 13H12.3361C11.8617 13 11.5702 12.7056 11.4616 12.1169L11.4617 5.81578H8.40946C7.82073 5.70146 7.52637 5.39281 7.52637 4.88981C7.65212 4.32395 7.92076 4.04102 8.3323 4.04102Z" fill="black"/>
</svg>
