<svg width="21" height="20" viewBox="0 0 21 20" fill="none" xmlns="http://www.w3.org/2000/svg">
<path d="M17.7188 0H3.28125C1.47192 0 0 1.47192 0 3.28125V14.7656C0 16.575 1.47192 18.0469 3.28125 18.0469H14.4785C14.9316 18.0469 15.2988 17.6797 15.2988 17.2266C15.2988 16.7735 14.9316 16.4062 14.4785 16.4062H11.4571L9.57106 13.9594L15.548 6.35726L19.5715 10.8043C19.799 11.056 20.1581 11.1413 20.4746 11.0194C20.7911 10.8973 21 10.5931 21 10.2539V3.28125C21 1.47192 19.5281 0 17.7188 0V0ZM19.3594 8.12462L16.1123 4.53559C15.9501 4.35631 15.7168 4.25729 15.4755 4.26611C15.2341 4.2746 15.0085 4.38899 14.859 4.57901L8.53782 12.619L6.39187 9.8351C6.23662 9.6337 5.99661 9.51562 5.74219 9.51562C5.74203 9.51562 5.74187 9.51562 5.74171 9.51562C5.48728 9.51578 5.24712 9.63402 5.09203 9.83574L3.2867 12.1826C3.01048 12.5418 3.07761 13.0567 3.43666 13.333C3.79587 13.6093 4.31081 13.542 4.58718 13.183L5.74283 11.6805L9.38569 16.4062H3.28125C2.37666 16.4062 1.64062 15.6702 1.64062 14.7656V3.28125C1.64062 2.37666 2.37666 1.64062 3.28125 1.64062H17.7188C18.6233 1.64062 19.3594 2.37666 19.3594 3.28125V8.12462Z" fill="#0D0D0D"/>
<path d="M5.74219 2.95312C4.38515 2.95312 3.28125 4.05702 3.28125 5.41406C3.28125 6.7711 4.38515 7.875 5.74219 7.875C7.09923 7.875 8.20312 6.7711 8.20312 5.41406C8.20312 4.05702 7.09923 2.95312 5.74219 2.95312ZM5.74219 6.23437C5.28989 6.23437 4.92187 5.86636 4.92187 5.41406C4.92187 4.96177 5.28989 4.59375 5.74219 4.59375C6.19448 4.59375 6.5625 4.96177 6.5625 5.41406C6.5625 5.86636 6.19448 6.23437 5.74219 6.23437Z" fill="#0D0D0D"/>
<path d="M19.2149 12.4253C19.2125 12.4229 19.2101 12.4204 19.2077 12.418C18.82 12.0275 18.3042 11.8125 17.7553 11.8125C17.208 11.8125 16.6937 12.0262 16.3065 12.4144L14.7227 13.9766C14.4002 14.2946 14.3967 14.814 14.7149 15.1365C15.0329 15.459 15.5523 15.4627 15.8748 15.1445L16.935 14.099V18.7031C16.935 19.1562 17.3022 19.5234 17.7553 19.5234C18.2084 19.5234 18.5756 19.1562 18.5756 18.7031V14.124L19.5903 15.1721C19.7511 15.3384 19.9654 15.4219 20.1797 15.4219C20.3853 15.4219 20.591 15.3451 20.7503 15.191C21.0758 14.8759 21.0842 14.3566 20.769 14.031L19.2149 12.4253Z" fill="#0D0D0D"/>
</svg>
