<svg width="173" height="238" viewBox="0 0 173 238" fill="none" xmlns="http://www.w3.org/2000/svg">
<path d="M172.467 6.76802V6.75991C172.468 3.02714 169.442 0.000901202 165.709 0C165.65 0 165.593 0.00720961 165.534 0.00901202H125.937C122.204 0.00901202 119.178 3.03525 119.178 6.76802C119.178 10.5008 122.204 13.527 125.937 13.527H149.387L109.277 53.635L118.835 63.1941L158.946 23.0843L158.944 46.5372C158.943 50.2699 161.97 53.2962 165.702 53.2962C169.435 53.2962 172.461 50.2708 172.462 46.5372L172.467 6.76802Z" fill="#B79B53"/>
<path d="M140.996 103.265C140.996 64.4775 109.444 32.9219 70.6594 32.9219C31.8699 32.9219 0.3125 64.4775 0.3125 103.265C0.3125 139.769 28.2705 169.859 63.9004 173.272V191.88H38.8614C35.1286 191.88 32.1024 194.907 32.1024 198.639C32.1024 202.372 35.1286 205.398 38.8614 205.398H63.8995V230.43C63.8995 234.163 66.9257 237.189 70.6585 237.189C74.3913 237.189 77.4175 234.163 77.4175 230.43V205.398H102.447C106.179 205.398 109.206 202.372 109.206 198.639C109.206 194.907 106.179 191.88 102.447 191.88H77.4175V173.272C113.042 169.859 140.996 139.769 140.996 103.265ZM13.8305 103.265C13.8305 71.9313 39.3237 46.4399 70.6594 46.4399C101.99 46.4399 127.479 71.9313 127.479 103.265C127.479 134.596 101.99 160.086 70.6594 160.086C39.3237 160.086 13.8305 134.595 13.8305 103.265Z" fill="#B79B53"/>
</svg>
