<svg width="14" height="14" viewBox="0 0 14 14" fill="none" xmlns="http://www.w3.org/2000/svg">
<path d="M4.48081 4.05597L6.36428 2.17263V9.96961C6.36428 10.3211 6.6492 10.606 7.00064 10.606C7.35208 10.606 7.637 10.3211 7.637 9.96961V2.17267L9.5203 4.05597C9.64456 4.18023 9.80743 4.24238 9.97025 4.24238C10.1331 4.24238 10.296 4.18027 10.4202 4.05597C10.6688 3.80745 10.6688 3.40455 10.4202 3.15602L7.45076 0.186497C7.43583 0.171606 7.42017 0.157521 7.40392 0.144158C7.39688 0.138388 7.38946 0.133382 7.38229 0.127994C7.37287 0.120909 7.36366 0.113697 7.35386 0.107121C7.34508 0.101224 7.33596 0.0961333 7.32692 0.0907455C7.31814 0.0854424 7.30953 0.0799697 7.30045 0.0750909C7.29125 0.0701697 7.28183 0.0660545 7.27241 0.0616C7.26295 0.0571454 7.2537 0.0524364 7.24398 0.0484061C7.23491 0.0446727 7.22566 0.0416182 7.21645 0.0383091C7.2061 0.0345758 7.19588 0.0305879 7.18523 0.0273637C7.17606 0.0246061 7.16677 0.0226121 7.15757 0.0202788C7.14671 0.0175212 7.13593 0.0144666 7.1249 0.0122606C7.11429 0.0101818 7.10356 0.00895151 7.09287 0.00738181C7.08307 0.00593938 7.07335 0.00411517 7.06339 0.00313941C7.04379 0.00123032 7.02414 0.000296957 7.00446 0.000169685C7.00318 0.000169685 7.00196 0 7.00068 0C6.99945 0 6.99818 0.000169685 6.99695 0.000169685C6.97726 0.000254533 6.95758 0.00123032 6.93794 0.00313941C6.92822 0.00411517 6.91872 0.00589697 6.90909 0.00729697C6.89814 0.00886666 6.8872 0.0101394 6.87638 0.012303C6.8656 0.0144242 6.85517 0.0173939 6.8446 0.0200666C6.83502 0.0224848 6.82543 0.0246061 6.81592 0.0274485C6.8057 0.0305455 6.79573 0.0344061 6.78572 0.0380121C6.77617 0.0414485 6.76654 0.0445879 6.75712 0.0484909C6.74779 0.0523515 6.73888 0.0568909 6.7298 0.0611758C6.72005 0.0657576 6.7102 0.0701273 6.70061 0.0752182C6.69196 0.0798424 6.68382 0.085103 6.67537 0.0901091C6.66591 0.0957091 6.65641 0.101055 6.6472 0.107206C6.638 0.113358 6.62938 0.12023 6.62052 0.126806C6.61271 0.132618 6.60478 0.138006 6.59723 0.144242C6.58174 0.156927 6.56694 0.170376 6.55272 0.184418C6.55205 0.185097 6.55132 0.185649 6.5506 0.186327L3.58091 3.15598C3.33243 3.4045 3.33239 3.80741 3.58091 4.05593C3.82939 4.30449 4.23233 4.30441 4.48081 4.05597Z" fill="black"/>
<path d="M13.3636 6.36377C13.0122 6.36377 12.7273 6.64869 12.7273 7.00013V11.8789H1.27273V7.00013C1.27273 6.64869 0.987806 6.36377 0.636364 6.36377C0.284921 6.36377 0 6.64869 0 7.00013V12.5153C0 12.8667 0.284921 13.1516 0.636364 13.1516H13.3636C13.7151 13.1516 14 12.8667 14 12.5153V7.00013C14 6.64869 13.7151 6.36377 13.3636 6.36377Z" fill="black"/>
</svg>
