<svg width="32" height="32" viewBox="0 0 32 32" fill="none" xmlns="http://www.w3.org/2000/svg">
<g clip-path="url(#clip0)">
<path d="M21.3769 18.459H21.4722L21.4587 18.3646C21.052 15.5343 18.808 13.2903 15.9777 12.8836L15.8833 12.8701V12.9655V18.3763V18.459H15.966H21.3769ZM15.8833 25.6126V25.708L15.9777 25.6945C18.808 25.2878 21.052 23.0437 21.4587 20.2135L21.4722 20.1191H21.3769H14.2232V12.9655V12.8701L14.1288 12.8836C11.2986 13.2903 9.05447 15.5343 8.64784 18.3646L8.63427 18.459H8.72966H10.407V20.1191H8.72966H8.63427L8.64784 20.2135C9.05447 23.0437 11.2986 25.2878 14.1288 25.6945L14.2232 25.708V25.6126V23.9353H15.8833V25.6126ZM6.92141 19.289C6.92141 14.8052 10.5694 11.1572 15.0533 11.1572C19.5371 11.1572 23.1851 14.8052 23.1851 19.289C23.1851 23.7729 19.5371 27.4209 15.0533 27.4209C10.5694 27.4209 6.92141 23.7729 6.92141 19.289Z" fill="white" stroke="white" stroke-width="0.165336"/>
<path d="M25.4373 10.1949L25.3789 10.1364L25.3204 10.1949L24.0006 11.5147L23.9464 11.5689L23.9963 11.627C25.7651 13.6886 26.8353 16.366 26.8353 19.2889C26.8353 25.7858 21.5495 31.0716 15.0525 31.0716C8.55561 31.0716 3.2698 25.7858 3.2698 19.2889C3.2698 13.7277 7.14293 9.05423 12.3334 7.82344L12.397 7.80836V7.743V7.30179V7.21912H12.3144C10.3469 7.21912 8.74614 5.61834 8.74614 3.65089C8.74614 1.68345 10.3469 0.0826682 12.3144 0.0826682H17.7907C19.7582 0.0826682 21.3589 1.68345 21.3589 3.65089C21.3589 5.61834 19.7582 7.21912 17.7907 7.21912H17.708V7.30179V7.74288V7.80823L17.7716 7.82331C19.6263 8.26311 21.3126 9.14235 22.7145 10.345L22.7726 10.3949L22.8267 10.3407L24.1465 9.02098L24.2049 8.96252L24.1465 8.90406L22.9142 7.67175L24.088 6.49788L27.8435 10.2534L26.6696 11.4272L25.4373 10.1949ZM17.5107 5.50768L17.5317 5.55901H17.5872H17.7907C18.8429 5.55901 19.6988 4.7031 19.6988 3.65089C19.6988 2.59869 18.8429 1.74278 17.7907 1.74278H12.3144C11.2622 1.74278 10.4063 2.59869 10.4063 3.65089C10.4063 4.7031 11.2622 5.55901 12.3144 5.55901H12.5179H12.5734L12.5944 5.50768C12.9911 4.53914 13.9435 3.85526 15.0525 3.85526C16.1616 3.85526 17.1139 4.53914 17.5107 5.50768ZM15.959 7.54066L16.0479 7.54745V7.45823V6.51076C16.0479 5.96183 15.6015 5.51537 15.0525 5.51537C14.5036 5.51537 14.0571 5.96183 14.0571 6.51076V7.45823V7.54745L14.1461 7.54066C14.4453 7.51782 14.7475 7.50615 15.0525 7.50615C15.3575 7.50615 15.6598 7.51782 15.959 7.54066ZM4.92991 19.2889C4.92991 24.8706 9.47085 29.4115 15.0525 29.4115C20.6343 29.4115 25.1752 24.8706 25.1752 19.2889C25.1752 13.7072 20.6342 9.16626 15.0525 9.16626C9.47085 9.16626 4.92991 13.7072 4.92991 19.2889Z" fill="white" stroke="white" stroke-width="0.165336"/>
</g>
<defs>
<clipPath id="clip0">
<rect width="31.1543" height="31.1543" fill="white"/>
</clipPath>
</defs>
</svg>
