<svg width="61" height="85" viewBox="0 0 61 85" fill="none" xmlns="http://www.w3.org/2000/svg">
<path fill-rule="evenodd" clip-rule="evenodd" d="M24.4991 19.2774V1.7578C24.4991 0.790526 23.7163 0.0078125 22.7491 0.0078125H22.1493L5.8496 0.00781155H5.24981C4.28254 0.00781155 3.49982 0.790526 3.49982 1.7578V8.75761V19.2776C1.17185 20.3482 0.382088 21.5793 0.184564 21.9745C0.0631618 22.2171 0 22.4855 0 22.7572V77.0053C0 80.8657 3.13922 84.0051 6.9998 84.0051H20.9992C24.8597 84.0051 27.999 80.8659 27.999 77.0053V22.757C27.999 22.4854 27.9359 22.217 27.8145 21.9743C27.6168 21.5791 26.827 20.348 24.4991 19.2774ZM20.9992 7.54572V3.53683H6.99964V18.1571C8.82477 17.7664 11.1102 17.5071 13.9994 17.5071C16.8885 17.5071 19.1741 17.7661 20.9992 18.1569V13.4691V7.54572ZM20.9992 80.5048C22.9285 80.5048 24.4991 78.9343 24.4991 77.005L24.4992 23.3534C23.8533 22.769 21.3223 21.0071 13.9996 21.0071C6.77422 21.0071 4.21429 22.7228 3.49998 23.379V77.005C3.49998 78.9343 5.0705 80.5048 6.9998 80.5048H20.9992Z" fill="#0D0D0D"/>
<path d="M18 10C18 12.2091 16.2091 14 14 14C11.7909 14 10 12.2091 10 10C10 7.79086 11.7909 6 14 6C16.2091 6 18 7.79086 18 10ZM12.4 10C12.4 10.8837 13.1163 11.6 14 11.6C14.8837 11.6 15.6 10.8837 15.6 10C15.6 9.11634 14.8837 8.4 14 8.4C13.1163 8.4 12.4 9.11634 12.4 10Z" fill="#0D0D0D"/>
<path fill-rule="evenodd" clip-rule="evenodd" d="M57.4991 19.2774V1.7578C57.4991 0.790526 56.7163 0.0078125 55.7491 0.0078125H55.1493L38.8496 0.00781155H38.2498C37.2825 0.00781155 36.4998 0.790526 36.4998 1.7578V8.75761V19.2776C34.1719 20.3482 33.3821 21.5793 33.1846 21.9745C33.0632 22.2171 33 22.4855 33 22.7572V77.0053C33 80.8657 36.1392 84.0051 39.9998 84.0051H53.9992C57.8597 84.0051 60.999 80.8659 60.999 77.0053V22.757C60.999 22.4854 60.9359 22.217 60.8145 21.9743C60.6168 21.5791 59.827 20.348 57.4991 19.2774ZM53.9992 7.54572V3.53683H39.9996V18.1571C41.8248 17.7664 44.1102 17.5071 46.9994 17.5071C49.8885 17.5071 52.1741 17.7661 53.9992 18.1569V13.4691V7.54572ZM53.9992 80.5048C55.9285 80.5048 57.4991 78.9343 57.4991 77.005L57.4992 23.3534C56.8533 22.769 54.3223 21.0071 46.9996 21.0071C39.7742 21.0071 37.2143 22.7228 36.5 23.379V77.005C36.5 78.9343 38.0705 80.5048 39.9998 80.5048H53.9992Z" fill="#0D0D0D"/>
<path d="M51 10C51 12.2091 49.2091 14 47 14C44.7909 14 43 12.2091 43 10C43 7.79086 44.7909 6 47 6C49.2091 6 51 7.79086 51 10ZM45.4 10C45.4 10.8837 46.1163 11.6 47 11.6C47.8837 11.6 48.6 10.8837 48.6 10C48.6 9.11634 47.8837 8.4 47 8.4C46.1163 8.4 45.4 9.11634 45.4 10Z" fill="#0D0D0D"/>
</svg>
