<svg width="32" height="32" viewBox="0 0 32 32" fill="none" xmlns="http://www.w3.org/2000/svg">
<path d="M4.00001 4.25001H4.25001V4.00001V0.25H7.75001V24V24.25H8.00001H21.75V27.75H4.25001V8.00001V7.75001H4.00001H0.25V4.25001H4.00001Z" fill="#0D0D0D" stroke="white" stroke-width="0.5"/>
<path d="M27.75 24V24.25H28H31.75V27.75H28H27.75V28V31.75H24.25V8.00001V7.75001H24H10.25V4.25H27.75V24Z" fill="#0D0D0D" stroke="white" stroke-width="0.5"/>
</svg>
