<svg width="33" height="24" viewBox="0 0 33 24" fill="none" xmlns="http://www.w3.org/2000/svg">
<path d="M20.5433 1.10787C21.152 0.496715 22.1416 0.496713 22.7504 1.10787L32.2476 10.6424C32.9954 11.393 32.9954 12.607 32.2476 13.3576L22.7504 22.8921C22.1416 23.5033 21.152 23.5033 20.5433 22.8921C19.9379 22.2843 19.9379 21.3014 20.5433 20.6936L27.6485 13.5606L1.56062 13.5606C0.698713 13.5606 -4.86862e-07 12.8619 -5.24537e-07 12C-5.62212e-07 11.1381 0.698712 10.4394 1.56062 10.4394L27.6485 10.4394L20.5433 3.30636C19.9379 2.69857 19.9379 1.71566 20.5433 1.10787Z" fill="#0D0D0D"/>
</svg>
