<svg width="37" height="26" viewBox="0 0 37 26" fill="none" xmlns="http://www.w3.org/2000/svg">
<path d="M14.378 25.2085C13.7076 25.8815 12.6179 25.8815 11.9476 25.2085L1.48929 14.7093C0.66589 13.8826 0.66589 12.5458 1.48929 11.7192L11.9476 1.21997C12.618 0.546973 13.7076 0.546975 14.378 1.21998C15.0447 1.88927 15.0447 2.97163 14.378 3.64092L6.55386 11.4957L35.2815 11.4957C36.2306 11.4957 37 12.2651 37 13.2142C37 14.1634 36.2306 14.9328 35.2815 14.9328L6.55386 14.9328L14.378 22.7876C15.0447 23.4569 15.0447 24.5392 14.378 25.2085Z" fill="#0D0D0D"/>
</svg>
