<svg width="30" height="23" viewBox="0 0 30 23" fill="none" xmlns="http://www.w3.org/2000/svg">
<path d="M28.3002 6.10788C29.6071 4.79978 29.6071 2.68015 28.3002 1.37206C26.9916 0.0623434 24.8688 0.0623441 23.5602 1.37206L10.3697 14.5742L6.10558 10.3064C4.79702 8.99663 2.67419 8.99663 1.36562 10.3064C0.0586714 11.6144 0.0586713 13.7341 1.36562 15.0422L8.4535 22.1363C9.5115 23.1952 11.2278 23.1952 12.2858 22.1363L28.3002 6.10788Z" fill="#17AE53"/>
</svg>
