<svg width="34" height="21" viewBox="0 0 34 21" fill="none" xmlns="http://www.w3.org/2000/svg">
<path d="M1.41085 15.6139C0.631296 16.3947 0.631295 17.6593 1.41085 18.4401L2.55133 19.5824C3.33264 20.365 4.6007 20.365 5.382 19.5824L15.5847 9.36353C16.366 8.58099 17.634 8.58099 18.4153 9.36353L28.618 19.5824C29.3993 20.365 30.6674 20.365 31.4487 19.5824L32.5892 18.4401C33.3687 17.6593 33.3687 16.3947 32.5892 15.6139L18.4153 1.41759C17.634 0.635041 16.366 0.63504 15.5847 1.41759L1.41085 15.6139Z" fill="#0D0D0D"/>
</svg>
