<svg width="257" height="167" viewBox="0 0 257 167" fill="none" xmlns="http://www.w3.org/2000/svg">
<path d="M109.169 69.625C106.064 78.8237 97.8183 84.412 88.7484 84.412C87.2959 84.412 85.8714 84.0706 84.4442 83.7785L95.4612 100.304C97.5777 103.478 96.7214 107.758 93.5472 109.875C90.3224 112.012 86.0587 111.088 83.9767 107.961L69.0144 85.5172V166.245H235.569C246.986 166.245 256.274 156.958 256.274 145.541V69.625H109.169Z" fill="black"/>
<path d="M84.3879 56.166L74.5547 62.7237L84.3879 69.2815C89.6228 72.7709 96.6205 69.022 96.6205 62.7306C96.6205 56.4112 89.6026 52.6895 84.3879 56.166Z" fill="black"/>
<path d="M20.7043 0.611328C9.28751 0.611328 0 9.89884 0 21.3157V55.8229H28.86C33.5281 41.9956 49.5855 36.8816 61.2973 44.6821L69.0145 49.8278V0.611328H20.7043Z" fill="black"/>
<path d="M235.569 0.61084H69.0144V49.8274L76.7311 44.6816C88.3191 36.9401 104.472 41.893 109.172 55.8224H256.274V21.3152C256.274 9.89835 246.986 0.61084 235.569 0.61084Z" fill="black"/>
<path d="M53.6413 56.1661C48.3985 52.6707 41.4087 56.4426 41.4087 62.717C41.4087 69.0102 48.381 72.7825 53.6413 69.2816L63.4745 62.7239L53.6413 56.1661Z" fill="black"/>
<path d="M54.0521 107.961C51.9357 111.122 47.6563 111.964 44.4817 109.875C41.3075 107.758 40.4512 103.479 42.5677 100.304L53.5847 83.7785C52.1574 84.0706 50.733 84.412 49.2805 84.412C40.1885 84.412 31.9528 78.8012 28.8568 69.625H0V145.541C0 156.958 9.28751 166.246 20.7043 166.246H69.0145V85.5176L54.0521 107.961Z" fill="black"/>
</svg>
