<svg width="24" height="24" viewBox="0 0 24 24" fill="none" xmlns="http://www.w3.org/2000/svg">
<path fill-rule="evenodd" clip-rule="evenodd" d="M3.52082 19.8281C2.41932 18.7643 1.54073 17.4917 0.936308 16.0847C0.331888 14.6776 0.0137421 13.1643 0.00043544 11.633C-0.0128713 10.1017 0.278927 8.58304 0.858805 7.1657C1.43868 5.74837 2.29503 4.46071 3.37787 3.37787C4.46071 2.29503 5.74837 1.43868 7.1657 0.858805C8.58304 0.278927 10.1017 -0.0128713 11.633 0.00043544C13.1643 0.0137421 14.6776 0.331888 16.0847 0.936308C17.4917 1.54073 18.7643 2.41932 19.8281 3.52082C21.9289 5.69592 23.0914 8.60912 23.0651 11.633C23.0388 14.6568 21.8259 17.5494 19.6877 19.6877C17.5494 21.8259 14.6568 23.0388 11.633 23.0651C8.60912 23.0914 5.69592 21.9289 3.52082 19.8281ZM11.5327 19.6043C15.9913 19.6043 19.6056 15.99 19.6056 11.5314C19.6056 7.07285 15.9913 3.45847 11.5327 3.45847C7.07414 3.45847 3.45976 7.07285 3.45976 11.5314C3.45976 15.99 7.07414 19.6043 11.5327 19.6043ZM20.7589 11.5314C20.7589 16.6269 16.6282 20.7576 11.5327 20.7576C6.4372 20.7576 2.30649 16.6269 2.30649 11.5314C2.30649 6.43591 6.4372 2.30519 11.5327 2.30519C16.6282 2.30519 20.7589 6.43591 20.7589 11.5314ZM12.012 6.08137C12.2147 5.87866 12.4896 5.76478 12.7763 5.76478C13.063 5.76478 13.3379 5.87866 13.5406 6.08137C13.7433 6.28407 13.8572 6.55901 13.8572 6.84568C13.8572 7.13235 13.7433 7.40728 13.5406 7.60999C13.3379 7.8127 13.063 7.92658 12.7763 7.92658C12.4896 7.92658 12.2147 7.8127 12.012 7.60999C11.8093 7.40728 11.6954 7.13235 11.6954 6.84568C11.6954 6.55901 11.8093 6.28407 12.012 6.08137ZM9.3174 11.1405C9.3174 11.1405 11.6593 9.2741 12.5169 9.20204C13.3151 9.13323 13.1539 10.0502 13.0687 10.5346C13.0647 10.5574 13.0609 10.5793 13.0573 10.6C12.9108 11.1883 12.7278 11.8575 12.5477 12.5158C12.1345 14.0269 11.7369 15.4806 11.8323 15.7667C11.934 16.1291 12.6134 15.667 13.0937 15.3403C13.1578 15.2967 13.2183 15.2556 13.2735 15.2191C13.2735 15.2191 13.36 15.1326 13.4464 15.2551C13.4681 15.2869 13.4895 15.3158 13.5092 15.3425C13.6011 15.4665 13.6562 15.5408 13.5257 15.6298C13.5175 15.6354 13.504 15.6447 13.4859 15.6572C13.249 15.8203 12.2195 16.5289 11.8179 16.79C11.3783 17.0782 9.6777 18.051 9.93711 16.163C10.1658 14.8335 10.4708 13.6924 10.7062 12.8116C11.1457 11.1672 11.3427 10.4302 10.3479 11.0684C9.95152 11.3134 9.71373 11.4647 9.56961 11.5584C9.44726 11.6421 9.44575 11.6395 9.36454 11.4992C9.35487 11.4825 9.34407 11.4638 9.33181 11.4431C9.31059 11.406 9.29181 11.3759 9.27619 11.3509C9.20694 11.2401 9.1998 11.2287 9.3174 11.1405Z" fill="white"/>
</svg>
