<svg width="7" height="5" viewBox="0 0 7 5" fill="none" xmlns="http://www.w3.org/2000/svg">
<path d="M4.18604 0.000976856L6.49754 2.31104L4.18604 4.62109L3.7609 4.19621L5.34664 2.61146L-8.78438e-08 2.61146L-1.14108e-07 2.01061L5.34664 2.01061L3.7609 0.425857L4.18604 0.000976856Z" fill="#8D8D8D"/>
</svg>
