<svg width="62" height="63" viewBox="0 0 62 63" fill="none" xmlns="http://www.w3.org/2000/svg">
<circle cx="31" cy="31.2826" r="31" fill="#0D0D0D"/>
<path d="M44.1273 27.4379L36.0333 26.2517L32.415 18.8548C32.3162 18.6523 32.1536 18.4883 31.9527 18.3887C31.4491 18.1379 30.837 18.3469 30.5851 18.8548L26.9669 26.2517L18.8728 27.4379C18.6496 27.4701 18.4456 27.5762 18.2894 27.7369C18.1006 27.9326 17.9965 28.1959 18.0001 28.469C18.0037 28.7421 18.1146 29.0025 18.3085 29.1931L24.1647 34.9506L22.7812 43.0804C22.7487 43.2695 22.7695 43.464 22.8411 43.6419C22.9127 43.8197 23.0322 43.9737 23.1862 44.0865C23.3402 44.1993 23.5225 44.2663 23.7123 44.28C23.9022 44.2936 24.092 44.2534 24.2603 44.1638L31.5001 40.3255L38.7398 44.1638C38.9374 44.2698 39.167 44.3052 39.3869 44.2666C39.9416 44.1702 40.3146 43.6398 40.219 43.0804L38.8354 34.9506L44.6916 29.1931C44.851 29.0356 44.9562 28.8299 44.9881 28.6049C45.0741 28.0423 44.6852 27.5215 44.1273 27.4379Z" fill="white"/>
</svg>
