<svg width="64" height="64" viewBox="0 0 64 64" fill="none" xmlns="http://www.w3.org/2000/svg">
<circle cx="32" cy="32" r="31" fill="#0D0D0D"/>
<path d="M45.8825 45L41.2942 40.4118L45.8825 35.8235V38.8824H52.0001V41.9412H45.8825V45ZM33.6472 19C35.2697 19 36.8257 19.6445 37.973 20.7918C39.1203 21.9391 39.7648 23.4951 39.7648 25.1176C39.7648 26.7401 39.1203 28.2962 37.973 29.4435C36.8257 30.5908 35.2697 31.2353 33.6472 31.2353C32.0247 31.2353 30.4686 30.5908 29.3213 29.4435C28.174 28.2962 27.5295 26.7401 27.5295 25.1176C27.5295 23.4951 28.174 21.9391 29.3213 20.7918C30.4686 19.6445 32.0247 19 33.6472 19ZM33.6472 34.2941C35.406 34.2941 37.0883 34.4776 38.6025 34.8141C37.3666 36.4178 36.6994 38.3871 36.706 40.4118C36.706 41.4824 36.8895 42.5071 37.226 43.4706H21.4119V40.4118C21.4119 37.0318 26.8872 34.2941 33.6472 34.2941Z" fill="white"/>
</svg>
