<svg width="20" height="21" viewBox="0 0 20 21" fill="none" xmlns="http://www.w3.org/2000/svg">
<path d="M19.9575 15.5402C19.9009 15.3698 19.541 15.1187 18.8779 14.7875C18.6983 14.6831 18.4424 14.5413 18.1112 14.3613C17.7798 14.1813 17.4789 14.0155 17.2092 13.864C16.9389 13.7125 16.6857 13.5657 16.4491 13.4238C16.4113 13.3954 16.2929 13.3127 16.0941 13.1751C15.895 13.0378 15.7271 12.936 15.5896 12.8696C15.4523 12.8035 15.3173 12.7703 15.1847 12.7703C14.9953 12.7703 14.7588 12.9053 14.4748 13.1751C14.1908 13.4451 13.9303 13.7385 13.6936 14.056C13.4569 14.3734 13.2059 14.6667 12.941 14.9367C12.6757 15.2067 12.4578 15.3416 12.2875 15.3416C12.202 15.3416 12.0955 15.3177 11.9677 15.2707C11.8401 15.2234 11.7429 15.1828 11.6763 15.1502C11.6102 15.1168 11.4968 15.0507 11.3357 14.9509C11.1743 14.8515 11.0845 14.797 11.0656 14.7875C9.76829 14.0676 8.65563 13.2437 7.72746 12.3159C6.79959 11.3876 5.97556 10.275 5.25586 8.97752C5.24641 8.95857 5.19183 8.86856 5.09247 8.70766C4.99296 8.5466 4.92664 8.43311 4.8935 8.36664C4.86036 8.30042 4.82011 8.20329 4.77285 8.07548C4.72558 7.94766 4.70185 7.84118 4.70185 7.75585C4.70185 7.58549 4.83683 7.36757 5.10675 7.10238C5.37662 6.83734 5.67027 6.58628 5.9874 6.34969C6.30478 6.11311 6.59814 5.8526 6.8681 5.5686C7.13797 5.28445 7.27291 5.04782 7.27291 4.85845C7.27291 4.72596 7.23977 4.59087 7.17355 4.4536C7.10727 4.31603 7.00548 4.14816 6.8681 3.94919C6.73068 3.75032 6.64784 3.63206 6.61938 3.59399C6.47748 3.35741 6.33086 3.10411 6.17915 2.83419C6.02745 2.56433 5.86187 2.26351 5.68186 1.9321C5.502 1.60083 5.36005 1.34504 5.25576 1.16513C4.9245 0.502352 4.67358 0.142328 4.50308 0.0857078C4.43675 0.057298 4.33724 0.0429688 4.2048 0.0429688C3.94896 0.0429688 3.61521 0.0902355 3.20329 0.185067C2.79122 0.27975 2.46697 0.37906 2.23019 0.483395C1.75668 0.682164 1.25481 1.25981 0.724425 2.21614C0.241458 3.10615 0 3.98705 0 4.8582C0 5.11369 0.0165682 5.36227 0.0497047 5.60397C0.0828412 5.84543 0.142049 6.11774 0.227378 6.42084C0.312557 6.72385 0.381268 6.94894 0.433212 7.09551C0.485205 7.24219 0.582276 7.50494 0.724375 7.88387C0.866275 8.2627 0.951604 8.49461 0.980013 8.57984C1.31143 9.50796 1.70444 10.3365 2.15895 11.0658C2.90675 12.2779 3.92727 13.5306 5.21989 14.8233C6.51256 16.1159 7.76498 17.1364 8.9772 17.8845C9.70635 18.3389 10.5352 18.7319 11.4632 19.0635C11.5485 19.0918 11.7804 19.1769 12.159 19.3193C12.5379 19.4613 12.8007 19.5584 12.9474 19.6105C13.0941 19.6626 13.3193 19.7314 13.622 19.8167C13.9254 19.9021 14.1975 19.9613 14.4389 19.9947C14.6805 20.0273 14.9292 20.0442 15.1847 20.0442C16.0558 20.0442 16.9368 19.8026 17.8269 19.3197C18.7832 18.7895 19.3607 18.2875 19.5595 17.8137C19.6641 17.5771 19.7632 17.2528 19.8578 16.8407C19.9528 16.4289 20 16.0951 20 15.8394C20.0003 15.7064 19.986 15.6071 19.9575 15.5402Z" fill="#0D0D0D"/>
</svg>
