<svg width="20" height="20" viewBox="0 0 20 20" fill="none" xmlns="http://www.w3.org/2000/svg">
<path d="M10 0C4.486 0 0 4.486 0 10C0 15.514 4.486 20 10 20C15.514 20 20 15.514 20 10C20 4.486 15.514 0 10 0ZM10 17.8722C5.65933 17.8722 2.12762 14.3409 2.12762 10C2.12762 5.65912 5.65933 2.12783 10 2.12783C14.3407 2.12783 17.8724 5.65912 17.8724 10C17.8724 14.3409 14.3407 17.8722 10 17.8722Z" fill="#0D0D0D"/>
<path d="M15.2111 9.68778H10.7171V4.5V4.28432C10.7171 3.82961 10.3484 3.46094 9.8937 3.46094C9.43898 3.46094 9.07031 3.82961 9.07031 4.28432V10.5112C9.07031 10.9659 9.43898 11.3345 9.8937 11.3345H15.2111C15.6658 11.3345 16.0345 10.9659 16.0345 10.5112C16.0345 10.0564 15.6658 9.68778 15.2111 9.68778Z" fill="#0D0D0D"/>
<path d="M15.2111 9.68778C15.6658 9.68778 16.0345 10.0564 16.0345 10.5112V9.68778H15.2111Z" fill="#0D0D0D"/>
<path d="M16.0345 10.5112C16.0345 10.9659 15.6658 11.3345 15.2111 11.3345H16.0345V10.5112Z" fill="#0D0D0D"/>
<path d="M9.07031 4.28432C9.07031 3.82961 9.43898 3.46094 9.8937 3.46094H9.07031V4.28432Z" fill="#0D0D0D"/>
<path d="M9.8937 3.46094C10.3484 3.46094 10.7171 3.82961 10.7171 4.28432V3.46094H9.8937Z" fill="#0D0D0D"/>
<path d="M9.8937 11.3345C9.43898 11.3345 9.07031 10.9659 9.07031 10.5112V11.3345H9.8937Z" fill="#0D0D0D"/>
</svg>
