<svg width="17" height="20" viewBox="0 0 17 20" fill="none" xmlns="http://www.w3.org/2000/svg">
<path d="M13.795 4.7766L14.3959 3.83223C14.6628 3.41288 14.5392 2.85657 14.1198 2.58971C13.7005 2.3228 13.1442 2.44649 12.8773 2.86591L12.2778 3.80807C11.3942 3.36778 10.4241 3.07668 9.40005 2.96843V1.80007H9.45639C9.95344 1.80007 10.3564 1.3971 10.3564 0.900016C10.3564 0.40293 9.95344 0 9.45639 0H7.54357C7.04652 0 6.64351 0.402968 6.64351 0.900055C6.64351 1.39714 7.04648 1.80011 7.54357 1.80011H7.59998V2.96847C3.33456 3.41941 0 7.03788 0 11.4208C0 16.1077 3.81308 19.9208 8.5 19.9208C13.1869 19.9208 17 16.1077 17 11.4208C17 8.7343 15.7469 6.33536 13.795 4.7766ZM8.5 18.1207C4.80566 18.1207 1.80007 15.1151 1.80007 11.4208C1.80007 7.72647 4.80566 4.72088 8.5 4.72088C12.1943 4.72088 15.1999 7.72647 15.1999 11.4208C15.1999 15.1151 12.1943 18.1207 8.5 18.1207Z" fill="#0D0D0D"/>
<path d="M11.5037 7.97907C11.1293 7.65236 10.5606 7.69088 10.2338 8.06552L7.82293 10.8288C7.49615 11.2033 7.53486 11.7719 7.90939 12.0986C8.28391 12.4254 8.85251 12.3867 9.17926 12.0122L11.5901 9.24894C11.917 8.87441 11.8782 8.30589 11.5037 7.97907Z" fill="#0D0D0D"/>
</svg>
