<svg width="18" height="25" viewBox="0 0 18 25" fill="none" xmlns="http://www.w3.org/2000/svg">
<path d="M8.83543 0.0502319C3.96381 0.0502319 0 4.01404 0 8.88616C0 10.157 0.260111 11.3704 0.77272 12.4928C2.98182 17.3269 7.21729 22.4306 8.46308 23.8795C8.55641 23.9878 8.69248 24.0502 8.83568 24.0502C8.97888 24.0502 9.11495 23.9878 9.20829 23.8795C10.4536 22.4309 14.689 17.3274 16.8989 12.4928C17.4117 11.3704 17.6716 10.157 17.6716 8.88616C17.6711 4.01404 13.7073 0.0502319 8.83543 0.0502319ZM8.83543 13.4756C6.30481 13.4756 4.24578 11.4165 4.24578 8.88591C4.24578 6.35505 6.30481 4.29602 8.83543 4.29602C11.3661 4.29602 13.4251 6.35505 13.4251 8.88591C13.4253 11.4165 11.3663 13.4756 8.83543 13.4756Z" fill="#B79B53"/>
</svg>
