<svg width="47.24" height="21.04" xmlns="http://www.w3.org/2000/svg" data-name="Layer 1">

 <g>
  <title>Layer 1</title>
  <path id="svg_1" fill="#c9a047" d="m7.33,4.42a0.27,0.27 0 0 0 -0.18,0.18a1.43,1.43 0 0 0 0,0.42l0,3.85a1.51,1.51 0 0 0 0,0.43a0.27,0.27 0 0 0 0.18,0.18a1.53,1.53 0 0 0 0.4,0.06l0,0.15l-1,0l-1,0l0,-0.15a1.53,1.53 0 0 0 0.4,-0.06a0.27,0.27 0 0 0 0.18,-0.18a1.51,1.51 0 0 0 0,-0.43l0,-4.16l-1.87,5l-0.12,0l-2,-5l0,4.09a1.67,1.67 0 0 0 0.05,0.46a0.41,0.41 0 0 0 0.2,0.21a1.47,1.47 0 0 0 0.46,0.08l0,0.15l-0.79,0l-0.72,0l0,-0.15a1.16,1.16 0 0 0 0.4,-0.08a0.36,0.36 0 0 0 0.18,-0.22a1.64,1.64 0 0 0 0.05,-0.45l0,-3.8a1.35,1.35 0 0 0 -0.05,-0.42a0.27,0.27 0 0 0 -0.18,-0.18a1.53,1.53 0 0 0 -0.4,-0.06l0,-0.14a7.09,7.09 0 0 0 0.72,0a6.24,6.24 0 0 0 0.66,0l1.71,4.49l1.66,-4.47l0.37,0c0.42,0 0.75,0 1,0l0,0.16a1.53,1.53 0 0 0 -0.4,0.06" class="cls-1"/>
  <path id="svg_2" fill="#c9a047" d="m9.23,9.51a0.94,0.94 0 0 1 -0.24,-0.68a0.9,0.9 0 0 1 0.19,-0.58a1.55,1.55 0 0 1 0.45,-0.36a5.88,5.88 0 0 1 0.69,-0.27a3.13,3.13 0 0 0 0.64,-0.28a0.37,0.37 0 0 0 0.21,-0.33l0,-0.48a0.79,0.79 0 0 0 -0.19,-0.62a0.76,0.76 0 0 0 -0.53,-0.16a1,1 0 0 0 -0.77,0.27a0.46,0.46 0 0 1 0.26,0.17a0.45,0.45 0 0 1 0.11,0.31a0.35,0.35 0 0 1 -0.13,0.3a0.41,0.41 0 0 1 -0.31,0.12a0.39,0.39 0 0 1 -0.33,-0.14a0.52,0.52 0 0 1 -0.11,-0.33a0.52,0.52 0 0 1 0.09,-0.31a1.11,1.11 0 0 1 0.27,-0.25a1.36,1.36 0 0 1 0.47,-0.21a2.08,2.08 0 0 1 0.63,-0.09a1.33,1.33 0 0 1 0.92,0.29a0.91,0.91 0 0 1 0.26,0.43a3,3 0 0 1 0.06,0.66l0,2.16a0.51,0.51 0 0 0 0.06,0.28a0.19,0.19 0 0 0 0.18,0.08a0.39,0.39 0 0 0 0.18,0l0.17,-0.12l0.09,0.13a1.48,1.48 0 0 1 -0.35,0.22a0.74,0.74 0 0 1 -0.36,0.07a0.61,0.61 0 0 1 -0.52,-0.19a0.76,0.76 0 0 1 -0.15,-0.5a1.31,1.31 0 0 1 -0.53,0.54a1.52,1.52 0 0 1 -0.69,0.15a1,1 0 0 1 -0.72,-0.24m1.94,-0.66l0,-1.56a0.55,0.55 0 0 1 -0.19,0.18c-0.08,0 -0.21,0.11 -0.38,0.18a3.54,3.54 0 0 0 -0.48,0.24a1,1 0 0 0 -0.31,0.31a0.83,0.83 0 0 0 -0.13,0.49a0.71,0.71 0 0 0 0.17,0.53a0.58,0.58 0 0 0 0.45,0.18a1,1 0 0 0 0.87,-0.59" class="cls-1"/>
  <path id="svg_3" fill="#c9a047" d="m14.74,9a0.56,0.56 0 0 0 0.13,0.44a0.69,0.69 0 0 0 0.46,0.12l0,0.17l-0.94,0l-0.94,0l0,-0.17a0.7,0.7 0 0 0 0.46,-0.12a0.61,0.61 0 0 0 0.09,-0.44l0,-2.46a0.9,0.9 0 0 0 -0.13,-0.52a0.61,0.61 0 0 0 -0.46,-0.16l0,-0.16l0.48,0a2.4,2.4 0 0 0 0.81,-0.11l0.04,3.41zm-0.06,-5.06a0.45,0.45 0 0 1 0.15,0.34a0.45,0.45 0 0 1 -0.15,0.35a0.47,0.47 0 0 1 -0.35,0.15a0.49,0.49 0 0 1 -0.33,-0.18a0.45,0.45 0 0 1 -0.14,-0.35a0.44,0.44 0 0 1 0.14,-0.34a0.49,0.49 0 0 1 0.35,-0.15a0.47,0.47 0 0 1 0.35,0.15" class="cls-1"/>
  <path id="svg_4" fill="#c9a047" d="m18.28,5.67a1.3,1.3 0 0 1 0.35,0.21a0.24,0.24 0 0 0 0.13,0.06c0.1,0 0.15,-0.12 0.18,-0.34l0.17,0q0,0.38 0,1.32l-0.21,0a1.77,1.77 0 0 0 -0.33,-0.85a0.83,0.83 0 0 0 -0.72,-0.33a0.65,0.65 0 0 0 -0.46,0.16a0.54,0.54 0 0 0 -0.18,0.43a0.59,0.59 0 0 0 0.19,0.46a3.32,3.32 0 0 0 0.6,0.44l0.21,0.13c0.23,0.15 0.42,0.29 0.57,0.41a1.69,1.69 0 0 1 0.35,0.41a1.06,1.06 0 0 1 0.14,0.54a1,1 0 0 1 -0.39,0.8a1.52,1.52 0 0 1 -0.94,0.28a1.45,1.45 0 0 1 -0.61,-0.11a1.32,1.32 0 0 1 -0.32,-0.2a0.08,0.08 0 0 0 -0.07,0s-0.07,0 -0.1,0.08a0.58,0.58 0 0 0 -0.06,0.22l-0.18,0c0,-0.3 0,-0.81 0,-1.55l0.18,0a2.79,2.79 0 0 0 0.31,1.09a0.84,0.84 0 0 0 0.77,0.36a0.72,0.72 0 0 0 0.48,-0.18a0.7,0.7 0 0 0 0.21,-0.56a0.69,0.69 0 0 0 -0.21,-0.51a3.77,3.77 0 0 0 -0.67,-0.51c-0.25,-0.16 -0.45,-0.29 -0.58,-0.39a1.4,1.4 0 0 1 -0.35,-0.38a1,1 0 0 1 -0.14,-0.53a0.9,0.9 0 0 1 0.33,-0.75a1.27,1.27 0 0 1 0.82,-0.25a1.59,1.59 0 0 1 0.5,0.08" class="cls-1"/>
  <path id="svg_5" fill="#c9a047" d="m23.7,6.11a2.24,2.24 0 0 1 0.49,1.59a2.2,2.2 0 0 1 -0.49,1.58a1.63,1.63 0 0 1 -1.27,0.52a1.65,1.65 0 0 1 -1.28,-0.52a2.25,2.25 0 0 1 -0.48,-1.58a2.29,2.29 0 0 1 0.48,-1.59a1.65,1.65 0 0 1 1.28,-0.52a1.63,1.63 0 0 1 1.27,0.52m-2,0.11a3.12,3.12 0 0 0 -0.27,1.48a3,3 0 0 0 0.27,1.47a0.83,0.83 0 0 0 0.74,0.48a0.84,0.84 0 0 0 0.74,-0.48a3,3 0 0 0 0.27,-1.47a3.12,3.12 0 0 0 -0.27,-1.48a0.84,0.84 0 0 0 -0.74,-0.48a0.83,0.83 0 0 0 -0.74,0.48" class="cls-1"/>
  <path id="svg_6" fill="#c9a047" d="m28.88,5.88a1,1 0 0 1 0.21,0.39a2.68,2.68 0 0 1 0.06,0.63l0,2.1a0.56,0.56 0 0 0 0.13,0.44a0.69,0.69 0 0 0 0.46,0.12l0,0.17l-0.93,0c-0.15,0 -0.44,0 -0.87,0l0,-0.17a0.55,0.55 0 0 0 0.4,-0.12a0.67,0.67 0 0 0 0.11,-0.44l0,-2.27a1.44,1.44 0 0 0 -0.12,-0.66a0.53,0.53 0 0 0 -0.51,-0.23a1,1 0 0 0 -0.57,0.18a1.32,1.32 0 0 0 -0.38,0.51a1.89,1.89 0 0 0 -0.14,0.72l0,1.75a0.61,0.61 0 0 0 0.12,0.44a0.53,0.53 0 0 0 0.4,0.12l0,0.17l-0.87,0l-0.93,0l0,-0.17a0.66,0.66 0 0 0 0.45,-0.12a0.56,0.56 0 0 0 0.1,-0.44l0,-2.46a0.83,0.83 0 0 0 -0.1,-0.54a0.57,0.57 0 0 0 -0.45,-0.16l0,-0.14l0.48,0a2.31,2.31 0 0 0 0.8,-0.11l0,0.92a1.46,1.46 0 0 1 0.54,-0.72a1.39,1.39 0 0 1 0.78,-0.22a1.12,1.12 0 0 1 0.83,0.29" class="cls-1"/>
  <path id="svg_7" fill="#c9a047" d="m35.83,4.52a1.1,1.1 0 0 1 0.4,0.9a1.65,1.65 0 0 1 -0.16,0.7a4.09,4.09 0 0 1 -0.4,0.69c-0.16,0.22 -0.4,0.52 -0.71,0.91s-0.79,1 -1.07,1.38l1.7,0a0.47,0.47 0 0 0 0.39,-0.16a1,1 0 0 0 0.18,-0.55l0.17,0c0,0.11 0,0.26 0,0.44s0,0.55 0,0.85l-3,0l0,-0.15c0.38,-0.43 0.73,-0.84 1,-1.24a7.13,7.13 0 0 0 0.8,-1.32a3.22,3.22 0 0 0 0.36,-1.43a1.31,1.31 0 0 0 -0.26,-0.87a0.8,0.8 0 0 0 -0.66,-0.3a1.07,1.07 0 0 0 -0.53,0.13a0.73,0.73 0 0 0 -0.34,0.38a0.72,0.72 0 0 1 0.3,0.12a0.35,0.35 0 0 1 0.12,0.28a0.36,0.36 0 0 1 -0.12,0.28a0.41,0.41 0 0 1 -0.3,0.11a0.37,0.37 0 0 1 -0.29,-0.12a0.44,0.44 0 0 1 -0.11,-0.3a0.64,0.64 0 0 1 0.1,-0.25a1.08,1.08 0 0 1 0.2,-0.29a1.34,1.34 0 0 1 0.54,-0.37a1.85,1.85 0 0 1 0.67,-0.12a1.58,1.58 0 0 1 1,0.32" class="cls-1"/>
  <path id="svg_8" fill="#c9a047" d="m39.15,8.88a1.47,1.47 0 0 0 0,0.42a0.29,0.29 0 0 0 0.17,0.17a1.61,1.61 0 0 0 0.4,0.06l0,0.15l-1,0l-1.09,0l0,-0.15a2.2,2.2 0 0 0 0.49,-0.06a0.33,0.33 0 0 0 0.21,-0.17a1.1,1.1 0 0 0 0.06,-0.42l0,-3.43a0.77,0.77 0 0 0 -0.07,-0.39a0.37,0.37 0 0 0 -0.26,-0.16a2.38,2.38 0 0 0 -0.55,-0.05l0,-0.16a5.15,5.15 0 0 0 0.92,-0.2a4.4,4.4 0 0 0 0.65,-0.26l0.07,4.65z" class="cls-1"/>
  <path id="svg_9" fill="#c9a047" d="m45.13,4.33a3.53,3.53 0 0 1 0.63,0.36a0.28,0.28 0 0 0 0.15,0.08c0.1,0 0.16,-0.15 0.19,-0.46l0.18,0c0,0.33 0,0.91 0,1.74l-0.17,0c0,-0.26 -0.09,-0.49 -0.14,-0.66a1.34,1.34 0 0 0 -0.24,-0.46a1.54,1.54 0 0 0 -0.57,-0.43a1.76,1.76 0 0 0 -0.74,-0.16a1.32,1.32 0 0 0 -0.88,0.32a2.07,2.07 0 0 0 -0.59,0.93a4.37,4.37 0 0 0 -0.2,1.41a3.6,3.6 0 0 0 0.43,2a1.54,1.54 0 0 0 1.37,0.64a1.3,1.3 0 0 0 0.79,-0.24a0.51,0.51 0 0 0 0.18,-0.18a0.49,0.49 0 0 0 0,-0.24l0,-0.73a1.3,1.3 0 0 0 -0.06,-0.46a0.38,0.38 0 0 0 -0.21,-0.2a2.29,2.29 0 0 0 -0.49,-0.06l0,-0.16c0.26,0 0.62,0 1.07,0s0.6,0 0.79,0l0,0.16a0.71,0.71 0 0 0 -0.26,0.06a0.23,0.23 0 0 0 -0.1,0.17a2.12,2.12 0 0 0 0,0.42l0,1.5l-0.15,0a1.36,1.36 0 0 0 -0.06,-0.29c0,-0.09 -0.09,-0.14 -0.15,-0.14l-0.09,0l-0.16,0.11a2,2 0 0 1 -0.55,0.31a2.08,2.08 0 0 1 -0.63,0.1a2.68,2.68 0 0 1 -1.34,-0.32a2.21,2.21 0 0 1 -0.86,-0.93a3.41,3.41 0 0 1 -0.27,-1.43a3.51,3.51 0 0 1 0.31,-1.53a2.46,2.46 0 0 1 0.87,-1a2.34,2.34 0 0 1 1.26,-0.35a1.75,1.75 0 0 1 0.74,0.13" class="cls-1"/>
  <path id="svg_10" fill="#c9a047" d="m18.26,15.55l0,0.72a0.61,0.61 0 0 0 0,0.22a0.23,0.23 0 0 0 0.12,0.09a1.2,1.2 0 0 0 0.25,0l0,0.08l-1.06,0l0,-0.08a0.79,0.79 0 0 0 0.21,0a0.2,0.2 0 0 0 0.09,-0.09a0.65,0.65 0 0 0 0,-0.22l0,-2a0.59,0.59 0 0 0 0,-0.22a0.18,0.18 0 0 0 -0.09,-0.1l-0.21,0l0,-0.08l0.49,0l0.6,0a1.07,1.07 0 0 1 0.71,0.21a0.73,0.73 0 0 1 0.25,0.57a1,1 0 0 1 -0.1,0.42a0.89,0.89 0 0 1 -0.33,0.34a1.24,1.24 0 0 1 -0.62,0.13l-0.31,0.01zm0.11,-1.55a0.14,0.14 0 0 0 -0.08,0.1a0.61,0.61 0 0 0 0,0.22l0,1.17l0.27,0a0.62,0.62 0 0 0 0.54,-0.21a0.93,0.93 0 0 0 0.15,-0.56a0.81,0.81 0 0 0 -0.16,-0.56a0.59,0.59 0 0 0 -0.5,-0.19a0.47,0.47 0 0 0 -0.19,0" class="cls-1"/>
  <path id="svg_11" fill="#c9a047" d="m22.78,16.61l0,0.08l-0.93,0l0,-0.08a0.57,0.57 0 0 0 0.22,0a0.11,0.11 0 0 0 0.06,-0.11a0.62,0.62 0 0 0 -0.05,-0.18l-0.24,-0.66l-1,0l-0.17,0.43a1.12,1.12 0 0 0 -0.08,0.32a0.2,0.2 0 0 0 0.09,0.18a0.45,0.45 0 0 0 0.26,0.06l0,0.08l-0.76,0l0,-0.08c0.14,0 0.24,-0.15 0.32,-0.35l0.93,-2.41l0.07,0l1,2.51c0.06,0.16 0.15,0.25 0.27,0.25m-1,-1.07l-0.45,-1.19l-0.45,1.19l0.9,0z" class="cls-1"/>
  <path id="svg_12" fill="#c9a047" d="m26,16.49a0.72,0.72 0 0 1 -0.18,0.2a0.44,0.44 0 0 1 -0.25,0.06a0.4,0.4 0 0 1 -0.26,-0.1a0.6,0.6 0 0 1 -0.16,-0.33l-0.09,-0.4a1.9,1.9 0 0 0 -0.06,-0.32a0.57,0.57 0 0 0 -0.12,-0.18a0.43,0.43 0 0 0 -0.24,-0.07l-0.38,0l0,0.92a0.61,0.61 0 0 0 0,0.22a0.13,0.13 0 0 0 0.09,0.09a0.79,0.79 0 0 0 0.21,0l0,0.08l-1,0l0,-0.08a0.79,0.79 0 0 0 0.21,0a0.2,0.2 0 0 0 0.09,-0.09a0.65,0.65 0 0 0 0,-0.22l0,-2a0.59,0.59 0 0 0 0,-0.22a0.18,0.18 0 0 0 -0.09,-0.1l-0.21,0l0,-0.08l0.49,0l0.6,0a1.15,1.15 0 0 1 0.71,0.19a0.62,0.62 0 0 1 0.25,0.5a0.76,0.76 0 0 1 -0.32,0.59a1,1 0 0 1 -0.46,0.17l0.05,0a0.67,0.67 0 0 1 0.38,0.16a0.75,0.75 0 0 1 0.18,0.37l0.1,0.4a0.8,0.8 0 0 0 0.08,0.26a0.15,0.15 0 0 0 0.12,0.07a0.14,0.14 0 0 0 0.11,0a0.38,0.38 0 0 0 0.11,-0.11l0.04,0.02zm-1.67,-2.49a0.14,0.14 0 0 0 -0.08,0.1a0.61,0.61 0 0 0 0,0.22l0,1l0.27,0a0.71,0.71 0 0 0 0.48,-0.22a0.74,0.74 0 0 0 0.15,-0.49a0.67,0.67 0 0 0 -0.16,-0.49a0.66,0.66 0 0 0 -0.5,-0.17a0.47,0.47 0 0 0 -0.19,0" class="cls-1"/>
  <path id="svg_13" fill="#c9a047" d="m27.81,14l-0.21,0a0.18,0.18 0 0 0 -0.09,0.1a0.56,0.56 0 0 0 0,0.21l0,2a0.65,0.65 0 0 0 0,0.22a0.2,0.2 0 0 0 0.09,0.09l0.21,0l0,0.08l-1,0l0,-0.08l0.21,0a0.13,0.13 0 0 0 0.09,-0.09a0.61,0.61 0 0 0 0,-0.22l0,-2a0.51,0.51 0 0 0 0,-0.21a0.13,0.13 0 0 0 -0.11,-0.1l-0.21,0l0,-0.08l0.51,0l0.51,0l0,0.08z" class="cls-1"/>
  <path id="svg_14" fill="#c9a047" d="m30,13.87a0.81,0.81 0 0 1 0.2,0.11a0.39,0.39 0 0 0 0.14,0.05a0.05,0.05 0 0 0 0.05,0a0.33,0.33 0 0 0 0,-0.13l0.09,0a8,8 0 0 0 0,0.81l-0.09,0a1,1 0 0 0 -0.19,-0.54a0.54,0.54 0 0 0 -0.47,-0.23a0.52,0.52 0 0 0 -0.35,0.13a0.45,0.45 0 0 0 -0.13,0.34a0.46,0.46 0 0 0 0.07,0.26a0.54,0.54 0 0 0 0.18,0.19l0.3,0.2l0.12,0.07a4.61,4.61 0 0 1 0.39,0.28a0.78,0.78 0 0 1 0.24,0.27a0.75,0.75 0 0 1 0.08,0.35a0.68,0.68 0 0 1 -0.24,0.56a0.9,0.9 0 0 1 -0.6,0.2a1.23,1.23 0 0 1 -0.31,0l-0.24,-0.11a0.24,0.24 0 0 0 -0.13,-0.06s0,0 -0.06,0a1.06,1.06 0 0 0 0,0.14l-0.09,0c0,-0.15 0,-0.47 0,-1l0.04,0a1.29,1.29 0 0 0 0.2,0.66a0.6,0.6 0 0 0 0.52,0.25a0.53,0.53 0 0 0 0.37,-0.14a0.5,0.5 0 0 0 0.15,-0.39a0.52,0.52 0 0 0 -0.15,-0.38a2.71,2.71 0 0 0 -0.47,-0.35a4,4 0 0 1 -0.38,-0.26a0.85,0.85 0 0 1 -0.24,-0.26a0.75,0.75 0 0 1 -0.09,-0.37a0.61,0.61 0 0 1 0.21,-0.51a0.84,0.84 0 0 1 0.54,-0.18a0.72,0.72 0 0 1 0.28,0" class="cls-1"/>
 </g>
</svg>