<svg width="211" height="77" viewBox="0 0 211 77" fill="none" xmlns="http://www.w3.org/2000/svg">
<path d="M27.1906 3.16566C26.8 3.3163 26.4874 3.61757 26.3312 3.99416C26.1749 4.37076 26.0968 5.04862 26.0968 5.95244V23.6522C26.0968 24.5561 26.1749 25.2339 26.3312 25.6105C26.4874 25.9871 26.7218 26.2884 27.1906 26.439C27.5813 26.5897 28.2064 26.665 29.144 26.7403V27.4182C27.972 27.3428 26.4093 27.3428 24.4559 27.3428C22.3463 27.3428 20.7836 27.3428 19.6898 27.4182V26.7403C20.5492 26.665 21.2524 26.5897 21.6431 26.439C22.0338 26.2884 22.3463 25.9871 22.5026 25.6105C22.6589 25.2339 22.737 24.5561 22.737 23.6522V4.52139L13.7516 27.5688H13.1265L3.82857 4.44607V23.2757C3.82857 24.1795 3.9067 24.8573 4.06297 25.3093C4.21923 25.7612 4.53177 26.0624 5.00058 26.2884C5.46938 26.5143 6.25072 26.665 7.18833 26.665V27.3428C6.32885 27.2675 5.07871 27.2675 3.4379 27.2675C1.95335 27.2675 0.78134 27.2675 0 27.3428V26.665C0.859474 26.5897 1.48455 26.5143 1.95335 26.2884C2.34402 26.1378 2.65656 25.7612 2.73469 25.3093C2.89096 24.8573 2.96909 24.1795 2.96909 23.2757V5.95244C2.96909 5.04862 2.89096 4.37076 2.73469 3.99416C2.65656 3.61757 2.34402 3.3163 1.95335 3.16566C1.56268 3.01503 0.859474 2.93971 0 2.86439V2.18652C0.78134 2.26184 1.95335 2.26184 3.4379 2.26184C4.68804 2.26184 5.78191 2.26184 6.56325 2.18652L14.6892 22.8237L22.6589 2.26184H24.3778C26.4093 2.26184 27.972 2.26184 29.0658 2.18652V2.86439C28.2064 2.93971 27.5813 3.01503 27.1906 3.16566Z" fill="white"/>
<path d="M36.1759 26.5018C35.3946 25.7486 35.082 24.6942 35.082 23.4138C35.082 22.3593 35.3946 21.4555 36.0196 20.7776C36.6447 20.0998 37.3479 19.5725 38.1293 19.1206C38.9887 18.744 40.0826 18.2921 41.4109 17.8402C42.8173 17.3883 43.833 16.9364 44.4581 16.5598C45.1613 16.1832 45.4739 15.656 45.4739 15.0534V12.8692C45.4739 11.5135 45.1613 10.5343 44.5362 10.0071C43.9112 9.47987 43.0517 9.25391 42.036 9.25391C40.317 9.25391 39.0669 9.70582 38.3637 10.5343C38.8325 10.685 39.3013 10.9109 39.6138 11.2875C39.9263 11.6641 40.0826 12.116 40.0826 12.7186C40.0826 13.3211 39.8482 13.773 39.4575 14.1496C39.0669 14.5262 38.5199 14.6768 37.973 14.6768C37.2698 14.6768 36.801 14.4509 36.4103 14.0743C36.0978 13.6224 35.8634 13.1705 35.8634 12.5679C35.8634 11.9654 36.0196 11.5135 36.254 11.1369C36.5666 10.7603 36.9572 10.3837 37.5042 10.0071C38.1293 9.63051 38.8325 9.25391 39.7701 9.02796C40.7077 8.802 41.6453 8.65137 42.7392 8.65137C44.6925 8.65137 46.0989 9.10328 47.1147 10.0071C47.7397 10.5343 48.1304 11.2122 48.3648 11.9654C48.5992 12.7186 48.6773 13.773 48.6773 14.9781V24.9201C48.6773 25.5227 48.7555 25.9746 48.9117 26.2005C49.068 26.4265 49.3806 26.5771 49.7712 26.5771C50.0838 26.5771 50.3182 26.5018 50.6307 26.3512C50.8651 26.2005 51.1776 26.0499 51.4902 25.8239L51.8808 26.4265C51.2558 26.8784 50.7088 27.255 50.24 27.4056C49.7712 27.6316 49.2243 27.7069 48.5211 27.7069C47.3491 27.7069 46.4896 27.4056 46.0208 26.8784C45.552 26.2759 45.3176 25.5227 45.3176 24.5435C44.6144 25.7486 43.7549 26.5771 42.7392 27.029C41.8016 27.481 40.7077 27.7069 39.4575 27.7069C38.1293 27.6316 36.9572 27.255 36.1759 26.5018ZM45.4739 23.4891V16.4845C45.2394 16.7857 44.9269 17.087 44.5362 17.313C44.1456 17.5389 43.5205 17.8402 42.7392 18.1415C41.8016 18.5181 41.0202 18.8947 40.4733 19.1959C39.9263 19.5725 39.3794 20.0244 38.9887 20.627C38.5981 21.2295 38.3637 21.9827 38.3637 22.8865C38.3637 23.941 38.5981 24.7695 39.145 25.2967C39.6919 25.8239 40.3951 26.1252 41.2546 26.1252C42.8954 26.2005 44.3018 25.2967 45.4739 23.4891Z" fill="white"/>
<path d="M62.4304 24.0948C62.4304 25.0739 62.6648 25.7518 63.0555 26.1284C63.4461 26.505 64.2275 26.6556 65.2432 26.6556V27.4088C62.9773 27.3335 61.4928 27.2582 60.7896 27.2582C60.0864 27.2582 58.6018 27.3335 56.3359 27.4088V26.6556C57.3517 26.6556 58.133 26.505 58.5237 26.1284C58.9144 25.7518 59.1488 25.0739 59.1488 24.0948V12.9477C59.1488 11.8179 58.9144 11.0647 58.5237 10.5375C58.133 10.0103 57.3517 9.7843 56.3359 9.7843V9.03112C57.1173 9.10644 57.8986 9.10644 58.6018 9.10644C60.1645 9.10644 61.4146 8.9558 62.4304 8.57921V24.0948ZM62.196 0.82142C62.6648 1.27333 62.8992 1.80056 62.8992 2.4031C62.8992 3.00565 62.6648 3.53288 62.196 3.98479C61.7272 4.4367 61.1802 4.66265 60.5552 4.66265C59.9301 4.66265 59.3832 4.4367 58.9144 3.98479C58.4456 3.53288 58.2112 3.00565 58.2112 2.4031C58.2112 1.80056 58.4456 1.27333 58.9144 0.82142C59.305 0.36951 59.852 0.143555 60.5552 0.143555C61.1802 0.143555 61.7272 0.36951 62.196 0.82142Z" fill="white"/>
<path d="M79.3056 8.94983C80.0088 9.17579 80.5557 9.55238 80.9464 9.85365C81.1808 10.0796 81.4152 10.1549 81.6496 10.1549C82.1184 10.1549 82.3528 9.6277 82.431 8.57324H83.2904C83.2123 9.70302 83.1342 11.7366 83.1342 14.5987H82.2747C82.0403 13.017 81.4933 11.7366 80.712 10.6822C79.9307 9.6277 78.7587 9.17579 77.2741 9.17579C76.4146 9.17579 75.6333 9.40174 75.0864 9.92897C74.5394 10.3809 74.2269 11.0587 74.2269 11.9626C74.2269 12.7911 74.5394 13.4689 75.0864 14.0715C75.7114 14.5987 76.649 15.2766 77.8992 16.1051C78.1336 16.2557 78.4461 16.4064 78.9149 16.7076C80.0869 17.3855 80.9464 18.0634 81.6496 18.5906C82.3528 19.1178 82.8998 19.7957 83.3686 20.4735C83.8374 21.1514 83.9936 21.9799 83.9936 22.959C83.9936 24.5407 83.3686 25.7458 82.1965 26.6496C80.9464 27.5535 79.4619 28.0054 77.7429 28.0054C76.649 28.0054 75.6333 27.8547 74.852 27.4781C74.305 27.2522 73.8362 26.8756 73.3674 26.499C73.2893 26.4237 73.133 26.3484 73.0549 26.3484C72.8986 26.3484 72.7423 26.499 72.5861 26.725C72.4298 26.9509 72.3517 27.3275 72.2735 27.7041H71.4141C71.4922 26.3484 71.5703 23.9382 71.5703 20.5489H72.4298C72.6642 22.8084 73.2111 24.4654 73.9143 25.5199C74.6176 26.6496 75.8677 27.1769 77.5866 27.1769C78.4461 27.1769 79.2275 26.8756 79.8525 26.3484C80.5557 25.8211 80.8683 24.9173 80.8683 23.7875C80.8683 22.8837 80.5557 22.0552 79.8525 21.4527C79.2275 20.7748 78.1336 20.0216 76.649 19.1178C75.477 18.3646 74.5394 17.7621 73.8362 17.3102C73.2111 16.8583 72.6642 16.2557 72.1954 15.5778C71.7266 14.9 71.4922 14.0715 71.4922 13.1677C71.4922 11.6613 72.0391 10.5315 73.0549 9.77834C74.0706 9.02515 75.3989 8.57324 76.9616 8.57324C77.821 8.57324 78.6024 8.64856 79.3056 8.94983Z" fill="white"/>
<path d="M105.17 10.9844C106.732 12.5661 107.514 15.0516 107.514 18.2903C107.514 21.529 106.732 23.9392 105.17 25.5962C103.607 27.1778 101.575 28.0064 99.0752 28.0064C96.5749 28.0064 94.5434 27.1778 92.9807 25.5962C91.4181 24.0145 90.6367 21.6043 90.6367 18.2903C90.6367 15.0516 91.4181 12.6414 92.9807 10.9844C94.5434 9.40272 96.5749 8.57422 99.0752 8.57422C101.575 8.57422 103.607 9.3274 105.17 10.9844ZM95.5592 11.4363C94.6997 12.8674 94.2309 15.1269 94.2309 18.215C94.2309 21.303 94.6997 23.5626 95.5592 24.9936C96.4186 26.4247 97.5906 27.1779 99.0752 27.1779C100.56 27.1779 101.732 26.4247 102.591 24.9936C103.451 23.5626 103.919 21.303 103.919 18.215C103.919 15.1269 103.451 12.8674 102.591 11.4363C101.732 10.0053 100.56 9.25208 99.0752 9.25208C97.5906 9.25208 96.4186 10.0053 95.5592 11.4363Z" fill="white"/>
<path d="M129.779 9.93398C130.248 10.3859 130.561 10.9884 130.795 11.7416C131.029 12.4195 131.108 13.3986 131.108 14.6037V24.0938C131.108 25.073 131.342 25.7508 131.733 26.1274C132.123 26.504 132.905 26.6546 133.92 26.6546V27.4078C131.654 27.3325 130.17 27.2572 129.467 27.2572C128.763 27.2572 127.435 27.3325 125.326 27.4078V26.6546C126.263 26.6546 126.888 26.504 127.201 26.1274C127.591 25.7508 127.748 25.073 127.748 24.0938V13.7752C127.748 12.4195 127.513 11.4403 127.123 10.7625C126.732 10.0846 125.951 9.70802 124.701 9.70802C123.685 9.70802 122.825 10.0093 121.966 10.5365C121.184 11.1391 120.559 11.8923 120.169 12.8714C119.7 13.8505 119.544 14.9803 119.544 16.1854V24.0938C119.544 25.073 119.7 25.7508 120.091 26.1274C120.481 26.504 121.106 26.6546 121.966 26.6546V27.4078C119.934 27.3325 118.528 27.2572 117.825 27.2572C117.122 27.2572 115.637 27.3325 113.371 27.4078V26.6546C114.387 26.6546 115.168 26.504 115.559 26.1274C115.95 25.7508 116.184 25.073 116.184 24.0938V12.9467C116.184 11.8169 115.95 11.0638 115.559 10.5365C115.168 10.0093 114.387 9.78334 113.371 9.78334V9.03016C114.152 9.10548 114.934 9.10548 115.637 9.10548C117.2 9.10548 118.45 8.95484 119.466 8.57825V12.7961C120.091 11.2897 120.95 10.1599 122.044 9.48207C123.138 8.8042 124.388 8.50293 125.794 8.50293C127.591 8.57825 128.92 9.03016 129.779 9.93398Z" fill="white"/>
<path d="M161.505 6.54616C162.599 7.44998 163.146 8.65507 163.146 10.1614C163.146 11.0653 162.912 12.0444 162.443 12.9482C161.974 13.9274 161.427 14.8312 160.724 15.735C160.021 16.6388 159.083 17.8439 157.755 19.4256C155.958 21.6098 154.473 23.4928 153.301 24.9991H160.411C161.114 24.9991 161.661 24.7732 162.052 24.3966C162.443 23.9447 162.677 23.2668 162.833 22.1371H163.537C163.458 22.589 163.458 23.1915 163.458 23.8694C163.458 24.9238 163.537 26.1289 163.693 27.334H156.817H152.52C151.738 27.334 151.191 27.334 150.879 27.334V26.7315C152.52 24.9991 153.926 23.3421 155.176 21.7605C156.426 20.1788 157.598 18.3711 158.536 16.4129C159.552 14.4546 160.021 12.4963 160.021 10.6887C160.021 9.1823 159.708 7.97721 159.005 7.14871C158.302 6.3202 157.364 5.94361 156.192 5.94361C155.411 5.94361 154.629 6.09425 154.004 6.47084C153.301 6.84743 152.832 7.37466 152.598 7.97721C153.145 8.05253 153.614 8.20316 153.926 8.50444C154.239 8.80571 154.473 9.10698 154.473 9.63421C154.473 10.0861 154.317 10.4627 154.004 10.764C153.692 11.0653 153.223 11.2159 152.754 11.2159C152.207 11.2159 151.817 11.0653 151.504 10.6887C151.191 10.3874 151.035 9.93548 151.035 9.48357C151.035 9.10698 151.113 8.73039 151.348 8.3538C151.504 7.97721 151.817 7.5253 152.207 7.14871C152.832 6.47084 153.614 5.94361 154.473 5.64234C155.333 5.34107 156.27 5.19043 157.286 5.19043C158.927 5.19043 160.411 5.64234 161.505 6.54616Z" fill="white"/>
<path d="M175.411 24.1724C175.411 24.9255 175.489 25.5281 175.567 25.8294C175.723 26.206 175.958 26.4319 176.27 26.5072C176.583 26.6579 177.208 26.7332 177.911 26.7332V27.3357C177.052 27.2604 175.645 27.2604 173.848 27.2604C171.895 27.2604 170.41 27.2604 169.238 27.3357V26.7332C170.176 26.6579 170.879 26.5825 171.348 26.5072C171.739 26.3566 172.051 26.1306 172.207 25.8294C172.364 25.4528 172.442 24.9255 172.442 24.1724V10.2385C172.442 9.48528 172.364 9.03337 172.129 8.65678C171.895 8.35551 171.582 8.12955 171.035 7.97891C170.488 7.9036 169.785 7.82828 168.77 7.82828V7.22573C170.332 6.99978 171.582 6.6985 172.598 6.39723C173.614 6.09596 174.551 5.71937 175.333 5.34277V24.1724H175.411Z" fill="white"/>
<path d="M204.709 5.70765C205.49 6.00892 206.428 6.53615 207.365 7.21402C207.678 7.43997 207.834 7.51529 207.99 7.51529C208.381 7.51529 208.693 6.91274 208.772 5.63233H209.475C209.397 6.98806 209.318 9.32293 209.318 12.7123H208.615C208.459 11.6578 208.225 10.754 207.99 10.0008C207.756 9.32293 207.443 8.64507 206.974 8.11784C206.349 7.36465 205.568 6.76211 204.552 6.38552C203.537 5.93361 202.521 5.70765 201.427 5.70765C200.021 5.70765 198.77 6.15956 197.755 7.06338C196.661 7.9672 195.879 9.17229 195.333 10.8293C194.786 12.4863 194.473 14.3693 194.473 16.5535C194.473 20.2441 195.098 22.9556 196.27 24.6126C197.52 26.3449 199.395 27.1734 202.052 27.1734C203.302 27.1734 204.396 26.8721 205.334 26.1942C205.724 25.9683 205.959 25.7423 206.115 25.4411C206.193 25.2151 206.271 24.9138 206.271 24.4619V21.5245C206.271 20.696 206.193 20.0181 206.037 19.6415C205.881 19.265 205.568 18.9637 205.177 18.813C204.787 18.6624 204.084 18.5871 203.068 18.5118V17.9092C204.162 17.9845 205.646 17.9845 207.6 17.9845C209.006 17.9845 210.178 17.9845 210.881 17.9092V18.5118C210.412 18.5871 210.022 18.6624 209.787 18.7377C209.553 18.8884 209.397 19.1143 209.318 19.4156C209.24 19.7922 209.24 20.3194 209.24 21.0726V27.1734H208.615C208.615 26.7968 208.537 26.3449 208.381 25.9683C208.225 25.5917 208.068 25.3657 207.756 25.3657C207.6 25.3657 207.521 25.3657 207.365 25.4411C207.209 25.5164 207.053 25.667 206.662 25.893C205.881 26.4202 205.177 26.8721 204.318 27.1734C203.537 27.4747 202.599 27.6253 201.661 27.6253C199.474 27.6253 197.598 27.1734 196.036 26.3449C194.473 25.4411 193.301 24.236 192.442 22.579C191.582 20.922 191.191 18.9637 191.191 16.7041C191.191 14.3693 191.66 12.3357 192.52 10.528C193.379 8.72038 194.629 7.36465 196.192 6.46083C197.755 5.48169 199.474 5.02979 201.505 5.02979C202.911 5.18042 203.927 5.40638 204.709 5.70765Z" fill="white"/>
<path d="M70.1528 69.5261V73.4427C70.1528 73.9699 70.2309 74.4218 70.3091 74.6478C70.4653 74.8737 70.6216 75.0244 70.9341 75.175C71.2467 75.2503 71.7155 75.3256 72.4187 75.3256V75.7775C71.6373 75.7022 70.5435 75.7022 69.137 75.7022C67.8088 75.7022 66.8712 75.7022 66.2461 75.7775V75.3256C66.793 75.3256 67.1837 75.2503 67.4181 75.175C67.6525 75.0997 67.8088 74.949 67.8869 74.6478C67.965 74.4218 68.0432 73.9699 68.0432 73.4427V62.6721C68.0432 62.1449 67.965 61.693 67.8869 61.4671C67.8088 61.2411 67.6525 61.0905 67.4181 60.9398C67.1837 60.8645 66.793 60.7892 66.2461 60.7892V60.4126C66.8712 60.4879 67.8088 60.4879 68.9808 60.4879H71.4029C71.7155 60.4879 72.028 60.4879 72.3405 60.4879C74.0595 60.4879 75.4659 60.8645 76.4035 61.6177C77.3411 62.3709 77.8099 63.4253 77.8099 64.7057C77.8099 65.5342 77.6537 66.2874 77.263 66.9653C76.8723 67.7185 76.2472 68.321 75.3878 68.7729C74.5283 69.3002 73.3563 69.5261 71.8717 69.5261H70.1528ZM70.7779 60.9398C70.5435 61.0151 70.3872 61.2411 70.3091 61.4671C70.2309 61.693 70.1528 62.1449 70.1528 62.6721V69.0742H71.6373C73.1219 69.0742 74.1376 68.6976 74.6846 67.9444C75.2315 67.1912 75.544 66.1368 75.544 64.9317C75.544 63.5006 75.2315 62.5215 74.6846 61.8436C74.1376 61.1658 73.1219 60.8645 71.7936 60.8645C71.4029 60.7892 71.0123 60.8645 70.7779 60.9398Z" fill="white"/>
<path d="M95.7829 75.3166V75.7685C95.1578 75.6932 94.3765 75.6932 93.3608 75.6932C92.0325 75.6932 91.0949 75.6932 90.4698 75.7685V75.3166C91.0168 75.3166 91.4856 75.2413 91.72 75.0906C91.9544 75.0153 92.1106 74.7894 92.1106 74.4881C92.1106 74.2621 92.0325 73.8855 91.8762 73.4336L90.4698 69.8937H85.0004L84.0628 72.2285C83.7503 72.9817 83.594 73.5843 83.594 74.0362C83.594 74.4881 83.7503 74.7894 84.0628 75.0153C84.3754 75.2413 84.8442 75.3166 85.5474 75.3166V75.7685C84.6879 75.6932 83.8284 75.6932 82.9689 75.6932C82.2657 75.6932 81.7188 75.6932 81.25 75.7685V75.3166C82.0313 75.166 82.5783 74.4881 83.0471 73.4336L88.3602 60.2529H88.7509L94.2202 73.8855C94.5328 74.7894 95.0797 75.3166 95.7829 75.3166ZM90.2354 69.5171L87.7351 63.0397L85.1567 69.5171H90.2354Z" fill="white"/>
<path d="M113.908 74.6483C113.595 75.1755 113.205 75.4768 112.892 75.7027C112.58 75.9287 112.111 76.004 111.486 76.004C110.861 76.004 110.392 75.8533 110.001 75.4768C109.61 75.1002 109.298 74.4976 109.142 73.6691L108.673 71.4849C108.517 70.7317 108.36 70.1292 108.204 69.7526C108.048 69.376 107.813 68.9994 107.501 68.7734C107.188 68.5475 106.72 68.3968 106.173 68.3968H103.907V73.3678C103.907 73.8951 103.985 74.347 104.063 74.5729C104.141 74.7989 104.297 74.9495 104.532 75.1002C104.766 75.1755 105.157 75.2508 105.704 75.2508V75.7027C105.001 75.6274 104.063 75.6274 102.813 75.6274C101.485 75.6274 100.547 75.6274 99.9219 75.7027V75.2508C100.469 75.2508 100.859 75.1755 101.094 75.1002C101.328 75.0248 101.485 74.8742 101.563 74.5729C101.641 74.347 101.719 73.8951 101.719 73.3678V62.6726C101.719 62.1454 101.641 61.6935 101.563 61.4675C101.485 61.2416 101.328 61.0909 101.094 60.9403C100.859 60.865 100.469 60.7897 99.9219 60.7897V60.4131C100.547 60.4884 101.485 60.4884 102.657 60.4884H105.079C105.391 60.4884 105.704 60.4884 106.016 60.4884C107.735 60.4884 109.064 60.865 110.001 61.5429C110.939 62.2207 111.408 63.1245 111.408 64.2543C111.408 64.7815 111.251 65.3841 111.017 65.9866C110.704 66.5892 110.236 67.0411 109.61 67.493C108.985 67.9449 108.126 68.2462 107.032 68.3968L107.266 68.4721C108.282 68.6228 108.985 68.9241 109.454 69.376C109.923 69.8279 110.236 70.4304 110.47 71.4096L111.017 73.5938C111.173 74.2717 111.329 74.7236 111.486 74.9495C111.642 75.1755 111.876 75.3261 112.189 75.3261C112.423 75.3261 112.658 75.2508 112.814 75.1002C112.97 74.9495 113.205 74.7236 113.439 74.4976L113.908 74.6483ZM104.532 60.9403C104.297 61.0156 104.141 61.2416 104.063 61.4675C103.985 61.6935 103.907 62.1454 103.907 62.6726V68.0202H105.391C106.876 68.0202 107.892 67.719 108.438 67.0411C108.985 66.4386 109.298 65.5347 109.298 64.405C109.298 63.1999 108.985 62.296 108.438 61.6935C107.892 61.0909 106.876 60.7897 105.548 60.7897C105.079 60.7897 104.766 60.865 104.532 60.9403Z" fill="white"/>
<path d="M124.223 60.7892C123.676 60.7892 123.286 60.8645 123.051 60.9398C122.817 61.0151 122.661 61.1658 122.582 61.4671C122.504 61.693 122.426 62.1449 122.426 62.6721V73.4427C122.426 73.9699 122.504 74.4218 122.582 74.6478C122.661 74.8737 122.817 75.0244 123.051 75.175C123.286 75.3256 123.676 75.3256 124.223 75.3256V75.7775C123.52 75.7022 122.583 75.7022 121.332 75.7022C120.004 75.7022 119.066 75.7022 118.441 75.7775V75.3256C118.988 75.3256 119.379 75.2503 119.613 75.175C119.848 75.0997 120.004 74.949 120.082 74.6478C120.16 74.4218 120.238 73.9699 120.238 73.4427V62.6721C120.238 62.1449 120.16 61.693 120.082 61.4671C120.004 61.2411 119.848 61.0905 119.613 60.9398C119.379 60.8645 118.988 60.7892 118.441 60.7892V60.4126C119.066 60.4879 120.004 60.4879 121.332 60.4879C122.504 60.4879 123.52 60.4879 124.223 60.4126V60.7892Z" fill="white"/>
<path d="M136.333 60.3304C136.723 60.4811 137.114 60.6317 137.505 60.933C137.817 61.1589 138.052 61.2343 138.286 61.2343C138.442 61.2343 138.52 61.159 138.599 61.0083C138.677 60.8577 138.755 60.6317 138.755 60.2551H139.302C139.224 61.0836 139.224 62.59 139.224 64.6989H138.677C138.599 63.4938 138.208 62.5147 137.661 61.7615C137.036 60.933 136.176 60.5564 135.004 60.5564C134.223 60.5564 133.52 60.7824 133.051 61.2343C132.504 61.6862 132.27 62.2887 132.27 63.0419C132.27 63.5691 132.426 64.0964 132.66 64.473C132.895 64.8496 133.285 65.2261 133.676 65.5274C134.067 65.8287 134.692 66.2053 135.395 66.6572L136.02 67.0338C136.958 67.561 137.739 68.0882 138.286 68.5401C138.833 68.9921 139.302 69.444 139.614 69.9712C139.927 70.4984 140.083 71.1763 140.083 71.9295C140.083 73.2099 139.614 74.2643 138.755 74.9422C137.817 75.6954 136.723 75.9967 135.317 75.9967C134.614 75.9967 133.989 75.9213 133.52 75.7707C133.051 75.6201 132.66 75.3941 132.192 75.1682C131.879 74.9422 131.645 74.8669 131.41 74.8669C131.254 74.8669 131.176 74.9422 131.098 75.0928C131.02 75.2435 130.941 75.4694 130.941 75.846H130.473C130.551 75.0175 130.551 73.2852 130.551 70.6491H131.098C131.176 72.0801 131.567 73.2852 132.192 74.189C132.817 75.0928 133.832 75.5448 135.161 75.5448C135.942 75.5448 136.645 75.3188 137.27 74.7916C137.817 74.3397 138.13 73.5865 138.13 72.6073C138.13 71.7788 137.817 71.101 137.27 70.5737C136.723 70.0465 135.786 69.3686 134.614 68.6908C133.754 68.1636 132.973 67.7116 132.426 67.3351C131.879 66.9585 131.41 66.4312 131.098 65.904C130.785 65.3015 130.551 64.6989 130.551 63.8704C130.551 62.6653 130.941 61.7615 131.801 61.0836C132.582 60.4058 133.598 60.1045 134.848 60.1045C135.473 60.1045 135.942 60.1798 136.333 60.3304Z" fill="white"/>
</svg>
