<svg width="181" height="45" viewBox="0 0 181 45" fill="none" xmlns="http://www.w3.org/2000/svg">
<path fill-rule="evenodd" clip-rule="evenodd" d="M179.56 7.80581C179.185 8.20386 178.731 8.51932 178.226 8.73209C177.722 8.94487 177.179 9.05029 176.632 9.04164C176.084 9.05017 175.541 8.94471 175.036 8.73195C174.532 8.5192 174.077 8.2038 173.701 7.80581C173.312 7.41586 173.006 6.95188 172.801 6.44141C172.595 5.93094 172.494 5.38438 172.504 4.83416C172.504 3.68053 172.907 2.69268 173.716 1.87463C174.091 1.48051 174.544 1.16824 175.046 0.957431C175.548 0.746619 176.088 0.641811 176.632 0.649585C177.779 0.649585 178.755 1.05928 179.56 1.87463C180.372 2.68594 180.776 3.67649 180.776 4.83416C180.776 5.99047 180.372 6.98102 179.56 7.80581ZM179.153 2.28163C178.828 1.94187 178.436 1.67262 178.003 1.49063C177.569 1.30863 177.102 1.21778 176.632 1.2237C175.649 1.2237 174.814 1.57814 174.119 2.28163C173.782 2.61544 173.516 3.01409 173.337 3.4535C173.159 3.89291 173.071 4.36396 173.079 4.8382C173.079 5.84223 173.422 6.69936 174.112 7.40554C174.435 7.74848 174.826 8.02019 175.26 8.2033C175.694 8.3864 176.161 8.47686 176.632 8.46887C177.618 8.46887 178.458 8.11712 179.153 7.40554C179.842 6.69936 180.191 5.84223 180.191 4.8382C180.191 3.84091 179.842 2.98782 179.153 2.28163ZM178.18 5.43118C178.33 5.64082 178.415 5.88957 178.424 6.1468V6.48103C178.424 6.59019 178.428 6.70475 178.435 6.82334C178.435 6.90622 178.448 6.98859 178.474 7.06727L178.503 7.12253H177.759C177.754 7.10784 177.749 7.09301 177.745 7.07805C177.74 7.06188 177.74 7.04167 177.736 7.0228L177.717 6.87455V6.50933C177.717 5.97969 177.567 5.62794 177.286 5.45679C177.113 5.3611 176.822 5.30719 176.395 5.30719H175.767V7.12253H174.961V2.51883H176.554C177.113 2.51883 177.527 2.57408 177.792 2.6819C178.261 2.88136 178.494 3.27353 178.494 3.85034C178.494 4.26004 178.348 4.56327 178.054 4.76138C177.852 4.87838 177.628 4.95268 177.396 4.97971C177.759 5.03496 178.013 5.18725 178.18 5.43118ZM177.722 3.91773C177.722 3.5835 177.616 3.35979 177.415 3.24388C177.214 3.12529 176.891 3.06734 176.449 3.06734H175.767V4.74251H176.486C176.829 4.74251 177.079 4.70612 177.252 4.63874C177.397 4.58476 177.521 4.48557 177.606 4.35577C177.691 4.22598 177.731 4.07243 177.722 3.91773ZM156.282 34.1315H152.101V3.97972H141.996V0.636109H166.383V3.97972H156.282V34.1315ZM121.292 29.4739C131.255 32.2919 140.604 36.3916 150.042 41.7904V42.7015C135.344 36.2299 118.816 31.4348 99.3933 29.8176L105.307 44.3632H100.729L94.8907 29.5036C91.6293 29.3203 88.2843 29.2179 84.8558 29.2179C82.4232 29.2179 80.0338 29.2691 77.6848 29.3634L71.7913 44.3632H67.2105L73.2077 29.606C52.6043 30.9753 35.0587 35.9186 19.6479 42.6974V41.781C29.9321 35.9671 40.1058 31.6275 51.0854 28.792V19.8636L38.7191 0.636109H43.3133L53.1285 16.6116L62.9451 0.636109H67.534L55.1703 19.8636L55.1676 27.8136C61.4505 26.4308 68.0218 25.5185 75.046 25.0859L85.2385 0H87.2803L97.5551 25.2853C104.448 25.8433 110.913 26.8702 117.109 28.3742V3.97972H107.005V0.636109H131.393V3.97972H121.292V29.4739ZM86.2614 7.52953L79.4448 24.8783C81.2184 24.8231 83.0122 24.7907 84.8464 24.7907C87.6779 24.7907 90.4339 24.8594 93.1212 24.9956L86.2614 7.52953ZM22.2139 17.6062H4.18187V34.1315H0V0.636109H4.18187V14.2653H22.2139V0.636109H26.3945V34.1315L22.2139 34.1356V17.6062Z" fill="white"/>
</svg>
