<svg width="47.24" height="21.04" xmlns="http://www.w3.org/2000/svg" version="1.1" xml:space="preserve">
 <g>
  <title>Layer 1</title>
  <g id="Layer_1">
   <g id="svg_1">
    <g id="svg_2">
     <path d="m6.81,4.685c-0.09,0.03 -0.14,0.09 -0.18,0.18c-0.03,0.09 -0.05,0.23 -0.05,0.43l0,3.85c0,0.2 0.01,0.34 0.05,0.43s0.09,0.15 0.18,0.18c0.09,0.03 0.22,0.05 0.41,0.06l0,0.15c-0.24,-0.01 -0.57,-0.02 -0.99,-0.02c-0.44,0 -0.78,0.01 -0.99,0.02l0,-0.15c0.18,-0.01 0.32,-0.03 0.41,-0.06c0.09,-0.03 0.14,-0.09 0.18,-0.18c0.03,-0.09 0.05,-0.23 0.05,-0.43l0,-4.16l-1.87,5.02l-0.12,0l-1.96,-5.04l0,4.1c0,0.2 0.02,0.35 0.05,0.45c0.03,0.1 0.1,0.17 0.2,0.21c0.1,0.04 0.25,0.07 0.46,0.08l0,0.15c-0.19,-0.01 -0.45,-0.02 -0.79,-0.02c-0.31,0 -0.55,0.01 -0.72,0.02l0,-0.15c0.18,-0.01 0.32,-0.04 0.4,-0.08c0.09,-0.04 0.15,-0.12 0.18,-0.22c0.03,-0.1 0.05,-0.25 0.05,-0.45l0,-3.77c0,-0.2 -0.02,-0.34 -0.05,-0.43c-0.03,-0.09 -0.09,-0.15 -0.18,-0.18c-0.09,-0.03 -0.22,-0.05 -0.41,-0.06l0,-0.15c0.17,0.01 0.41,0.02 0.72,0.02c0.27,0 0.49,-0.01 0.66,-0.02l1.71,4.49l1.67,-4.47l0.36,0c0.42,0 0.75,-0.01 0.99,-0.02l0,0.15c-0.2,0.02 -0.34,0.04 -0.42,0.07" id="svg_3"/>
     <path d="m8.71,9.775c-0.16,-0.16 -0.24,-0.39 -0.24,-0.68c0,-0.23 0.06,-0.43 0.19,-0.57c0.13,-0.15 0.28,-0.27 0.45,-0.36c0.17,-0.09 0.4,-0.18 0.69,-0.28c0.29,-0.1 0.5,-0.19 0.64,-0.27c0.14,-0.08 0.21,-0.19 0.21,-0.33l0,-0.48c0,-0.3 -0.06,-0.5 -0.19,-0.62c-0.13,-0.11 -0.3,-0.17 -0.53,-0.17c-0.36,0 -0.62,0.09 -0.77,0.28c0.1,0.03 0.19,0.08 0.26,0.16c0.07,0.08 0.11,0.19 0.11,0.31c0,0.13 -0.04,0.23 -0.12,0.31c-0.08,0.08 -0.19,0.11 -0.32,0.11c-0.15,0 -0.25,-0.04 -0.33,-0.13c-0.07,-0.09 -0.11,-0.2 -0.11,-0.33c0,-0.12 0.03,-0.23 0.09,-0.31c0.06,-0.08 0.15,-0.17 0.27,-0.25c0.12,-0.09 0.28,-0.16 0.47,-0.22c0.19,-0.06 0.4,-0.09 0.63,-0.09c0.4,0 0.71,0.1 0.92,0.29c0.13,0.12 0.22,0.26 0.26,0.43c0.04,0.17 0.07,0.39 0.07,0.66l0,2.16c0,0.13 0.02,0.22 0.05,0.28c0.04,0.06 0.1,0.09 0.19,0.09c0.06,0 0.12,-0.01 0.17,-0.04c0.05,-0.03 0.11,-0.07 0.17,-0.12l0.09,0.13c-0.14,0.1 -0.25,0.18 -0.35,0.22c-0.1,0.04 -0.22,0.07 -0.36,0.07c-0.25,0 -0.42,-0.06 -0.52,-0.19c-0.1,-0.12 -0.15,-0.29 -0.15,-0.5c-0.16,0.26 -0.33,0.44 -0.54,0.54c-0.2,0.1 -0.43,0.15 -0.68,0.15c-0.32,-0.01 -0.56,-0.09 -0.72,-0.25m1.94,-0.66l0,-1.52c-0.05,0.07 -0.11,0.13 -0.19,0.18c-0.08,0.05 -0.21,0.11 -0.38,0.19c-0.2,0.08 -0.36,0.16 -0.48,0.24c-0.12,0.06 -0.22,0.17 -0.31,0.3c-0.09,0.13 -0.13,0.29 -0.13,0.5c0,0.23 0.06,0.41 0.17,0.53c0.11,0.12 0.26,0.18 0.45,0.18c0.34,-0.01 0.63,-0.21 0.87,-0.6" id="svg_4"/>
     <path d="m14.22,9.235c0,0.21 0.04,0.36 0.13,0.44c0.09,0.08 0.24,0.12 0.46,0.12l0,0.16c-0.48,-0.02 -0.79,-0.03 -0.94,-0.03c-0.15,0 -0.46,0.01 -0.94,0.03l0,-0.16c0.22,0 0.37,-0.04 0.46,-0.12c0.09,-0.08 0.13,-0.23 0.13,-0.44l0,-2.43c0,-0.24 -0.04,-0.41 -0.13,-0.52c-0.09,-0.11 -0.24,-0.16 -0.46,-0.16l0,-0.16c0.17,0.02 0.33,0.02 0.48,0.02c0.33,0 0.6,-0.04 0.81,-0.11l0,3.36zm-0.06,-5.06c0.1,0.1 0.15,0.22 0.15,0.35c0,0.13 -0.05,0.25 -0.15,0.35c-0.1,0.1 -0.22,0.15 -0.35,0.15c-0.13,0 -0.25,-0.05 -0.35,-0.15c-0.1,-0.1 -0.15,-0.21 -0.15,-0.35c0,-0.13 0.05,-0.25 0.15,-0.35c0.1,-0.1 0.22,-0.15 0.35,-0.15c0.14,0 0.25,0.05 0.35,0.15" id="svg_5"/>
     <path d="m17.76,5.935c0.14,0.06 0.26,0.12 0.35,0.2c0.06,0.04 0.1,0.06 0.14,0.06c0.09,0 0.15,-0.11 0.17,-0.34l0.18,0c-0.02,0.25 -0.03,0.69 -0.03,1.32l-0.19,0c-0.06,-0.34 -0.17,-0.62 -0.33,-0.85c-0.16,-0.22 -0.41,-0.33 -0.73,-0.33c-0.19,0 -0.34,0.05 -0.46,0.16s-0.18,0.25 -0.18,0.44c0,0.18 0.06,0.33 0.19,0.45c0.12,0.12 0.32,0.27 0.6,0.44c0.05,0.03 0.12,0.07 0.21,0.13c0.24,0.15 0.43,0.29 0.58,0.41c0.14,0.12 0.26,0.26 0.35,0.41c0.09,0.15 0.14,0.33 0.14,0.54c0,0.34 -0.13,0.61 -0.38,0.8c-0.26,0.19 -0.57,0.29 -0.94,0.29c-0.23,0 -0.44,-0.04 -0.61,-0.11c-0.11,-0.06 -0.22,-0.13 -0.32,-0.21c-0.02,-0.02 -0.04,-0.03 -0.07,-0.03c-0.04,0 -0.07,0.03 -0.1,0.08c-0.03,0.05 -0.05,0.12 -0.07,0.22l-0.18,0c0.02,-0.29 0.03,-0.81 0.03,-1.55l0.18,0c0.06,0.49 0.16,0.85 0.31,1.09c0.15,0.24 0.41,0.36 0.77,0.36c0.18,0 0.34,-0.06 0.48,-0.18c0.14,-0.12 0.21,-0.31 0.21,-0.56c0,-0.2 -0.07,-0.37 -0.21,-0.51c-0.14,-0.14 -0.36,-0.31 -0.67,-0.5c-0.25,-0.16 -0.45,-0.29 -0.59,-0.4c-0.14,-0.1 -0.25,-0.23 -0.35,-0.38c-0.09,-0.15 -0.14,-0.32 -0.14,-0.53c0,-0.33 0.11,-0.57 0.33,-0.75c0.22,-0.17 0.49,-0.26 0.82,-0.26c0.19,0.01 0.36,0.04 0.51,0.09" id="svg_6"/>
     <path d="m23.18,6.375c0.32,0.35 0.48,0.88 0.48,1.59s-0.16,1.24 -0.48,1.58c-0.32,0.35 -0.75,0.52 -1.28,0.52s-0.95,-0.17 -1.28,-0.52c-0.32,-0.35 -0.48,-0.87 -0.48,-1.58s0.16,-1.24 0.48,-1.59c0.32,-0.35 0.75,-0.52 1.28,-0.52s0.96,0.17 1.28,0.52m-2.01,0.11c-0.18,0.32 -0.27,0.81 -0.27,1.48c0,0.67 0.09,1.16 0.27,1.47c0.18,0.32 0.43,0.47 0.74,0.47c0.31,0 0.56,-0.16 0.74,-0.47c0.18,-0.32 0.27,-0.81 0.27,-1.47c0,-0.67 -0.09,-1.16 -0.27,-1.48c-0.18,-0.32 -0.43,-0.48 -0.74,-0.48c-0.31,0 -0.56,0.16 -0.74,0.48" id="svg_7"/>
     <path d="m28.36,6.145c0.1,0.1 0.17,0.23 0.21,0.39c0.04,0.16 0.06,0.37 0.06,0.63l0,2.07c0,0.21 0.04,0.36 0.13,0.44c0.09,0.08 0.24,0.12 0.46,0.12l0,0.16c-0.47,-0.02 -0.79,-0.03 -0.93,-0.03c-0.15,0 -0.44,0.01 -0.87,0.03l0,-0.16c0.19,0 0.32,-0.04 0.4,-0.12c0.08,-0.08 0.11,-0.23 0.11,-0.44l0,-2.24c0,-0.29 -0.04,-0.51 -0.12,-0.66c-0.08,-0.15 -0.25,-0.23 -0.51,-0.23c-0.21,0 -0.4,0.06 -0.57,0.19c-0.17,0.12 -0.29,0.29 -0.38,0.51c-0.09,0.21 -0.14,0.45 -0.14,0.72l0,1.72c0,0.21 0.04,0.36 0.11,0.44c0.08,0.08 0.21,0.12 0.4,0.12l0,0.16c-0.43,-0.02 -0.72,-0.03 -0.87,-0.03s-0.46,0.01 -0.93,0.03l0,-0.16c0.22,0 0.37,-0.04 0.46,-0.12c0.09,-0.08 0.13,-0.23 0.13,-0.44l0,-2.43c0,-0.24 -0.04,-0.41 -0.13,-0.52c-0.09,-0.11 -0.24,-0.16 -0.46,-0.16l0,-0.17c0.17,0.02 0.33,0.02 0.48,0.02c0.33,0 0.6,-0.04 0.81,-0.11l0,0.92c0.13,-0.33 0.31,-0.57 0.54,-0.72c0.23,-0.15 0.49,-0.22 0.78,-0.22c0.37,0 0.64,0.1 0.83,0.29" id="svg_8"/>
     <g id="svg_9">
      <path d="m35.31,4.785c0.27,0.22 0.4,0.52 0.4,0.9c0,0.23 -0.05,0.46 -0.16,0.69c-0.11,0.24 -0.24,0.46 -0.4,0.69c-0.16,0.22 -0.4,0.53 -0.71,0.91c-0.43,0.54 -0.79,1 -1.06,1.38l1.7,0c0.17,0 0.3,-0.05 0.38,-0.16c0.09,-0.1 0.15,-0.29 0.18,-0.55l0.17,0c-0.01,0.11 -0.02,0.26 -0.02,0.43c0,0.27 0.02,0.55 0.05,0.86l-1.63,0l-1.02,-0.01c-0.18,0 -0.31,0 -0.39,0.01l0,-0.15c0.38,-0.43 0.73,-0.84 1.03,-1.24c0.3,-0.39 0.57,-0.84 0.8,-1.32c0.24,-0.49 0.35,-0.96 0.35,-1.42c0,-0.38 -0.08,-0.67 -0.25,-0.87c-0.17,-0.2 -0.39,-0.3 -0.67,-0.3c-0.19,0 -0.36,0.05 -0.53,0.14c-0.17,0.09 -0.28,0.22 -0.34,0.38c0.13,0.02 0.24,0.06 0.32,0.13c0.08,0.07 0.12,0.16 0.12,0.27c0,0.12 -0.04,0.21 -0.12,0.28c-0.08,0.07 -0.18,0.11 -0.3,0.11c-0.13,0 -0.22,-0.04 -0.3,-0.12c-0.07,-0.08 -0.11,-0.18 -0.11,-0.3c0,-0.09 0.02,-0.18 0.07,-0.28c0.05,-0.1 0.11,-0.2 0.2,-0.3c0.15,-0.17 0.33,-0.29 0.54,-0.37c0.21,-0.08 0.43,-0.12 0.67,-0.12c0.43,0.01 0.77,0.12 1.03,0.33" id="svg_10"/>
      <path d="m38.63,9.145c0,0.19 0.02,0.33 0.05,0.42c0.03,0.09 0.09,0.14 0.17,0.17c0.09,0.03 0.22,0.05 0.4,0.06l0,0.15c-0.21,-0.01 -0.54,-0.02 -0.97,-0.02c-0.46,0 -0.82,0.01 -1.09,0.02l0,-0.15c0.23,-0.01 0.39,-0.03 0.49,-0.06c0.1,-0.03 0.17,-0.09 0.21,-0.17c0.04,-0.09 0.06,-0.23 0.06,-0.42l0,-3.43c0,-0.18 -0.02,-0.31 -0.08,-0.39c-0.05,-0.08 -0.14,-0.14 -0.26,-0.16c-0.12,-0.03 -0.3,-0.04 -0.55,-0.04l0,-0.16c0.37,-0.06 0.67,-0.12 0.91,-0.2c0.24,-0.08 0.46,-0.17 0.65,-0.26l0,4.64l0.01,0z" id="svg_11"/>
      <path d="m44.61,4.595c0.19,0.08 0.4,0.21 0.63,0.37c0.06,0.05 0.12,0.08 0.15,0.08c0.1,0 0.16,-0.16 0.19,-0.46l0.18,0c-0.02,0.33 -0.03,0.91 -0.03,1.75l-0.17,0c-0.05,-0.27 -0.09,-0.49 -0.14,-0.66c-0.05,-0.17 -0.13,-0.33 -0.24,-0.46c-0.15,-0.18 -0.34,-0.33 -0.57,-0.43c-0.23,-0.11 -0.48,-0.16 -0.74,-0.16c-0.33,0 -0.63,0.11 -0.88,0.33c-0.25,0.22 -0.45,0.53 -0.58,0.93c-0.14,0.4 -0.21,0.87 -0.21,1.41c0,0.91 0.15,1.58 0.44,2c0.29,0.42 0.75,0.63 1.37,0.63c0.3,0 0.57,-0.08 0.79,-0.23c0.09,-0.06 0.15,-0.12 0.18,-0.18c0.03,-0.06 0.04,-0.14 0.04,-0.24l0,-0.73c0,-0.21 -0.02,-0.37 -0.06,-0.46c-0.04,-0.1 -0.11,-0.16 -0.21,-0.2c-0.1,-0.04 -0.27,-0.06 -0.49,-0.07l0,-0.15c0.26,0.01 0.62,0.02 1.07,0.02c0.34,0 0.61,-0.01 0.79,-0.02l0,0.15c-0.12,0.01 -0.2,0.03 -0.25,0.06c-0.05,0.03 -0.09,0.09 -0.11,0.17c-0.02,0.09 -0.03,0.22 -0.03,0.42l0,1.5l-0.15,0c-0.01,-0.1 -0.03,-0.2 -0.06,-0.29c-0.04,-0.09 -0.08,-0.14 -0.14,-0.14c-0.03,0 -0.06,0.01 -0.09,0.02c-0.03,0.02 -0.08,0.05 -0.16,0.11c-0.18,0.14 -0.36,0.24 -0.55,0.31c-0.19,0.07 -0.4,0.1 -0.63,0.1c-0.52,0 -0.97,-0.11 -1.34,-0.32c-0.37,-0.22 -0.66,-0.53 -0.85,-0.93c-0.2,-0.4 -0.3,-0.89 -0.3,-1.45c0,-0.58 0.1,-1.08 0.32,-1.52c0.21,-0.44 0.5,-0.78 0.87,-1.01c0.37,-0.23 0.79,-0.35 1.26,-0.35c0.26,-0.03 0.51,0.01 0.7,0.1" id="svg_12"/>
     </g>
    </g>
    <g id="svg_13">
     <path d="m17.74,15.815l0,0.72c0,0.1 0.01,0.17 0.03,0.22c0.02,0.04 0.06,0.08 0.11,0.09c0.05,0.02 0.14,0.03 0.26,0.03l0,0.08c-0.14,-0.01 -0.33,-0.01 -0.58,-0.01c-0.23,0 -0.4,0 -0.51,0.01l0,-0.08c0.1,-0.01 0.16,-0.02 0.21,-0.03c0.04,-0.02 0.07,-0.05 0.09,-0.09c0.02,-0.05 0.02,-0.12 0.02,-0.22l0,-1.97c0,-0.1 -0.01,-0.17 -0.02,-0.22c-0.02,-0.05 -0.05,-0.08 -0.09,-0.09c-0.04,-0.02 -0.11,-0.03 -0.21,-0.03l0,-0.08c0.11,0.01 0.27,0.01 0.49,0.01l0.43,0c0.05,0 0.11,0 0.17,0c0.31,0 0.55,0.07 0.71,0.21c0.16,0.14 0.25,0.33 0.25,0.57c0,0.15 -0.03,0.29 -0.1,0.42c-0.06,0.13 -0.18,0.25 -0.33,0.34c-0.16,0.09 -0.36,0.14 -0.62,0.14l-0.31,0l0,-0.02zm0.11,-1.57c-0.04,0.02 -0.07,0.05 -0.09,0.1c-0.02,0.05 -0.02,0.12 -0.02,0.22l0,1.18l0.27,0c0.26,0 0.44,-0.07 0.54,-0.21c0.1,-0.14 0.15,-0.33 0.15,-0.56c0,-0.26 -0.05,-0.45 -0.15,-0.57c-0.1,-0.12 -0.27,-0.18 -0.51,-0.18c-0.08,-0.01 -0.15,0 -0.19,0.02" id="svg_14"/>
     <path d="m22.26,16.875l0,0.08c-0.11,-0.01 -0.25,-0.01 -0.43,-0.01c-0.23,0 -0.4,0 -0.51,0.01l0,-0.08c0.1,-0.01 0.17,-0.02 0.22,-0.04c0.04,-0.02 0.07,-0.06 0.07,-0.11c0,-0.04 -0.02,-0.11 -0.05,-0.19l-0.24,-0.65l-0.96,0l-0.16,0.42c-0.05,0.14 -0.08,0.25 -0.08,0.33c0,0.08 0.03,0.14 0.09,0.18c0.06,0.04 0.14,0.06 0.26,0.06l0,0.08c-0.15,-0.01 -0.3,-0.01 -0.46,-0.01c-0.12,0 -0.22,0 -0.3,0.01l0,-0.08c0.13,-0.03 0.24,-0.15 0.31,-0.35l0.94,-2.41l0.06,0l0.97,2.5c0.06,0.17 0.15,0.26 0.27,0.26m-0.97,-1.07l-0.45,-1.19l-0.45,1.19l0.9,0z" id="svg_15"/>
     <path d="m25.47,16.755c-0.06,0.09 -0.12,0.16 -0.18,0.2c-0.06,0.04 -0.14,0.06 -0.24,0.06c-0.11,0 -0.2,-0.03 -0.27,-0.1c-0.07,-0.06 -0.12,-0.18 -0.16,-0.33l-0.09,-0.4c-0.03,-0.14 -0.06,-0.24 -0.09,-0.32c-0.03,-0.07 -0.07,-0.13 -0.12,-0.18c-0.06,-0.04 -0.13,-0.07 -0.24,-0.07l-0.38,0l0,0.92c0,0.1 0.01,0.17 0.02,0.22c0.02,0.04 0.05,0.08 0.09,0.09c0.04,0.02 0.11,0.03 0.21,0.03l0,0.08c-0.12,-0.01 -0.29,-0.01 -0.5,-0.01c-0.23,0 -0.4,0 -0.51,0.01l0,-0.08c0.1,-0.01 0.16,-0.02 0.21,-0.03c0.04,-0.02 0.07,-0.05 0.09,-0.09c0.02,-0.05 0.02,-0.12 0.02,-0.22l0,-1.97c0,-0.1 -0.01,-0.17 -0.02,-0.22c-0.02,-0.05 -0.05,-0.08 -0.09,-0.09c-0.04,-0.02 -0.11,-0.03 -0.21,-0.03l0,-0.08c0.11,0.01 0.27,0.01 0.48,0.01l0.43,0c0.05,0 0.11,0 0.17,0c0.31,0 0.54,0.06 0.71,0.19c0.16,0.13 0.25,0.3 0.25,0.5c0,0.1 -0.02,0.21 -0.07,0.31c-0.05,0.1 -0.13,0.2 -0.25,0.28c-0.12,0.08 -0.27,0.14 -0.45,0.17l0.05,0.01c0.18,0.03 0.3,0.08 0.38,0.16c0.08,0.08 0.14,0.2 0.18,0.37l0.1,0.41c0.03,0.12 0.05,0.21 0.08,0.25c0.03,0.05 0.07,0.07 0.12,0.07c0.04,0 0.08,-0.01 0.11,-0.04c0.03,-0.02 0.07,-0.06 0.11,-0.12l0.06,0.04zm-1.66,-2.51c-0.04,0.02 -0.07,0.05 -0.09,0.1c-0.02,0.05 -0.02,0.12 -0.02,0.22l0,0.98l0.27,0c0.26,0 0.44,-0.06 0.54,-0.18c0.1,-0.12 0.15,-0.28 0.15,-0.49c0,-0.22 -0.05,-0.38 -0.16,-0.49c-0.1,-0.11 -0.27,-0.17 -0.5,-0.17c-0.08,0 -0.15,0.01 -0.19,0.03" id="svg_16"/>
     <path d="m27.29,14.215c-0.1,0.01 -0.16,0.02 -0.21,0.03c-0.04,0.02 -0.07,0.05 -0.09,0.09c-0.02,0.04 -0.02,0.12 -0.02,0.22l0,1.97c0,0.1 0.01,0.17 0.02,0.22c0.02,0.04 0.05,0.08 0.09,0.09c0.04,0.02 0.11,0.03 0.21,0.03l0,0.08c-0.12,-0.01 -0.29,-0.01 -0.51,-0.01c-0.23,0 -0.4,0 -0.51,0.01l0,-0.08c0.1,-0.01 0.16,-0.02 0.21,-0.03c0.04,-0.02 0.07,-0.05 0.09,-0.09c0.02,-0.05 0.02,-0.12 0.02,-0.22l0,-1.97c0,-0.1 -0.01,-0.17 -0.02,-0.22c-0.01,-0.04 -0.04,-0.07 -0.09,-0.09c-0.04,-0.02 -0.11,-0.03 -0.21,-0.03l0,-0.08c0.11,0.01 0.28,0.01 0.51,0.01c0.21,0 0.38,0 0.51,-0.01l0,0.08z" id="svg_17"/>
     <path d="m29.44,14.135c0.07,0.03 0.14,0.06 0.21,0.11c0.06,0.04 0.1,0.06 0.13,0.06c0.02,0 0.04,-0.01 0.06,-0.04c0.01,-0.03 0.02,-0.07 0.03,-0.13l0.09,0c-0.01,0.15 -0.02,0.42 -0.02,0.81l-0.09,0c-0.02,-0.22 -0.08,-0.4 -0.19,-0.54c-0.11,-0.15 -0.26,-0.22 -0.47,-0.22c-0.14,0 -0.26,0.04 -0.35,0.13c-0.09,0.09 -0.14,0.2 -0.14,0.33c0,0.1 0.02,0.19 0.07,0.26c0.05,0.07 0.11,0.14 0.18,0.19c0.07,0.05 0.17,0.12 0.31,0.2l0.12,0.07c0.17,0.1 0.3,0.19 0.4,0.27c0.1,0.08 0.17,0.17 0.23,0.27c0.06,0.1 0.09,0.22 0.09,0.35c0,0.24 -0.08,0.43 -0.24,0.56c-0.16,0.13 -0.36,0.2 -0.61,0.2c-0.13,0 -0.23,-0.01 -0.31,-0.04c-0.08,-0.03 -0.16,-0.06 -0.23,-0.11c-0.06,-0.04 -0.1,-0.06 -0.14,-0.06c-0.02,0 -0.04,0.01 -0.06,0.04c-0.01,0.03 -0.02,0.07 -0.03,0.13l-0.09,0c0.01,-0.15 0.02,-0.46 0.02,-0.96l0.09,0c0.02,0.27 0.08,0.49 0.2,0.65c0.11,0.17 0.29,0.25 0.53,0.25c0.14,0 0.27,-0.04 0.37,-0.13c0.1,-0.09 0.15,-0.22 0.15,-0.4c0,-0.15 -0.05,-0.27 -0.15,-0.38c-0.1,-0.1 -0.26,-0.22 -0.47,-0.35c-0.16,-0.1 -0.28,-0.18 -0.38,-0.25c-0.1,-0.07 -0.18,-0.16 -0.24,-0.27c-0.06,-0.1 -0.09,-0.23 -0.09,-0.37c0,-0.22 0.07,-0.39 0.21,-0.51c0.14,-0.12 0.32,-0.18 0.53,-0.18c0.12,0.02 0.21,0.03 0.28,0.06" id="svg_18"/>
    </g>
   </g>
  </g>
  <g id="WHITE_LAYER"/>
 </g>

</svg>