<svg width="17" height="17" viewBox="0 0 17 17" fill="none" xmlns="http://www.w3.org/2000/svg">
<path d="M8.5 17C13.1944 17 17 13.1944 17 8.5C17 3.80558 13.1944 0 8.5 0C3.80558 0 0 3.80558 0 8.5C0 13.1944 3.80558 17 8.5 17Z" fill="white"/>
<path d="M12.6602 7.27941C12.3148 5.31711 10.918 3.08912 8.61415 3.08912C6.70877 3.08912 5.38031 4.67567 4.82619 6.28119C4.26063 7.91706 4.35174 9.86801 5.12604 11.428C5.90789 13.0069 7.48307 14.2784 9.38465 13.8116C10.3297 13.58 10.9446 13.0942 11.5253 12.3503C11.8669 11.9138 12.1402 11.4621 12.3186 10.9308C12.3262 10.908 12.33 10.889 12.3376 10.8662C12.3452 10.8207 12.349 10.7751 12.349 10.7296C12.3452 10.6347 12.3186 10.555 12.2693 10.4753C12.1554 10.2969 12.0301 10.2248 11.8176 10.2248C10.8611 10.2248 9.90843 10.2248 8.95194 10.2248C8.95194 10.1944 8.95194 10.1603 8.95194 10.1299C9.15312 10.1299 9.35426 10.1299 9.55924 10.1299C9.55924 8.79006 9.55924 7.45021 9.55924 6.11039C9.4074 6.19387 9.25939 6.27739 9.10755 6.36471C8.95954 6.44819 8.81149 6.5355 8.66348 6.61898C8.64449 6.58864 8.62554 6.55825 8.61035 6.5317C8.75456 6.44819 8.90261 6.36091 9.04682 6.27739C9.43778 6.05346 9.79077 5.79915 10.1172 5.4917C10.2083 5.4917 10.2994 5.4917 10.3905 5.4917C10.3905 7.04029 10.3905 8.58509 10.3905 10.1337C11.6278 10.1337 12.8614 10.1337 14.0987 10.1337C13.2751 12.7033 10.7055 14.2329 8.07518 13.9938C5.44104 13.7584 3.19408 11.7658 2.90562 9.07852C2.61716 6.37227 4.39728 3.97349 6.95549 3.23336C9.49471 2.50081 12.2996 3.52561 13.6357 5.84849C13.313 6.32673 12.9866 6.80497 12.6602 7.27941Z" fill="#B79B53"/>
<path d="M8.53116 10.2291C7.68098 10.2291 6.83456 10.2291 5.98438 10.2291C6.48157 9.49273 6.97501 8.76017 7.4722 8.02386C8.61467 6.20196 6.48157 5.56432 6.09824 6.76752C6.06406 6.75993 6.02991 6.74853 5.99953 6.74094C6.11339 5.47704 7.26346 5.4922 7.26346 5.4922C7.92766 5.4922 8.39834 5.99702 8.39834 6.60052C8.39834 7.04079 8.11744 7.43935 7.59366 8.11493C7.26726 8.54004 6.61063 9.51172 6.61063 9.51172C7.25207 9.51172 7.88971 9.51172 8.53116 9.51172C8.53116 9.75084 8.53116 9.98996 8.53116 10.2291Z" fill="#B79B53"/>
</svg>
