<svg width="18" height="18" viewBox="0 0 18 18" fill="none" xmlns="http://www.w3.org/2000/svg">
<path d="M7.70713 16.687H3.02095C2.52381 16.687 2.04704 16.5205 1.6955 16.2239C1.34397 15.9274 1.14648 15.5253 1.14648 15.1059V2.45708C1.14648 2.03775 1.34397 1.63559 1.6955 1.33907C2.04704 1.04256 2.52381 0.875977 3.02095 0.875977H7.70713" stroke="#0D0D0D" stroke-width="1.5" stroke-linecap="round" stroke-linejoin="round"/>
<path d="M12.6372 12.5335L16.3861 8.78458L12.6372 5.03564" stroke="#0D0D0D" stroke-width="1.5" stroke-linecap="round" stroke-linejoin="round"/>
<path d="M16.386 8.78564H5.13916" stroke="#0D0D0D" stroke-width="1.5" stroke-linecap="round" stroke-linejoin="round"/>
</svg>
