<svg width="54" height="32" viewBox="0 0 54 32" fill="none" xmlns="http://www.w3.org/2000/svg">
<path d="M16.4425 0C7.7267 0.0550958 0.669922 7.16144 0.669922 15.9083C0.669922 24.6895 7.78122 31.8155 16.5444 31.8155C20.655 31.8155 24.404 30.2453 27.2246 27.6706L27.2241 27.67H27.2262C27.8049 27.1427 28.3438 26.5722 28.8385 25.9663H25.5869C25.1523 25.4411 24.7574 24.8924 24.403 24.3268H30.0112C30.3537 23.7804 30.6613 23.2127 30.9368 22.6247H23.4781C23.2235 22.0783 23.0025 21.5213 22.8144 20.9536H31.6005C32.1312 19.3676 32.4175 17.6705 32.4175 15.9083C32.4175 14.7378 32.2904 13.599 32.0521 12.5006H22.3481C22.4692 11.9351 22.6202 11.3771 22.8002 10.8301H31.5908C31.3944 10.2465 31.1659 9.67879 30.9063 9.12681H23.4771C23.7449 8.55253 24.0486 7.99574 24.3874 7.45572H29.9923C29.6187 6.85957 29.2063 6.29025 28.7608 5.75358H25.6358C26.1195 5.1825 26.6507 4.64539 27.2271 4.14749C24.4075 1.57169 20.658 0.000437028 16.5452 0.000437028C16.5095 -2.40202e-07 16.4757 0 16.4425 0Z" fill="#931B1D"/>
<path d="M53.7116 15.9132C53.7132 24.6978 46.6103 31.821 37.841 31.8237C29.0755 31.8264 21.967 24.7058 21.9644 15.9198V15.9132C21.9616 7.12602 29.0669 0.00218742 37.834 1.08254e-06C46.6005 -0.00320555 53.7096 7.11786 53.7118 15.9045C53.7116 15.9045 53.7116 15.9084 53.7116 15.9132Z" fill="#F16622"/>
<path d="M53.7116 16.089C53.7132 24.874 46.6103 31.9984 37.841 32C29.0755 32.0032 21.967 24.8818 21.9644 16.0972V16.089C21.9616 7.30342 29.0669 0.179006 37.834 0.17682C46.6005 0.173613 53.7096 7.29467 53.7118 16.0807C53.7116 16.0809 53.7116 16.0858 53.7116 16.089Z" fill="#F7981D"/>
<path d="M16.4425 0.180627C7.7267 0.236743 0.669922 7.34148 0.669922 16.0889C0.669922 24.8707 7.78122 31.9971 16.5444 31.9971C20.655 31.9971 24.404 30.4259 27.2246 27.8517L27.2241 27.8501H27.2262C27.8049 27.3232 28.3438 26.7544 28.8385 26.1463H25.5869C25.1523 25.6222 24.7574 25.0746 24.403 24.5091H30.0112C30.3537 23.962 30.6613 23.3927 30.9368 22.8053H23.4781C23.2235 22.2583 23.0025 21.7015 22.8144 21.1348H31.6005C32.1312 19.5477 32.4175 17.8511 32.4175 16.0889C32.4175 14.919 32.2904 13.7797 32.0521 12.6818H22.3481C22.4692 12.1169 22.6202 11.5578 22.8002 11.0113H31.5908C31.3944 10.4273 31.1659 9.85942 30.9063 9.307H23.4771C23.7449 8.73491 24.0486 8.17593 24.3874 7.63649H29.9923C29.6187 7.04093 29.2063 6.47204 28.7608 5.93318H25.6358C26.1195 5.36328 26.6507 4.82602 27.2271 4.3271C24.4075 1.75173 20.658 0.180481 16.5452 0.180481C16.5095 0.180627 16.4757 0.180627 16.4425 0.180627Z" fill="#CB2026"/>
<path d="M22.2539 20.1389L22.4661 18.6996C22.3505 18.6996 22.1803 18.7487 22.0303 18.7487C21.4423 18.7487 21.3769 18.4356 21.4151 18.2039L21.8901 15.2659H22.784L23 13.6727H22.1574L22.3292 12.6833H20.6386C20.602 12.7204 19.6406 18.2534 19.6406 18.9258C19.6406 19.9233 20.1986 20.3678 20.9871 20.3612C21.6032 20.3555 22.0848 20.1848 22.2539 20.1389Z" fill="white"/>
<path d="M22.7886 17.3938C22.7886 19.7875 24.3642 20.3568 25.7075 20.3568C26.9477 20.3568 27.4926 20.0782 27.4926 20.0782L27.7909 18.4442C27.7909 18.4442 26.848 18.8631 25.9961 18.8631C24.1816 18.8631 24.4996 17.5063 24.4996 17.5063H27.9349C27.9349 17.5063 28.1558 16.4079 28.1558 15.9607C28.1558 14.8454 27.6006 13.4852 25.7457 13.4852C24.0457 13.4856 22.7886 15.3197 22.7886 17.3938ZM25.7528 15.0012C26.7062 15.0012 26.53 16.0755 26.53 16.1623H24.6538C24.6532 16.0516 24.8306 15.0012 25.7528 15.0012Z" fill="white"/>
<path d="M36.4531 20.1388L36.7559 18.2904C36.7559 18.2904 35.9264 18.7093 35.3575 18.7093C34.1588 18.7093 33.6782 17.7898 33.6782 16.8059C33.6782 14.8054 34.7096 13.7048 35.8588 13.7048C36.7194 13.7048 37.4109 14.1902 37.4109 14.1902L37.6864 12.3969C37.6864 12.3969 36.6616 11.9802 35.7835 11.9802C33.8322 11.9802 31.9331 13.6748 31.9331 16.8631C31.9331 18.9737 32.9589 20.3704 34.9758 20.3704C35.5455 20.3707 36.4531 20.1388 36.4531 20.1388Z" fill="white"/>
<path d="M12.9587 13.5115C11.7998 13.5115 10.9112 13.884 10.9112 13.884L10.6664 15.3435C10.6664 15.3435 11.4004 15.0457 12.5081 15.0457C13.1375 15.0457 13.5972 15.1161 13.5972 15.6293C13.5972 15.9402 13.5411 16.0552 13.5411 16.0552C13.5411 16.0552 13.0454 16.0132 12.8153 16.0132C11.3542 16.0132 9.81836 16.6382 9.81836 18.5242C9.81836 20.0087 10.8251 20.3501 11.4497 20.3501C12.6424 20.3501 13.155 19.5751 13.1834 19.5717L13.1278 20.2196H14.6156L15.2798 15.5538C15.2798 13.5752 13.5569 13.5115 12.9587 13.5115ZM13.3213 17.3084C13.3535 17.5937 13.1425 18.9298 12.1248 18.9298C11.6001 18.9298 11.4632 18.5274 11.4632 18.2895C11.4632 17.8264 11.7146 17.2696 12.9537 17.2696C13.2411 17.2696 13.2722 17.3013 13.3213 17.3084Z" fill="white"/>
<path d="M16.8606 20.3144C17.2408 20.3144 19.4169 20.412 19.4169 18.1617C19.4169 16.0576 17.4029 16.4727 17.4029 15.6273C17.4029 15.208 17.7312 15.0737 18.331 15.0737C18.5693 15.0737 19.4861 15.1507 19.4861 15.1507L19.7 13.6542C19.7 13.6542 19.1066 13.5222 18.1413 13.5222C16.8896 13.5222 15.6216 14.0206 15.6216 15.7325C15.6216 17.6736 17.7377 17.4772 17.7377 18.2942C17.7377 18.8396 17.1459 18.8844 16.69 18.8844C15.9024 18.8844 15.1929 18.6133 15.1895 18.6258L14.9644 20.1054C15.0037 20.1192 15.4421 20.3144 16.8606 20.3144Z" fill="white"/>
<path d="M50.4545 12.1689L50.0906 14.4356C50.0906 14.4356 49.4541 13.5559 48.4589 13.5559C46.9095 13.5559 45.6191 15.4266 45.6191 17.5771C45.6191 18.9651 46.3068 20.3237 47.7151 20.3237C48.7278 20.3237 49.288 19.6163 49.288 19.6163L49.2144 20.2201H50.8582L52.1502 12.1653L50.4545 12.1689ZM49.6701 16.5904C49.6701 17.4844 49.2273 18.6781 48.3115 18.6781C47.7029 18.6781 47.4188 18.1665 47.4188 17.3637C47.4188 16.0514 48.0068 15.1832 48.7484 15.1832C49.3576 15.1833 49.6701 15.6032 49.6701 16.5904Z" fill="white"/>
<path d="M3.80529 20.2272L4.8355 14.1461L4.98548 20.2272H6.15036L8.32256 14.1461L7.35999 20.2272H9.08997L10.4235 12.1636H7.74741L6.08127 17.1103L5.99455 12.1636H3.52879L2.17676 20.2272H3.80529Z" fill="white"/>
<path d="M29.8464 20.2386C30.3383 17.4359 30.4294 15.1589 31.6042 15.574C31.8098 14.4897 32.0078 14.0704 32.2314 13.6107C32.2314 13.6107 32.1267 13.5884 31.9052 13.5884C31.1499 13.5884 30.5885 14.6246 30.5885 14.6246L30.738 13.6734H29.1639L28.1108 20.2386H29.8464Z" fill="white"/>
<path d="M40.3547 13.5115C39.1958 13.5115 38.3078 13.884 38.3078 13.884L38.0635 15.3435C38.0635 15.3435 38.796 15.0457 39.9047 15.0457C40.5335 15.0457 40.9944 15.1161 40.9944 15.6293C40.9944 15.9402 40.9377 16.0552 40.9377 16.0552C40.9377 16.0552 40.442 16.0132 40.2101 16.0132C38.7484 16.0132 37.2144 16.6382 37.2144 18.5242C37.2144 20.0087 38.2217 20.3501 38.8457 20.3501C40.0384 20.3501 40.5516 19.5751 40.5788 19.5717L40.5237 20.2196H42.0126L42.6764 15.5538C42.677 13.5752 40.9546 13.5115 40.3547 13.5115ZM40.7179 17.3084C40.7501 17.5937 40.5401 18.9298 39.5208 18.9298C38.9967 18.9298 38.8608 18.5274 38.8608 18.2895C38.8608 17.8264 39.1122 17.2696 40.3491 17.2696C40.6383 17.2696 40.6683 17.3013 40.7179 17.3084Z" fill="white"/>
<path d="M44.035 20.2386C44.5275 17.4359 44.6186 15.1589 45.7933 15.574C45.9989 14.4897 46.1969 14.0704 46.4216 13.6107C46.4216 13.6107 46.3152 13.5884 46.095 13.5884C45.3375 13.5884 44.7779 14.6246 44.7779 14.6246L44.9285 13.6734H43.3535L42.2998 20.2382H44.0352L44.035 20.2386Z" fill="white"/>
</svg>
