<svg width="18" height="17" viewBox="0 0 18 17" fill="none" xmlns="http://www.w3.org/2000/svg">
<path d="M12.1516 7.79163H3.64453V9.20829H12.1516V11.3333L14.9779 8.49996L12.1516 5.66663V7.79163Z" fill="#2C2C22"/>
</svg>
