<svg width="12" height="20" viewBox="0 0 12 20" fill="none" xmlns="http://www.w3.org/2000/svg">
<path d="M2.19863 0L0.00195313 2.23774L7.21962 9.5903L0.00195313 16.9429L2.19863 19.1806L11.613 9.5903L2.19863 0Z" fill="white"/>
</svg>
