<svg width="13" height="21" viewBox="0 0 13 21" fill="none" xmlns="http://www.w3.org/2000/svg">
<path d="M3.71014 1.22305C3.03328 0.547265 1.93701 0.547266 1.26015 1.22305C0.581762 1.90036 0.581761 2.99964 1.26015 3.67695L8.09405 10.5L1.26015 17.3231C0.581763 18.0004 0.581761 19.0996 1.26015 19.7769C1.93701 20.4527 3.03328 20.4527 3.71014 19.7769L11.4313 12.0681C12.2983 11.2024 12.2983 9.79755 11.4313 8.93194L3.71014 1.22305Z" fill="#0D0D0D"/>
</svg>
