<svg width="18" height="19" viewBox="0 0 18 19" fill="none" xmlns="http://www.w3.org/2000/svg">
<path d="M17.8704 14.4795L14.1181 10.7274C13.9455 10.5548 13.6656 10.5548 13.4932 10.7274L11.522 12.6986C10.9861 12.5505 9.56178 12.0292 7.92307 10.3911C6.2229 8.69071 5.53405 6.99594 5.36319 6.51668L7.32283 4.55704C7.40585 4.47421 7.45247 4.36171 7.45247 4.2444C7.45247 4.12708 7.40585 4.01478 7.32283 3.93195L3.57056 0.17968C3.39796 0.0070825 3.11807 0.0070825 2.94547 0.17968L0.75217 2.37317C0.72366 2.40149 0.699581 2.43347 0.67974 2.46853L0.675695 2.47315C-1.07051 4.61926 0.677429 9.41655 4.65546 13.3948C7.48637 16.2255 10.9164 18.0545 13.3942 18.0545C14.2787 18.0545 15.0071 17.8305 15.5597 17.3884L15.6114 17.353C15.6339 17.3376 15.6547 17.3204 15.6738 17.301L17.8704 15.1044C17.9534 15.0214 18 14.9089 18 14.7919C18 14.6748 17.9532 14.5625 17.8704 14.4795Z" fill="#B79B53"/>
</svg>
