<svg width="17" height="50" viewBox="0 0 17 50" fill="none" xmlns="http://www.w3.org/2000/svg">
<path fill-rule="evenodd" clip-rule="evenodd" d="M14.5824 11.4697V1.04164C14.5824 0.465891 14.1166 0 13.5408 0H13.1838L3.48183 -5.67651e-07H3.12482C2.54907 -5.67651e-07 2.08318 0.465891 2.08318 1.04164V5.20809V11.4698C0.697517 12.1071 0.227428 12.8399 0.109857 13.0751C0.0375955 13.2195 0 13.3793 0 13.541V45.8308C0 48.1286 1.86854 49.9973 4.16645 49.9973H12.4993C14.7971 49.9973 16.6657 48.1287 16.6657 45.8308V13.5409C16.6657 13.3792 16.6281 13.2194 16.5559 13.075C16.4382 12.8398 15.9681 12.107 14.5824 11.4697ZM12.4993 4.48675V2.10056H4.16636V10.8029C5.25272 10.5704 6.61309 10.416 8.33281 10.416C10.0524 10.416 11.4129 10.5702 12.4993 10.8028V8.01252V4.48675ZM12.4993 47.9138C13.6476 47.9138 14.5824 46.979 14.5824 45.8306L14.5825 13.8959C14.1981 13.548 12.6915 12.4993 8.33291 12.4993C4.03219 12.4993 2.50845 13.5205 2.08328 13.9111V45.8306C2.08328 46.979 3.01808 47.9138 4.16645 47.9138H12.4993Z" fill="#0D0D0D"/>
<path d="M9.58398 33H8.16602V26.1504L6.07422 26.8652V25.6641L9.40234 24.4395H9.58398V33Z" fill="black"/>
</svg>
