<svg width="22" height="65" viewBox="0 0 22 65" fill="none" xmlns="http://www.w3.org/2000/svg">
<path fill-rule="evenodd" clip-rule="evenodd" d="M18.9574 14.9108V1.35415C18.9574 0.605666 18.3518 7.37955e-07 17.6033 7.37955e-07H17.1392L4.52643 0H4.06232C3.31384 0 2.70817 0.605666 2.70817 1.35415V6.77061V14.911C0.906784 15.7394 0.29566 16.692 0.142816 16.9979C0.0488747 17.1856 0 17.3933 0 17.6035V59.5808C0 62.568 2.42914 64.9973 5.41646 64.9973H16.2493C19.2365 64.9973 21.6657 62.5681 21.6657 59.5808V17.6034C21.6657 17.3932 21.6168 17.1855 21.5229 16.9977C21.3699 16.6919 20.7588 15.7393 18.9574 14.9108ZM16.2493 5.83285V2.73076H5.41633V14.0439C6.82862 13.7417 8.59712 13.541 10.8328 13.541C13.0683 13.541 14.837 13.7414 16.2493 14.0438V10.4164V5.83285ZM16.2493 62.2887C17.7422 62.2887 18.9574 61.0735 18.9574 59.5806L18.9575 18.0649C18.4578 17.6127 16.4992 16.2493 10.8329 16.2493C5.24191 16.2493 3.26102 17.5769 2.70829 18.0847V59.5806C2.70829 61.0735 3.92356 62.2887 5.41646 62.2887H16.2493Z" fill="#0D0D0D"/>
</svg>
