<svg width="67" height="231" viewBox="0 0 67 231" fill="none" xmlns="http://www.w3.org/2000/svg">
<path d="M33 215.172C41.7098 215.172 49.9328 216.052 56.1 217.634C62.6459 219.334 64.918 221.328 64.918 222.5C64.918 223.672 62.5918 225.666 56.1 227.366C49.9328 228.948 41.7639 229.828 33 229.828C24.2361 229.828 16.0672 228.948 9.9 227.366C3.3541 225.666 1.08197 223.672 1.08197 222.5C1.08197 221.328 3.4082 219.334 9.9 217.634C16.0672 216.052 24.2361 215.172 33 215.172ZM33 214C14.7689 214 0 217.81 0 222.5C0 227.19 14.7689 231 33 231C51.2311 231 66 227.19 66 222.5C66 217.81 51.2311 214 33 214Z" fill="white"/>
<path d="M33 215.172C41.7098 215.172 49.9328 216.052 56.1 217.634C62.6459 219.334 64.918 221.328 64.918 222.5C64.918 223.672 62.5918 225.666 56.1 227.366C49.9328 228.948 41.7639 229.828 33 229.828C24.2361 229.828 16.0672 228.948 9.9 227.366C3.3541 225.666 1.08197 223.672 1.08197 222.5C1.08197 221.328 3.4082 219.334 9.9 217.634C16.0672 216.052 24.2361 215.172 33 215.172Z" fill="white"/>
<path d="M53.8842 24.4752C54.2667 24.4752 54.6493 24.8175 54.6493 25.2739V27.3278V29.0393H56.2887H63.5024C64.3768 29.0393 65.0326 29.781 65.0326 30.6367V222.899C64.6501 223.527 60.4967 229.232 33.3361 229.232C6.01142 229.232 1.96737 223.527 1.63948 222.899V30.6367C1.63948 29.7239 2.34992 29.0393 3.16966 29.0393H10.3834H12.0228V27.3278V25.2739C12.0228 24.8746 12.3507 24.4752 12.7879 24.4752H33.0628H33.6093H53.8842Z" fill="white"/>
<path d="M53.8842 24.4752C54.2667 24.4752 54.6493 24.8175 54.6493 25.2739V27.3278V29.0393H56.2887H63.5024C64.3768 29.0393 65.0326 29.781 65.0326 30.6367V222.899C64.6501 223.527 60.4967 229.232 33.3361 229.232C6.01142 229.232 1.96737 223.527 1.63948 222.899V30.6367C1.63948 29.7239 2.34992 29.0393 3.16966 29.0393H10.3834H12.0228V27.3278V25.2739C12.0228 24.8746 12.3507 24.4752 12.7879 24.4752H33.0628H33.6093H53.8842ZM53.8842 22.7637H33.6093H33.0628H12.7879C11.4763 22.7637 10.3834 23.8476 10.3834 25.2739V27.3278H3.16966C1.42088 27.3278 0 28.8111 0 30.6367V223.127C0 224.382 3.93475 231 33.3361 231C62.7374 231 66.6721 224.325 66.6721 223.127V30.6367C66.6721 28.8111 65.2512 27.3278 63.5024 27.3278H56.2887V25.2739C56.2887 23.8476 55.2504 22.7637 53.8842 22.7637Z" fill="black"/>
<path d="M52.4636 26.758V30.7516V31.3221H53.0101H62.3552C62.6284 31.3221 62.847 31.5503 62.847 31.8356V217.423C62.847 218.107 62.0273 224.155 33.3364 224.155C4.64553 224.155 3.82579 218.107 3.82579 217.423V31.8356C3.82579 31.5503 4.04439 31.3221 4.31763 31.3221H13.6627H14.2092V30.7516V26.758H33.0631H33.6096H52.4636ZM52.7369 26.1875H33.6096H33.0631H13.9359C13.772 26.1875 13.6627 26.3016 13.6627 26.4728V30.7516H4.31763C3.71649 30.7516 3.2793 31.265 3.2793 31.8356V217.423C3.2793 218.393 3.93509 224.725 33.3364 224.725C62.7377 224.725 63.3935 218.393 63.3935 217.423V31.8356C63.3935 31.208 62.9016 30.7516 62.3552 30.7516H53.0101V26.4728C53.0101 26.3016 52.9008 26.1875 52.7369 26.1875Z" fill="white"/>
<path d="M52.4636 26.758V30.7516V31.3221H53.0101H62.3552C62.6284 31.3221 62.847 31.5503 62.847 31.8356V217.423C62.847 218.107 62.0273 224.155 33.3364 224.155C4.64553 224.155 3.82579 218.107 3.82579 217.423V31.8356C3.82579 31.5503 4.04439 31.3221 4.31763 31.3221H13.6627H14.2092V30.7516V26.758H33.0631H33.6096H52.4636Z" fill="white"/>
<path opacity="0.5" d="M52.4656 26.758V30.7516V31.3221H53.0121H62.3571C62.6304 31.3221 62.849 31.5503 62.849 31.8356V217.423C62.849 218.107 62.0292 224.155 33.3383 224.155C4.64748 224.155 3.82774 218.107 3.82774 217.423V31.8356C3.82774 31.5503 4.04634 31.3221 4.31959 31.3221H13.6646H14.2111V30.7516V26.758H33.0651H33.6116H52.4656ZM52.7388 26.1875H33.6116H33.0651H13.9379C13.7739 26.1875 13.6646 26.3016 13.6646 26.4728V30.7516H4.31959C3.71844 30.7516 3.28125 31.265 3.28125 31.8356V217.423C3.28125 218.393 3.93704 224.725 33.3383 224.725C62.7397 224.725 63.3954 218.393 63.3954 217.423V31.8356C63.3954 31.208 62.9036 30.7516 62.3571 30.7516H53.0121V26.4728C53.0121 26.3016 52.9028 26.1875 52.7388 26.1875Z" fill="black"/>
<path d="M42.6245 34.1401C49.9233 34.1401 55.8951 40.2964 55.8951 47.8208V193.179C55.8951 200.704 49.9233 206.86 42.6245 206.86H24.3774C17.0786 206.86 11.1069 200.704 11.1069 193.179V47.8208C11.1069 40.2964 17.0786 34.1401 24.3774 34.1401H42.6245Z" fill="white"/>
<path d="M42.7362 33.6039C49.9499 33.6039 55.8521 39.7654 55.8521 47.2962V192.777C55.8521 200.307 49.9499 206.469 42.7362 206.469H24.702C17.4883 206.469 11.5861 200.307 11.5861 192.777V47.2962C11.5861 39.7654 17.4883 33.6039 24.702 33.6039H42.7362ZM42.7362 32.4629H24.702C16.8325 32.4629 10.4932 39.0808 10.4932 47.2962V192.777C10.4932 200.992 16.8325 207.61 24.702 207.61H42.7362C50.6057 207.61 56.945 200.992 56.945 192.777V47.2962C56.945 39.0808 50.5511 32.4629 42.7362 32.4629Z" fill="#0D0D0D"/>
<g opacity="0.25">
<path opacity="0.25" d="M41.042 38.7385C46.5069 38.7385 50.9335 43.3596 50.9335 49.0647V191.065C50.9335 196.77 46.5069 201.391 41.042 201.391H26.3413C20.8764 201.391 16.4498 196.77 16.4498 191.065V49.0077C16.4498 43.3026 20.8764 38.6814 26.3413 38.6814H41.042V38.7385ZM41.042 38.168H26.3413C20.6032 38.168 15.9033 43.0173 15.9033 49.0647V191.065C15.9033 197.055 20.5485 201.962 26.3413 201.962H41.042C46.7802 201.962 51.48 197.112 51.48 191.065V49.0077C51.48 43.0173 46.7802 38.168 41.042 38.168Z" fill="black"/>
</g>
<path d="M16.001 159H51.001V191C51.001 197.075 46.0761 202 40.001 202H27.001C20.9258 202 16.001 197.075 16.001 191V159Z" fill="#D7D7D7"/>
<path d="M41.042 38.7385C46.5069 38.7385 50.9335 43.3596 50.9335 49.0647V191.065C50.9335 196.77 46.5069 201.391 41.042 201.391H26.3413C20.8764 201.391 16.4498 196.77 16.4498 191.065V49.0077C16.4498 43.3026 20.8764 38.6814 26.3413 38.6814H41.042V38.7385ZM41.042 38.168H26.3413C20.6032 38.168 15.9033 43.0173 15.9033 49.0647V191.065C15.9033 197.055 20.5485 201.962 26.3413 201.962H41.042C46.7802 201.962 51.48 197.112 51.48 191.065V49.0077C51.48 43.0173 46.7802 38.168 41.042 38.168Z" fill="black"/>
<path d="M45.4142 1.71153C45.7421 1.71153 46.0153 1.99679 46.0153 2.3391V22.7634H20.658V2.3391C20.658 1.99679 20.9313 1.71153 21.2592 1.71153H45.4142ZM45.4142 0H21.2592C20.0022 0 19.0186 1.02692 19.0186 2.3391V24.4749H47.7094V2.3391C47.7094 1.02692 46.6711 0 45.4142 0Z" fill="white"/>
<path d="M45.4142 1.71153C45.7421 1.71153 46.0153 1.99679 46.0153 2.3391V22.7634H20.658V2.3391C20.658 1.99679 20.9313 1.71153 21.2592 1.71153H45.4142Z" fill="white"/>
<path d="M45.4142 1.71153C45.7421 1.71153 46.0153 1.99679 46.0153 2.3391V22.7634H20.658V2.3391C20.658 1.99679 20.9313 1.71153 21.2592 1.71153H45.4142ZM45.4142 0H21.2592C20.0022 0 19.0186 1.02692 19.0186 2.3391V24.4749H47.7094V2.3391C47.7094 1.02692 46.6711 0 45.4142 0Z" fill="black"/>
<path d="M50.4419 12.7793C50.4419 12.7793 14.9199 12.7223 14.9199 17.0011C14.9199 19.6825 30.8229 19.7966 30.8229 19.7966C30.8229 19.7966 19.2372 18.7127 19.1826 16.6588C19.1826 14.8332 50.4419 12.7793 50.4419 12.7793Z" stroke="black" stroke-width="0.570963" stroke-miterlimit="10"/>
<path d="M50.4419 6.50394C50.4419 6.50394 14.9199 6.44689 14.9199 10.7257C14.9199 13.4071 30.8229 13.5212 30.8229 13.5212C30.8229 13.5212 19.2372 12.4373 19.1826 10.3834C19.1826 8.55779 50.4419 6.50394 50.4419 6.50394Z" stroke="black" stroke-width="0.570963" stroke-miterlimit="10"/>
<path opacity="0.5" d="M26.9696 49.8533C29.1781 47.8953 29.8281 44.9063 28.4214 43.1772C27.0148 41.4481 24.0842 41.6336 21.8757 43.5915C19.6673 45.5495 19.0173 48.5385 20.4239 50.2676C21.8306 51.9967 24.7612 51.8112 26.9696 49.8533Z" stroke="black" stroke-width="0.459796" stroke-miterlimit="10"/>
</svg>
