<svg width="69" height="282" viewBox="0 0 69 282" fill="none" xmlns="http://www.w3.org/2000/svg">
<path d="M33 266.172C41.7098 266.172 49.9328 267.052 56.1 268.634C62.6459 270.334 64.918 272.328 64.918 273.5C64.918 274.672 62.5918 276.666 56.1 278.366C49.9328 279.948 41.7639 280.828 33 280.828C24.2361 280.828 16.0672 279.948 9.9 278.366C3.3541 276.666 1.08197 274.672 1.08197 273.5C1.08197 272.328 3.4082 270.334 9.9 268.634C16.0672 267.052 24.2361 266.172 33 266.172ZM33 265C14.7689 265 0 268.81 0 273.5C0 278.19 14.7689 282 33 282C51.2311 282 66 278.19 66 273.5C66 268.81 51.2311 265 33 265Z" fill="white"/>
<path d="M33 266.172C41.7098 266.172 49.9328 267.052 56.1 268.634C62.6459 270.334 64.918 272.328 64.918 273.5C64.918 274.672 62.5918 276.666 56.1 278.366C49.9328 279.948 41.7639 280.828 33 280.828C24.2361 280.828 16.0672 279.948 9.9 278.366C3.3541 276.666 1.08197 274.672 1.08197 273.5C1.08197 272.328 3.4082 270.334 9.9 268.634C16.0672 267.052 24.2361 266.172 33 266.172Z" fill="white"/>
<path d="M53.8842 75.4752C54.2667 75.4752 54.6493 75.8175 54.6493 76.2739V78.3278V80.0393H56.2887H63.5024C64.3768 80.0393 65.0326 80.781 65.0326 81.6367V273.899C64.6501 274.527 60.4967 280.232 33.3361 280.232C6.01142 280.232 1.96737 274.527 1.63948 273.899V81.6367C1.63948 80.7239 2.34992 80.0393 3.16966 80.0393H10.3834H12.0228V78.3278V76.2739C12.0228 75.8746 12.3507 75.4752 12.7879 75.4752H33.0628H33.6093H53.8842Z" fill="white"/>
<path d="M53.8842 75.4752C54.2667 75.4752 54.6493 75.8175 54.6493 76.2739V78.3278V80.0393H56.2887H63.5024C64.3768 80.0393 65.0326 80.781 65.0326 81.6367V273.899C64.6501 274.527 60.4967 280.232 33.3361 280.232C6.01142 280.232 1.96737 274.527 1.63948 273.899V81.6367C1.63948 80.7239 2.34992 80.0393 3.16966 80.0393H10.3834H12.0228V78.3278V76.2739C12.0228 75.8746 12.3507 75.4752 12.7879 75.4752H33.0628H33.6093H53.8842ZM53.8842 73.7637H33.6093H33.0628H12.7879C11.4763 73.7637 10.3834 74.8476 10.3834 76.2739V78.3278H3.16966C1.42088 78.3278 0 79.8111 0 81.6367V274.127C0 275.382 3.93475 282 33.3361 282C62.7374 282 66.6721 275.325 66.6721 274.127V81.6367C66.6721 79.8111 65.2512 78.3278 63.5024 78.3278H56.2887V76.2739C56.2887 74.8476 55.2504 73.7637 53.8842 73.7637Z" fill="black"/>
<path d="M52.4637 77.758V81.7516V82.3221H53.0102H62.3552C62.6284 82.3221 62.847 82.5503 62.847 82.8356V268.423C62.847 269.107 62.0273 275.155 33.3364 275.155C4.64556 275.155 3.82582 269.107 3.82582 268.423V82.8356C3.82582 82.5503 4.04442 82.3221 4.31766 82.3221H13.6627H14.2092V81.7516V77.758H33.0632H33.6097H52.4637ZM52.7369 77.1875H33.6097H33.0632H13.9359C13.772 77.1875 13.6627 77.3016 13.6627 77.4728V81.7516H4.31766C3.71652 81.7516 3.27933 82.265 3.27933 82.8356V268.423C3.27933 269.393 3.93512 275.725 33.3364 275.725C62.7377 275.725 63.3935 269.393 63.3935 268.423V82.8356C63.3935 82.208 62.9017 81.7516 62.3552 81.7516H53.0102V77.4728C53.0102 77.3016 52.9009 77.1875 52.7369 77.1875Z" fill="white"/>
<path d="M52.4637 77.758V81.7516V82.3221H53.0102H62.3552C62.6284 82.3221 62.847 82.5503 62.847 82.8356V268.423C62.847 269.107 62.0273 275.155 33.3364 275.155C4.64556 275.155 3.82582 269.107 3.82582 268.423V82.8356C3.82582 82.5503 4.04442 82.3221 4.31766 82.3221H13.6627H14.2092V81.7516V77.758H33.0632H33.6097H52.4637Z" fill="white"/>
<path opacity="0.5" d="M52.4656 77.758V81.7516V82.3221H53.0121H62.3571C62.6304 82.3221 62.849 82.5503 62.849 82.8356V268.423C62.849 269.107 62.0292 275.155 33.3383 275.155C4.64748 275.155 3.82774 269.107 3.82774 268.423V82.8356C3.82774 82.5503 4.04634 82.3221 4.31959 82.3221H13.6646H14.2111V81.7516V77.758H33.0651H33.6116H52.4656ZM52.7388 77.1875H33.6116H33.0651H13.9379C13.7739 77.1875 13.6646 77.3016 13.6646 77.4728V81.7516H4.31959C3.71844 81.7516 3.28125 82.265 3.28125 82.8356V268.423C3.28125 269.393 3.93704 275.725 33.3383 275.725C62.7397 275.725 63.3954 269.393 63.3954 268.423V82.8356C63.3954 82.208 62.9036 81.7516 62.3571 81.7516H53.0121V77.4728C53.0121 77.3016 52.9028 77.1875 52.7388 77.1875Z" fill="black"/>
<path d="M42.6242 85.1401C49.923 85.1401 55.8948 91.2964 55.8948 98.8208V244.179C55.8948 251.704 49.923 257.86 42.6242 257.86H24.3772C17.0783 257.86 11.1066 251.704 11.1066 244.179V98.8208C11.1066 91.2964 17.0783 85.1401 24.3772 85.1401H42.6242Z" fill="white"/>
<path d="M42.736 84.6039C49.9497 84.6039 55.8518 90.7654 55.8518 98.2962V243.777C55.8518 251.307 49.9497 257.469 42.736 257.469H24.7017C17.488 257.469 11.5859 251.307 11.5859 243.777V98.2962C11.5859 90.7654 17.488 84.6039 24.7017 84.6039H42.736ZM42.736 83.4629H24.7017C16.8322 83.4629 10.4929 90.0808 10.4929 98.2962V243.777C10.4929 251.992 16.8322 258.61 24.7017 258.61H42.736C50.6055 258.61 56.9448 251.992 56.9448 243.777V98.2962C56.9448 90.0808 50.5508 83.4629 42.736 83.4629Z" fill="#0D0D0D"/>
<g opacity="0.25">
<path opacity="0.25" d="M41.0416 89.7385C46.5065 89.7385 50.9331 94.3596 50.9331 100.065V242.065C50.9331 247.77 46.5065 252.391 41.0416 252.391H26.3409C20.876 252.391 16.4494 247.77 16.4494 242.065V100.008C16.4494 94.3026 20.876 89.6814 26.3409 89.6814H41.0416V89.7385ZM41.0416 89.168H26.3409C20.6027 89.168 15.9029 94.0173 15.9029 100.065V242.065C15.9029 248.055 20.5481 252.962 26.3409 252.962H41.0416C46.7797 252.962 51.4796 248.112 51.4796 242.065V100.008C51.4796 94.0173 46.7797 89.168 41.0416 89.168Z" fill="black"/>
</g>
<path d="M16.0005 100.002C16.0005 93.9268 20.9254 89.002 27.0005 89.002H40.0005C46.0757 89.002 51.0005 93.9268 51.0005 100.002V242.002C51.0005 248.077 46.0757 253.002 40.0005 253.002H27.0005C20.9254 253.002 16.0005 248.077 16.0005 242.002V100.002Z" fill="#B79B53"/>
<path d="M41.0416 89.7385C46.5065 89.7385 50.9331 94.3596 50.9331 100.065V242.065C50.9331 247.77 46.5065 252.391 41.0416 252.391H26.3409C20.876 252.391 16.4494 247.77 16.4494 242.065V100.008C16.4494 94.3026 20.876 89.6814 26.3409 89.6814H41.0416V89.7385ZM41.0416 89.168H26.3409C20.6027 89.168 15.9029 94.0173 15.9029 100.065V242.065C15.9029 248.055 20.5481 252.962 26.3409 252.962H41.0416C46.7797 252.962 51.4796 248.112 51.4796 242.065V100.008C51.4796 94.0173 46.7797 89.168 41.0416 89.168Z" fill="black"/>
<path d="M45.4138 52.7115C45.7417 52.7115 46.0149 52.9968 46.0149 53.3391V73.7634H20.6577V53.3391C20.6577 52.9968 20.9309 52.7115 21.2588 52.7115H45.4138ZM45.4138 51H21.2588C20.0019 51 19.0182 52.0269 19.0182 53.3391V75.4749H47.709V53.3391C47.709 52.0269 46.6707 51 45.4138 51Z" fill="white"/>
<path d="M45.4138 52.7115C45.7417 52.7115 46.0149 52.9968 46.0149 53.3391V73.7634H20.6577V53.3391C20.6577 52.9968 20.9309 52.7115 21.2588 52.7115H45.4138Z" fill="white"/>
<path d="M45.4138 52.7115C45.7417 52.7115 46.0149 52.9968 46.0149 53.3391V73.7634H20.6577V53.3391C20.6577 52.9968 20.9309 52.7115 21.2588 52.7115H45.4138ZM45.4138 51H21.2588C20.0019 51 19.0182 52.0269 19.0182 53.3391V75.4749H47.709V53.3391C47.709 52.0269 46.6707 51 45.4138 51Z" fill="black"/>
<path d="M50.4416 63.7793C50.4416 63.7793 14.9196 63.7223 14.9196 68.0011C14.9196 70.6825 30.8225 70.7966 30.8225 70.7966C30.8225 70.7966 19.2369 69.7127 19.1822 67.6588C19.1822 65.8332 50.4416 63.7793 50.4416 63.7793Z" stroke="black" stroke-width="0.570963" stroke-miterlimit="10"/>
<path d="M50.4418 57.5039C50.4418 57.5039 14.9198 57.4469 14.9198 61.7257C14.9198 64.4071 30.8228 64.5212 30.8228 64.5212C30.8228 64.5212 19.2371 63.4373 19.1825 61.3834C19.1825 59.5578 50.4418 57.5039 50.4418 57.5039Z" stroke="black" stroke-width="0.570963" stroke-miterlimit="10"/>
<path opacity="0.5" d="M26.9698 100.853C29.1782 98.8953 29.8282 95.9063 28.4216 94.1772C27.0149 92.4481 24.0843 92.6336 21.8759 94.5915C19.6674 96.5495 19.0174 99.5385 20.4241 101.268C21.8307 102.997 24.7613 102.811 26.9698 100.853Z" stroke="black" stroke-width="0.459796" stroke-miterlimit="10"/>
<g clip-path="url(#clip0)">
<path d="M3.22866 73.1643C1.89232 73.1643 0.834381 72.1064 0.834381 70.77V7.23803C0.834381 5.90169 1.89232 4.84375 3.22866 4.84375H64.7561C66.0925 4.84375 67.1504 5.90169 67.1504 7.23803V70.77C67.1504 72.1064 66.0925 73.1643 64.7561 73.1643H3.22866Z" fill="white"/>
<path d="M64.7568 5.68019C65.6477 5.68019 66.3159 6.40405 66.3159 7.23926V70.7712C66.3159 71.6621 65.592 72.3303 64.7568 72.3303H3.22934C2.33845 72.3303 1.67028 71.6065 1.67028 70.7712V7.23926C1.67028 6.34837 2.39413 5.68019 3.22934 5.68019H64.7568ZM64.7568 4.00977H3.22934C1.44755 4.00977 -0.000152588 5.45747 -0.000152588 7.23926V70.7712C-0.000152588 72.553 1.44755 74.0007 3.22934 74.0007H64.7568C66.5386 74.0007 67.9863 72.553 67.9863 70.7712V7.23926C68.042 5.45747 66.5943 4.00977 64.7568 4.00977Z" fill="black"/>
<g opacity="0.25">
<path opacity="0.25" d="M57.1277 4.56658V73.4996H10.9125V4.56658H57.1277ZM57.6846 4.00977H10.3557V74.0564H57.6846V4.00977Z" fill="black"/>
</g>
<path d="M57.1277 0.55681V5.06697H10.9125V0.55681H57.1277ZM57.6846 0H10.3557V5.62378H57.6846V0Z" fill="black"/>
<path d="M34.0216 47.2726C29.4558 47.2726 25.7251 43.542 25.7251 38.9762C25.7251 34.4103 29.4558 30.6797 34.0216 30.6797C38.5874 30.6797 42.3181 34.4103 42.3181 38.9762C42.3181 43.542 38.5874 47.2726 34.0216 47.2726Z" fill="white"/>
<path d="M34.0215 31.5708C38.1419 31.5708 41.4828 34.9117 41.4828 39.0321C41.4828 43.1525 38.1419 46.4933 34.0215 46.4933C29.9011 46.4933 26.5603 43.1525 26.5603 39.0321C26.5603 34.9117 29.9011 31.5708 34.0215 31.5708ZM34.0215 29.9004C28.9546 29.9004 24.8899 33.9651 24.8899 38.9764C24.8899 43.9877 28.9546 48.1081 34.0215 48.1081C39.0885 48.1081 43.1532 44.0434 43.1532 38.9764C43.1532 33.9094 39.0328 29.9004 34.0215 29.9004Z" fill="black"/>
<g opacity="0.5">
<path opacity="0.5" d="M34.0222 34.4103C36.5278 34.4103 38.588 36.4705 38.588 38.9762C38.588 41.4818 36.5278 43.542 34.0222 43.542C31.5165 43.542 29.4563 41.4818 29.4563 38.9762C29.4563 36.4705 31.4608 34.4103 34.0222 34.4103ZM34.0222 33.8535C31.1824 33.8535 28.8995 36.1364 28.8995 38.9762C28.8995 41.8159 31.1824 44.0988 34.0222 44.0988C36.8619 44.0988 39.1448 41.8159 39.1448 38.9762C39.1448 36.1364 36.8619 33.8535 34.0222 33.8535Z" fill="black"/>
</g>
</g>
<defs>
<clipPath id="clip0">
<rect width="68.0421" height="74" fill="white"/>
</clipPath>
</defs>
</svg>
