<svg width="67" height="231" viewBox="0 0 67 231" fill="none" xmlns="http://www.w3.org/2000/svg">
<path d="M33 215.172C41.7098 215.172 49.9328 216.052 56.1 217.634C62.6459 219.334 64.918 221.328 64.918 222.5C64.918 223.672 62.5918 225.666 56.1 227.366C49.9328 228.948 41.7639 229.828 33 229.828C24.2361 229.828 16.0672 228.948 9.9 227.366C3.3541 225.666 1.08197 223.672 1.08197 222.5C1.08197 221.328 3.4082 219.334 9.9 217.634C16.0672 216.052 24.2361 215.172 33 215.172ZM33 214C14.7689 214 0 217.81 0 222.5C0 227.19 14.7689 231 33 231C51.2311 231 66 227.19 66 222.5C66 217.81 51.2311 214 33 214Z" fill="white"/>
<path d="M33 215.172C41.7098 215.172 49.9328 216.052 56.1 217.634C62.6459 219.334 64.918 221.328 64.918 222.5C64.918 223.672 62.5918 225.666 56.1 227.366C49.9328 228.948 41.7639 229.828 33 229.828C24.2361 229.828 16.0672 228.948 9.9 227.366C3.3541 225.666 1.08197 223.672 1.08197 222.5C1.08197 221.328 3.4082 219.334 9.9 217.634C16.0672 216.052 24.2361 215.172 33 215.172Z" fill="white"/>
<path d="M53.8842 24.4752C54.2667 24.4752 54.6493 24.8175 54.6493 25.2739V27.3278V29.0393H56.2887H63.5024C64.3768 29.0393 65.0326 29.781 65.0326 30.6367V222.899C64.6501 223.527 60.4967 229.232 33.3361 229.232C6.01142 229.232 1.96737 223.527 1.63948 222.899V30.6367C1.63948 29.7239 2.34992 29.0393 3.16966 29.0393H10.3834H12.0228V27.3278V25.2739C12.0228 24.8746 12.3507 24.4752 12.7879 24.4752H33.0628H33.6093H53.8842Z" fill="white"/>
<path d="M53.8842 24.4752C54.2667 24.4752 54.6493 24.8175 54.6493 25.2739V27.3278V29.0393H56.2887H63.5024C64.3768 29.0393 65.0326 29.781 65.0326 30.6367V222.899C64.6501 223.527 60.4967 229.232 33.3361 229.232C6.01142 229.232 1.96737 223.527 1.63948 222.899V30.6367C1.63948 29.7239 2.34992 29.0393 3.16966 29.0393H10.3834H12.0228V27.3278V25.2739C12.0228 24.8746 12.3507 24.4752 12.7879 24.4752H33.0628H33.6093H53.8842ZM53.8842 22.7637H33.6093H33.0628H12.7879C11.4763 22.7637 10.3834 23.8476 10.3834 25.2739V27.3278H3.16966C1.42088 27.3278 0 28.8111 0 30.6367V223.127C0 224.382 3.93475 231 33.3361 231C62.7374 231 66.6721 224.325 66.6721 223.127V30.6367C66.6721 28.8111 65.2512 27.3278 63.5024 27.3278H56.2887V25.2739C56.2887 23.8476 55.2504 22.7637 53.8842 22.7637Z" fill="black"/>
<path d="M52.4636 26.758V30.7516V31.3221H53.0101H62.3552C62.6284 31.3221 62.847 31.5503 62.847 31.8356V217.423C62.847 218.107 62.0273 224.155 33.3364 224.155C4.64553 224.155 3.82579 218.107 3.82579 217.423V31.8356C3.82579 31.5503 4.04439 31.3221 4.31763 31.3221H13.6627H14.2092V30.7516V26.758H33.0631H33.6096H52.4636ZM52.7369 26.1875H33.6096H33.0631H13.9359C13.772 26.1875 13.6627 26.3016 13.6627 26.4728V30.7516H4.31763C3.71649 30.7516 3.2793 31.265 3.2793 31.8356V217.423C3.2793 218.393 3.93509 224.725 33.3364 224.725C62.7377 224.725 63.3935 218.393 63.3935 217.423V31.8356C63.3935 31.208 62.9016 30.7516 62.3552 30.7516H53.0101V26.4728C53.0101 26.3016 52.9008 26.1875 52.7369 26.1875Z" fill="white"/>
<path d="M52.4636 26.758V30.7516V31.3221H53.0101H62.3552C62.6284 31.3221 62.847 31.5503 62.847 31.8356V217.423C62.847 218.107 62.0273 224.155 33.3364 224.155C4.64553 224.155 3.82579 218.107 3.82579 217.423V31.8356C3.82579 31.5503 4.04439 31.3221 4.31763 31.3221H13.6627H14.2092V30.7516V26.758H33.0631H33.6096H52.4636Z" fill="white"/>
<path opacity="0.5" d="M52.4656 26.758V30.7516V31.3221H53.0121H62.3571C62.6304 31.3221 62.849 31.5503 62.849 31.8356V217.423C62.849 218.107 62.0292 224.155 33.3383 224.155C4.64748 224.155 3.82774 218.107 3.82774 217.423V31.8356C3.82774 31.5503 4.04634 31.3221 4.31959 31.3221H13.6646H14.2111V30.7516V26.758H33.0651H33.6116H52.4656ZM52.7388 26.1875H33.6116H33.0651H13.9379C13.7739 26.1875 13.6646 26.3016 13.6646 26.4728V30.7516H4.31959C3.71844 30.7516 3.28125 31.265 3.28125 31.8356V217.423C3.28125 218.393 3.93704 224.725 33.3383 224.725C62.7397 224.725 63.3954 218.393 63.3954 217.423V31.8356C63.3954 31.208 62.9036 30.7516 62.3571 30.7516H53.0121V26.4728C53.0121 26.3016 52.9028 26.1875 52.7388 26.1875Z" fill="black"/>
<path d="M42.624 34.1401C49.9228 34.1401 55.8946 40.2964 55.8946 47.8208V193.179C55.8946 200.704 49.9228 206.86 42.624 206.86H24.377C17.0781 206.86 11.1064 200.704 11.1064 193.179V47.8208C11.1064 40.2964 17.0781 34.1401 24.377 34.1401H42.624Z" fill="white"/>
<path d="M42.7357 33.6039C49.9494 33.6039 55.8516 39.7654 55.8516 47.2962V192.777C55.8516 200.307 49.9494 206.469 42.7357 206.469H24.7015C17.4878 206.469 11.5857 200.307 11.5857 192.777V47.2962C11.5857 39.7654 17.4878 33.6039 24.7015 33.6039H42.7357ZM42.7357 32.4629H24.7015C16.832 32.4629 10.4927 39.0808 10.4927 47.2962V192.777C10.4927 200.992 16.832 207.61 24.7015 207.61H42.7357C50.6052 207.61 56.9446 200.992 56.9446 192.777V47.2962C56.9446 39.0808 50.5506 32.4629 42.7357 32.4629Z" fill="#0D0D0D"/>
<g opacity="0.25">
<path opacity="0.25" d="M41.0415 38.7385C46.5064 38.7385 50.933 43.3596 50.933 49.0647V191.065C50.933 196.77 46.5064 201.391 41.0415 201.391H26.3408C20.8759 201.391 16.4493 196.77 16.4493 191.065V49.0077C16.4493 43.3026 20.8759 38.6814 26.3408 38.6814H41.0415V38.7385ZM41.0415 38.168H26.3408C20.6027 38.168 15.9028 43.0173 15.9028 49.0647V191.065C15.9028 197.055 20.548 201.962 26.3408 201.962H41.0415C46.7797 201.962 51.4795 197.112 51.4795 191.065V49.0077C51.4795 43.0173 46.7797 38.168 41.0415 38.168Z" fill="black"/>
</g>
<path d="M16.0005 125H51.0005V191C51.0005 197.075 46.0756 202 40.0005 202H27.0005C20.9254 202 16.0005 197.075 16.0005 191V125Z" fill="#D7D7D7"/>
<path d="M41.0415 38.7385C46.5064 38.7385 50.933 43.3596 50.933 49.0647V191.065C50.933 196.77 46.5064 201.391 41.0415 201.391H26.3408C20.8759 201.391 16.4493 196.77 16.4493 191.065V49.0077C16.4493 43.3026 20.8759 38.6814 26.3408 38.6814H41.0415V38.7385ZM41.0415 38.168H26.3408C20.6027 38.168 15.9028 43.0173 15.9028 49.0647V191.065C15.9028 197.055 20.548 201.962 26.3408 201.962H41.0415C46.7797 201.962 51.4795 197.112 51.4795 191.065V49.0077C51.4795 43.0173 46.7797 38.168 41.0415 38.168Z" fill="black"/>
<path d="M45.4137 1.71153C45.7416 1.71153 46.0148 1.99679 46.0148 2.3391V22.7634H20.6575V2.3391C20.6575 1.99679 20.9308 1.71153 21.2587 1.71153H45.4137ZM45.4137 0H21.2587C20.0018 0 19.0181 1.02692 19.0181 2.3391V24.4749H47.7089V2.3391C47.7089 1.02692 46.6706 0 45.4137 0Z" fill="white"/>
<path d="M45.4137 1.71153C45.7416 1.71153 46.0148 1.99679 46.0148 2.3391V22.7634H20.6575V2.3391C20.6575 1.99679 20.9308 1.71153 21.2587 1.71153H45.4137Z" fill="white"/>
<path d="M45.4137 1.71153C45.7416 1.71153 46.0148 1.99679 46.0148 2.3391V22.7634H20.6575V2.3391C20.6575 1.99679 20.9308 1.71153 21.2587 1.71153H45.4137ZM45.4137 0H21.2587C20.0018 0 19.0181 1.02692 19.0181 2.3391V24.4749H47.7089V2.3391C47.7089 1.02692 46.6706 0 45.4137 0Z" fill="black"/>
<path d="M50.4415 12.7793C50.4415 12.7793 14.9194 12.7223 14.9194 17.0011C14.9194 19.6825 30.8224 19.7966 30.8224 19.7966C30.8224 19.7966 19.2367 18.7127 19.1821 16.6588C19.1821 14.8332 50.4415 12.7793 50.4415 12.7793Z" stroke="black" stroke-width="0.570963" stroke-miterlimit="10"/>
<path d="M50.4415 6.50394C50.4415 6.50394 14.9194 6.44689 14.9194 10.7257C14.9194 13.4071 30.8224 13.5212 30.8224 13.5212C30.8224 13.5212 19.2367 12.4373 19.1821 10.3834C19.1821 8.55779 50.4415 6.50394 50.4415 6.50394Z" stroke="black" stroke-width="0.570963" stroke-miterlimit="10"/>
<path opacity="0.5" d="M26.9696 49.8533C29.1781 47.8953 29.8281 44.9063 28.4214 43.1772C27.0148 41.4481 24.0842 41.6336 21.8757 43.5915C19.6673 45.5495 19.0173 48.5385 20.4239 50.2676C21.8306 51.9967 24.7612 51.8112 26.9696 49.8533Z" stroke="black" stroke-width="0.459796" stroke-miterlimit="10"/>
</svg>
