<svg width="27" height="27" viewBox="0 0 27 27" fill="none" xmlns="http://www.w3.org/2000/svg">
<path d="M18.8102 16.0218C22.1161 11.4451 21.0104 5.1078 16.3422 1.86752C11.674 -1.37275 5.20997 -0.289565 1.90488 4.28786C-1.40021 8.8645 -0.295358 15.201 4.37363 18.4413C7.70557 20.754 12.1108 20.9321 15.6252 18.8974L23.2612 26.3388C24.0857 27.1897 25.4575 27.2237 26.3254 26.4154C27.1934 25.6079 27.2281 24.263 26.4044 23.4121C26.3783 23.385 26.3531 23.3602 26.3254 23.3346L18.8102 16.0218ZM10.3512 16.7155C6.66231 16.7163 3.67154 13.7865 3.66917 10.1699C3.66838 6.55334 6.65678 3.62122 10.3465 3.61967C14.0307 3.61812 17.0198 6.54327 17.027 10.1552C17.0333 13.7725 14.0464 16.7093 10.356 16.7155C10.3544 16.7155 10.3536 16.7155 10.3512 16.7155Z" fill="#0D0D0D"/>
</svg>
