<svg width="13" height="12" viewBox="0 0 13 12" fill="none" xmlns="http://www.w3.org/2000/svg">
<path d="M8.6804 7.12078C10.1497 5.08672 9.65828 2.27013 7.58353 0.830009C5.50878 -0.610113 2.63585 -0.128696 1.16692 1.90571C-0.302005 3.93978 0.189042 6.75602 2.26415 8.19614C3.74501 9.22401 5.70288 9.30316 7.26482 8.39883L10.6586 11.7061C11.0251 12.0843 11.6348 12.0994 12.0205 11.7402C12.4063 11.3813 12.4217 10.7835 12.0556 10.4054C12.044 10.3933 12.0328 10.3823 12.0205 10.371L8.6804 7.12078ZM4.92086 7.42911C3.28134 7.42945 1.95211 6.12732 1.95106 4.51996C1.9507 2.9126 3.27888 1.60943 4.91875 1.60874C6.55616 1.60805 7.88469 2.90812 7.88785 4.51342C7.89065 6.12113 6.56318 7.42636 4.92296 7.42911C4.92226 7.42911 4.92191 7.42911 4.92086 7.42911Z" fill="#0D0D0D"/>
</svg>
