<svg width="35" height="26" viewBox="0 0 35 26" fill="none" xmlns="http://www.w3.org/2000/svg">
<path d="M17.5 0C20.1852 0 22.8776 1.02798 24.9254 3.10227C26.5144 4.71203 27.4612 6.72614 27.8177 8.81439C31.8839 9.48343 35 13.0321 35 17.3333C35 22.1104 31.1603 26 26.4444 26H7.38889C3.3089 26 0 22.6481 0 18.5152C0 14.4916 3.14238 11.2382 7.07292 11.0672C6.95917 8.20062 7.93065 5.28644 10.0868 3.10227C12.1333 1.02914 14.8148 0 17.5 0ZM17.5 1.57576C15.2089 1.57576 12.9307 2.44963 11.1806 4.22254C9.15775 6.27161 8.3132 9.05427 8.62847 11.7197C8.64232 11.8311 8.6325 11.9442 8.59967 12.0515C8.56683 12.1588 8.51174 12.2577 8.43809 12.3416C8.36444 12.4256 8.27393 12.4926 8.17262 12.5382C8.07131 12.5838 7.96155 12.6069 7.85069 12.6061H7.38889C4.14377 12.6061 1.55556 15.2279 1.55556 18.5152C1.55556 21.8024 4.14377 24.4242 7.38889 24.4242H26.4444C30.3196 24.4242 33.4444 21.2588 33.4444 17.3333C33.4444 13.6266 30.6567 10.5952 27.0885 10.267C26.9108 10.2514 26.7438 10.1744 26.6155 10.0489C26.4872 9.92338 26.4053 9.75701 26.3837 9.57765C26.1593 7.61967 25.3166 5.72683 23.8316 4.22254C22.0826 2.4508 19.7911 1.57576 17.5 1.57576ZM17.5 9.45455C17.708 9.45849 17.9114 9.54838 18.0226 9.65152L22.3004 13.5909C22.62 13.8727 22.6355 14.4042 22.3611 14.7112C22.0867 15.0182 21.5571 15.0397 21.2552 14.7604L18.2778 12.0152V20.4848C18.2778 20.92 17.9296 21.2727 17.5 21.2727C17.0704 21.2727 16.7222 20.92 16.7222 20.4848V12.0152L13.7448 14.7604C13.4429 15.0397 12.9278 15.0043 12.6389 14.7112C12.3394 14.4074 12.3953 13.8675 12.6996 13.5909L16.9774 9.65152C17.1486 9.49303 17.2936 9.45388 17.5 9.45455Z" fill="black"/>
</svg>
