<svg width="58" height="20" viewBox="0 0 58 20" fill="none" xmlns="http://www.w3.org/2000/svg">
<path d="M17.5635 19.0812L20.7436 0.302917H25.8921L22.7122 19.0812H17.5635Z" fill="#293688"/>
<path d="M41.042 0.788143C40.0216 0.407576 38.4231 0 36.4268 0C31.3384 0 27.7542 2.54752 27.7233 6.19728C27.6951 8.89492 30.2819 10.3997 32.2361 11.2986C34.2402 12.2173 34.9141 12.8067 34.9043 13.6276C34.8919 14.8863 33.3031 15.4617 31.8228 15.4617C29.7623 15.461 28.667 15.1769 26.9759 14.4761L26.3124 14.1769L25.5894 18.3807C26.7923 18.9051 29.0167 19.3598 31.3259 19.3828C36.7377 19.3816 40.2524 16.8656 40.2919 12.967C40.3115 10.8311 38.9394 9.20551 35.9687 7.86493C34.1686 6.99735 33.0662 6.4179 33.0781 5.53734C33.0781 4.75709 34.0118 3.92247 36.0271 3.92247C37.7109 3.89616 38.9308 4.26112 39.8817 4.64169L40.3424 4.85828L41.042 0.788143Z" fill="#293688"/>
<path d="M49.8208 0.302917C48.5872 0.302917 47.696 0.679627 47.1539 1.90218L39.5234 19.0819H44.9747L46.0345 16.2043H52.5474L53.1525 19.0819H57.9987L53.7589 0.303445H49.821L49.8208 0.302917ZM47.4808 12.4469C47.9061 11.3655 49.5315 7.19837 49.5315 7.19837C49.502 7.24765 49.9547 6.11174 50.2146 5.4069L50.563 7.0251C50.563 7.0251 51.548 11.5077 51.7547 12.4474H47.4808V12.4469Z" fill="#293688"/>
<path d="M8.17515 13.1752L7.72163 10.6009C6.78196 7.59998 3.86562 4.35306 0.597656 2.72627L5.14657 19.0812H10.599L18.7761 0.302917H13.3249L8.17515 13.1752Z" fill="#293688"/>
</svg>
