<svg width="39" height="63" viewBox="0 0 39 63" fill="none" xmlns="http://www.w3.org/2000/svg">
<path opacity="0.3" d="M31.0803 0.0585937L38.332 7.31036L14.5048 31.1376L38.332 54.9648L31.0803 62.2166L0.00126152 31.1376L31.0803 0.0585937Z" fill="#C4C4C4"/>
</svg>
