<svg width="39" height="63" viewBox="0 0 39 63" fill="none" xmlns="http://www.w3.org/2000/svg">
<path opacity="0.3" d="M7.91583 62.2187L0.664061 54.967L24.4913 31.1398L0.664053 7.31253L7.91582 0.060763L38.9948 31.1398L7.91583 62.2187Z" fill="#C4C4C4"/>
</svg>
